# WaveFront *.obj file (generated by Autodesk ATF)

mtllib fourth_joint.mtl

g MeshBody1

v -502.591019 -700.830002 -1443.280029
v -501.908989 -700.830002 -1485.720062
v -499.557991 -700.830002 -1400.930023
v -497.504005 -700.830002 -1527.960052
v -492.820015 -700.830002 -1358.970032
v -490.220985 -2833.460083 9.400410
v -490.136986 -2745.109863 9.353100
v -489.556007 -2833.460083 -32.393501
v -489.472008 -2745.100098 -32.026801
v -489.421997 -700.830002 -1569.700012
v -488.614998 -2646.059875 -2.905200
v -487.952003 -2648.099976 -43.104801
v -487.262993 -2833.460083 51.101098
v -487.178993 -2745.109863 50.640702
v -485.667000 -2644.020081 37.204399
v -485.260010 -2833.460083 -73.985000
v -485.177002 -2745.100098 -73.206501
v -483.670006 -2650.130005 -83.109798
v -483.595009 -2563.699951 -22.831800
v -482.938995 -2567.909851 -61.688199
v -482.435989 -700.830002 -1317.709961
v -480.690002 -2833.460083 92.412796
v -480.676994 -2559.490051 15.937901
v -480.606995 -2745.109863 91.543198
v -479.114990 -2642.000122 76.939998
v -478.700981 -2572.099915 -100.356998
v -477.705002 -700.830002 -1610.639954
v -477.375984 -2833.460083 -115.081997
v -477.294006 -2745.100098 -113.895998
v -475.812988 -2652.130127 -122.638998
v -474.192009 -2555.330048 54.346199
v -471.553001 -2479.629974 -58.106799
v -470.923996 -2576.239929 -138.564997
v -470.914001 -2486.269989 -95.177002
v -470.560989 -2833.460083 133.045998
v -470.480003 -2745.109863 131.773996
v -469.020004 -2640.020142 116.022997
v -468.708000 -2473.009949 -21.119201
v -468.466988 -700.830002 -1277.419968
v -466.781006 -2492.879944 -132.068005
v -465.947990 -2833.460083 -155.390997
v -465.867996 -2745.100098 -153.806000
v -464.421997 -2654.100037 -161.410007
v -464.201012 -2551.230011 92.123604
v -462.449989 -700.830002 -1650.489960
v -462.384987 -2466.450043 15.523601
v -459.650002 -2580.299988 -176.040993
v -459.197998 -2499.409943 -168.519993
v -456.935997 -2833.460083 172.712002
v -456.856995 -2745.109863 171.047001
v -455.438995 -2638.080139 154.174995
v -453.470993 -2390.169983 -111.625004
v -452.855988 -2399.290009 -146.499004
v -452.641983 -2459.989929 51.564498
v -451.068001 -2833.460083 -194.631004
v -451.024017 -700.830002 -1238.410034
v -450.989990 -2745.090027 -192.658005
v -450.760002 -2547.239990 129.000998
v -450.735016 -2381.060028 -76.829000
v -449.589996 -2656.019897 -199.153996
v -448.881989 -2408.370056 -181.203995
v -448.204994 -2505.809937 -204.274006
v -444.971008 -2584.259949 -212.523994
v -444.654999 -2372.050018 -42.357402
v -443.750992 -700.830002 -1688.970032
v -441.590004 -2417.339935 -215.496006
v -439.922981 -2833.460083 211.133003
v -439.846992 -2745.119934 209.087009
v -439.536018 -2453.690033 86.746798
v -438.480988 -2636.210022 191.130009
v -435.284996 -2363.179932 -8.452000
v -433.975983 -2543.370056 164.722004
v -433.890991 -2512.039948 -239.078999
v -432.829018 -2833.460083 -232.521992
v -432.755013 -2745.090027 -230.172997
v -432.279015 -820.136032 -1442.969971
v -431.693001 -820.757980 -1479.420013
v -431.411018 -2657.869873 -235.597992
v -431.017990 -2426.139984 -249.130993
v -430.327988 -2291.589966 -186.280003
v -430.219002 -700.830002 -1200.930023
v -429.743996 -2303.059998 -218.579998
v -429.670982 -819.514999 -1406.589966
v -427.905006 -821.378021 -1515.700073
v -427.732010 -2280.149994 -154.053001
v -426.977997 -2588.080139 -247.751007
v -425.973015 -2314.459991 -250.723000
v -423.875008 -818.899994 -1370.559998
v -423.170013 -2447.590027 120.825005
v -422.681007 -2354.519958 24.645600
v -421.962013 -2268.820038 -122.125998
v -421.752014 -700.830002 -1725.809937
v -420.952988 -821.988983 -1551.549988
v -419.630013 -2833.460083 248.031998
v -419.557991 -2745.119934 245.620995
v -419.053001 -2325.740051 -282.483997
v -418.255005 -2634.410095 226.622009
v -417.252998 -2434.700012 -281.874008
v -416.346016 -2518.059998 -272.686996
v -414.944000 -818.294983 -1335.110016
v -413.958015 -2539.649963 199.027004
v -413.069992 -2257.680054 -90.723104
v -411.371002 -2833.460083 -268.799000
v -411.301003 -2745.090027 -266.091003
v -410.875015 -822.589035 -1586.710052
v -410.023994 -2659.639893 -270.492001
v -409.020004 -2336.790009 -313.635998
v -406.943016 -2346.130066 56.704502
v -406.209984 -700.830002 -1165.260010
v -405.811005 -2591.730042 -281.478996
v -403.650017 -2441.730042 153.554001
v -402.929001 -817.705002 -1300.509949
v -401.109009 -2246.799927 -60.068698
v -400.955009 -2153.040009 -318.911991
v -400.411987 -2166.979980 -347.672005
v -400.381012 -2442.969971 -313.491001
v -398.535995 -2139.140015 -290.216999
v -397.752991 -823.173981 -1620.939941
v -396.898003 -2180.850067 -376.292000
v -396.598015 -700.830002 -1760.749969
v -396.441002 -903.828964 -1440.310059
v -396.212006 -2833.460083 283.155003
v -396.143990 -2745.119934 280.396004
v -395.957985 -2347.550049 -343.963013
v -395.903015 -906.317978 -1473.589935
v -395.705986 -2523.820038 -304.864998
v -394.914017 -2632.690125 260.405006
v -394.048996 -901.344986 -1407.109985
v -393.160019 -2125.370026 -261.790009
v -392.429008 -908.795013 -1506.699982
v -390.856018 -2536.109924 231.681995
v -390.449982 -2194.550018 -404.570999
v -388.732986 -898.884964 -1374.219971
v -388.171005 -2338.079987 87.494402
v -387.925987 -817.132034 -1266.999969
v -386.836014 -2833.460083 -303.199997
v -386.769981 -2745.090027 -300.151997
v -386.175003 -2236.260071 -30.376101
v -386.053009 -911.241989 -1539.429932
v -385.569000 -2661.319885 -303.581009
v -384.874992 -2111.820068 -233.829002
v -381.669998 -823.739014 -1653.990021
v -381.608009 -2595.199890 -313.463001
v -381.124001 -2436.150055 184.708004
v -381.101990 -2207.989960 -432.308998
v -380.541992 -896.464996 -1341.869965
v -380.531998 -2450.890045 -343.760986
v -379.947014 -2357.949982 -373.246002
v -379.155998 -700.830002 -1131.650009
v -376.810989 -913.643036 -1571.519928
v -373.731003 -2098.600006 -206.534004
v -372.104988 -2529.290009 -335.377998
v -370.031013 -816.583023 -1234.810028
v -369.823990 -2833.460083 316.245995
v -369.760017 -2745.119934 313.160000
v -369.523010 -894.102020 -1310.279999
v -368.931007 -2221.069946 -459.309998
v -368.611984 -2631.080017 292.234001
v -368.476982 -700.830002 -1793.540039
v -368.361015 -2226.139984 -1.858900
v -366.509018 -2330.410004 116.801996
v -364.824982 -2532.769928 262.448997
v -364.776993 -915.980988 -1602.760010
v -362.748985 -824.278030 -1685.639954
v -361.931000 -1006.579971 -1427.270050
v -361.461983 -1011.370010 -1457.400055
v -361.110992 -2367.899933 -401.282005
v -359.814987 -2085.789948 -180.095997
v -359.723015 -1001.800003 -1397.200012
v -359.407005 -2833.460083 -335.489998
v -359.346008 -2745.079956 -332.122993
v -358.311996 -1016.139984 -1487.389984
v -358.230019 -2662.900085 -334.640007
v -357.835999 -2458.399963 -372.467003
v -355.764008 -891.815033 -1279.690018
v -355.740013 -2430.890045 214.060001
v -354.846992 -997.059021 -1367.429962
v -354.548988 -2598.450012 -343.484001
v -354.012985 -2233.699951 -485.383987
v -352.510986 -1020.849991 -1517.030029
v -350.027008 -918.237000 -1632.929993
v -349.379997 -816.061020 -1204.179993
v -349.258003 -700.830002 -1100.339966
v -347.803001 -2216.510010 25.285599
v -347.346992 -992.399979 -1338.139954
v -345.721016 -2534.420013 -364.019012
v -344.090004 -1025.469971 -1546.100006
v -343.217010 -2073.480072 -154.705000
v -342.098007 -2323.190002 144.415998
v -341.113014 -824.789963 -1715.650024
v -340.661011 -2833.460083 347.081985
v -340.602989 -2745.130005 343.690987
v -339.572983 -2377.330017 -427.868996
v -339.544983 -2629.570007 321.893997
v -339.352989 -889.617004 -1250.319977
v -337.578011 -700.830002 -1823.950043
v -337.266006 -987.852020 -1309.550018
v -336.461983 -2245.800018 -510.346985
v -336.055984 -2529.669952 291.117001
v -333.605003 -1124.769974 -1389.190063
v -333.198013 -1131.490021 -1416.660004
v -333.117981 -1029.970016 -1574.400024
v -332.673988 -920.398026 -1661.820068
v -332.462997 -2465.449982 -399.411011
v -331.544991 -1118.059998 -1361.790009
v -330.317001 -1138.180008 -1443.990021
v -329.268990 -2833.460083 -365.433998
v -329.211998 -2745.079956 -361.769981
v -328.190002 -2664.360046 -363.441010
v -327.687988 -2425.989990 241.410999
v -327.024002 -1111.409988 -1334.660034
v -326.110992 -815.567017 -1175.309982
v -324.990997 -1144.789963 -1471.009979
v -324.818001 -2601.470032 -371.321983
v -324.684982 -983.447037 -1281.869965
v -324.637985 -2207.429962 50.860600
v -324.062996 -2061.779938 -130.536003
v -320.414009 -887.525024 -1222.350006
v -320.084991 -1104.879990 -1307.969971
v -319.664001 -1034.319992 -1601.730042
v -319.270000 -1245.550003 -1308.750000
v -318.836994 -1255.000000 -1333.600006
v -317.343006 -1236.110001 -1283.959961
v -317.248001 -1151.269989 -1497.510071
v -316.926003 -825.270996 -1743.809967
v -316.730003 -2539.179993 -390.578003
v -316.716995 -700.830002 -1071.539993
v -316.394005 -2257.270050 -534.020004
v -316.039009 -1264.420013 -1358.339996
v -315.494995 -2386.190033 -452.823982
v -315.121994 -2316.459961 170.144997
v -313.062000 -1226.760025 -1259.390030
v -312.831993 -922.446976 -1689.210052
v -310.904007 -1273.720016 -1382.769928
v -310.769005 -1098.499985 -1281.929932
v -309.685993 -979.216995 -1255.289993
v -308.920994 -2833.460083 375.435982
v -308.868008 -2745.130005 371.763000
v -307.908993 -2628.190002 349.165993
v -307.150002 -1157.580032 -1523.309937
v -306.464996 -1217.570038 -1235.230026
v -304.745007 -2526.809998 317.478008
v -304.584007 -2471.979980 -424.397011
v -304.129009 -700.830002 -1851.770020
v -303.829994 -1038.470001 -1627.899933
v -303.460999 -1282.839966 -1406.739960
v -302.479000 -2050.740051 -107.763996
v -300.394993 -815.108032 -1148.410034
v -299.151993 -1092.320023 -1256.699982
v -299.073009 -885.553970 -1195.999985
v -299.039001 -2198.970032 74.691300
v -297.591000 -1208.590012 -1211.640015
v -297.157001 -2421.490021 266.558990
v -296.641998 -2833.460083 -392.827988
v -296.590996 -2745.079956 -388.891983
v -295.669994 -2665.700073 -389.789009
v -294.759998 -1163.679962 -1548.229980
v -293.959007 -2268.029938 -556.239014
v -293.768997 -1291.719971 -1430.070038
v -292.632008 -2604.230042 -396.791000
v -292.383003 -975.189972 -1229.980011
v -290.650005 -924.369965 -1714.920044
v -290.349007 -825.717010 -1769.929962
v -289.037991 -2394.400024 -475.965004
v -286.509991 -1199.899979 -1188.799973
v -285.760994 -2310.269928 193.803997
v -285.720005 -1042.419968 -1652.720032
v -285.345001 -2543.529968 -414.875984
v -285.307999 -1086.380005 -1232.490005
v -281.889000 -1300.290070 -1452.610016
v -281.772995 -700.830002 -1045.469971
v -280.174007 -1169.509964 -1572.089996
v -278.626003 -2040.460052 -86.545496
v -275.489006 -883.719025 -1171.449966
v -274.836998 -2833.460083 401.114998
v -274.790001 -2745.130005 397.187996
v -274.403000 -2477.960052 -447.254982
v -273.936996 -2626.929932 373.865013
v -273.292999 -1191.549988 -1166.859970
v -272.891006 -971.396027 -1206.149979
v -272.406006 -814.686966 -1123.679962
v -271.175995 -2191.190033 96.603603
v -271.121998 -2524.219971 341.352005
v -269.344006 -1080.739975 -1209.440002
v -269.307995 -2278.020020 -576.843987
v -268.355999 -700.830002 -1876.799927
v -267.914009 -1308.500061 -1474.179993
v -266.275997 -926.153030 -1738.760071
v -265.470009 -1046.119995 -1676.020050
v -264.370003 -2417.409973 289.335995
v -263.486004 -1175.049973 -1594.720001
v -261.749992 -2833.460083 -417.467995
v -261.704998 -2745.079956 -413.288002
v -261.578007 -826.125031 -1793.829956
v -260.891991 -2666.900024 -413.489990
v -260.396996 -2401.920013 -497.136002
v -258.211002 -2606.719971 -419.700012
v -258.040009 -1183.600006 -1145.970001
v -254.232006 -2304.669952 215.230999
v -252.665005 -2031.009979 -67.035098
v -251.933994 -1316.280060 -1494.629974
v -251.781006 -2547.440033 -436.731987
v -251.366005 -1075.410004 -1187.730026
v -251.355000 -967.860031 -1183.939972
v -249.820004 -882.030029 -1148.880005
v -244.822006 -1180.240021 -1615.970001
v -244.664001 -700.830002 -1022.300034
v -243.215008 -1049.560013 -1697.619934
v -242.621994 -2287.149963 -595.694008
v -242.350006 -814.304962 -1101.279984
v -242.126007 -2483.339996 -467.816010
v -241.256008 -2184.149933 116.449003
v -240.853004 -1176.110001 -1126.299973
v -239.890003 -927.785034 -1760.570068
v -238.640995 -2833.460083 423.928986
v -238.600006 -2745.130005 419.776001
v -237.859001 -2625.820007 395.807991
v -235.415001 -2521.920013 362.561989
v -234.069004 -1323.589935 -1513.829956
v -231.509991 -1070.449982 -1167.509995
v -230.809994 -826.492996 -1815.319977
v -230.520000 -700.830002 -1898.860016
v -229.766998 -2408.679962 -516.179008
v -229.552994 -2413.789978 309.570999
v -227.921009 -964.609985 -1163.519974
v -224.845009 -2833.460083 -439.192009
v -224.806995 -2745.079956 -434.796982
v -224.787006 -2022.449951 -49.364901
v -224.307003 -1185.059967 -1635.670013
v -224.109001 -2667.959900 -434.384995
v -222.255993 -880.501022 -1128.430023
v -221.858997 -1169.140015 -1107.959976
v -221.805992 -2608.909912 -439.897003
v -220.748997 -2299.689941 234.267006
v -219.120998 -1052.699966 -1717.389984
v -216.282005 -2550.890045 -456.001015
v -214.438992 -1330.370026 -1531.640015
v -214.081993 -2295.359955 -612.649994
v -211.672001 -929.252014 -1780.189972
v -210.431995 -813.964996 -1081.380005
v -209.909992 -1065.889969 -1148.909988
v -209.482002 -2177.890015 134.080000
v -207.987003 -2488.079987 -485.942001
v -205.659008 -700.830002 -1002.190018
v -202.761002 -961.664963 -1145.029984
v -202.092991 -1189.459991 -1653.690033
v -201.186008 -1162.720032 -1091.100006
v -200.596008 -2833.460083 443.726006
v -200.562000 -2745.130005 439.375992
v -199.939003 -2624.849854 414.850006
v -198.267002 -826.816025 -1834.270020
v -197.884007 -2519.929962 380.968018
v -197.371006 -2414.629974 -532.967987
v -195.181007 -2014.839935 -33.666699
v -193.351002 -1055.520020 -1735.169983
v -193.188992 -1336.560059 -1547.929993
v -192.982998 -879.141998 -1110.270004
v -192.956009 -2410.639954 327.131004
v -190.883007 -700.830002 -1917.799988
v -186.725006 -1061.760025 -1132.080002
v -186.182995 -2833.460083 -457.835999
v -186.151009 -2745.079956 -453.255997
v -185.573006 -2668.869934 -452.318001
v -185.555992 -2295.370026 250.785999
v -183.896999 -2302.610016 -627.598991
v -183.666000 -2610.780029 -457.229996
v -181.826992 -930.546036 -1797.489929
v -179.092007 -2553.849945 -472.537003
v -178.985996 -1156.910019 -1075.830002
v -178.330002 -1193.430023 -1669.909973
v -176.882992 -813.669968 -1064.110031
v -176.084003 -2172.460022 149.379997
v -176.047001 -959.049988 -1128.610001
v -172.222996 -2492.149963 -501.498985
v -170.463009 -1342.140045 -1562.579956
v -166.091995 -1058.010025 -1750.839996
v -165.028992 -700.830002 -985.302963
v -164.174004 -827.092972 -1850.540009
v -164.062996 -2008.240051 -20.044100
v -163.432007 -2419.750061 -547.375984
v -162.215996 -877.963028 -1094.499969
v -162.112007 -1058.089981 -1117.129974
v -160.965004 -2833.460083 460.354996
v -160.937004 -2745.130005 455.842018
v -160.438004 -2624.039917 430.844994
v -158.788996 -2518.249969 396.427994
v -155.410995 -1151.750031 -1062.269974
v -154.834995 -2408.000031 341.880989
v -153.191996 -1196.920013 -1684.199982
v -152.273998 -2308.820038 -640.428009
v -150.559998 -931.656036 -1812.330017
v -150.160999 -700.830002 -1933.410034
v -148.895998 -2291.739960 264.661999
v -147.972002 -956.780014 -1114.359970
v -146.463003 -2833.460083 -473.207016
v -146.437998 -2745.079956 -468.475990
v -146.426001 -1347.059937 -1575.500031
v -145.983000 -2669.620056 -467.103004
v -144.483004 -2612.330017 -471.520996
v -141.935997 -813.423004 -1049.609985
v -141.295004 -2167.899933 162.231998
v -140.883999 -2556.289978 -486.170998
v -137.532997 -1060.149994 -1764.299927
v -136.251001 -1054.909973 -1104.150009
v -135.480003 -2495.509949 -514.324989
v -131.647997 -2002.700043 -8.600690
v -130.632000 -1147.269974 -1050.490036
v -130.165005 -876.971970 -1081.259995
v -129.147997 -827.321014 -1863.939972
v -128.563995 -2423.959961 -559.255981
v -126.852999 -1199.919968 -1696.470032
v -123.064003 -700.830002 -971.738968
v -121.245003 -1351.269989 -1586.580048
v -120.032997 -2833.460083 473.712006
v -120.011997 -2745.130005 469.066010
v -119.785995 -2313.950043 -651.005020
v -119.639997 -2623.389893 443.692017
v -118.730001 -954.872971 -1102.379990
v -118.437004 -932.572021 -1824.570007
v -118.409996 -2516.900024 408.846016
v -115.460997 -2405.879974 353.727989
v -111.032000 -2288.820038 275.806999
v -109.319000 -1052.229996 -1093.259964
v -109.070997 -700.830002 -1945.500031
v -108.190002 -1061.910019 -1775.390015
v -106.384001 -2833.460083 -485.115013
v -106.365995 -2745.069885 -480.265999
v -106.035995 -2670.199890 -478.555984
v -105.841999 -813.223038 -1037.959976
v -105.362997 -2164.239960 172.553997
v -104.946003 -2613.529968 -482.592010
v -104.820004 -1143.509979 -1040.609970
v -102.332001 -2558.190002 -496.733017
v -99.789801 -1202.389984 -1706.589966
v -98.406000 -2498.099976 -524.261017
v -98.168402 -1998.240051 0.590515
v -97.062998 -876.176987 -1070.630035
v -95.374298 -1354.750061 -1595.720062
v -93.805904 -827.499008 -1874.329987
v -93.381500 -2427.230072 -568.459015
v -88.531904 -953.341980 -1092.770004
v -87.004604 -2317.920074 -659.198990
v -86.025105 -933.281021 -1834.049988
v -81.509800 -1050.090027 -1084.509964
v -80.057802 -700.830002 -961.605988
v -78.581800 -1063.280029 -1783.979950
v -78.160100 -1140.479965 -1032.659988
v -78.084798 -2833.460083 483.689003
v -78.071499 -2745.130005 478.945007
v -77.829199 -2622.900085 453.288994
v -77.029200 -2515.899963 418.123016
v -75.110102 -2404.290009 362.578011
v -72.480001 -1204.309998 -1714.420013
v -72.228098 -2286.640015 284.132996
v -69.633999 -700.830002 -1953.959961
v -69.270301 -1357.449951 -1602.799988
v -68.850999 -813.075027 -1029.250031
v -68.539500 -2161.499939 180.265007
v -67.917600 -2833.460083 -493.443985
v -67.905998 -2745.069885 -488.512001
v -67.695198 -2670.610046 -486.567993
v -66.999302 -2614.370117 -490.335999
v -65.329900 -2559.510040 -504.121017
v -63.857899 -1994.920044 7.456280
v -63.138800 -875.582962 -1062.689972
v -62.822800 -2499.920044 -531.212006
v -59.885302 -827.622986 -1881.600037
v -59.614100 -2429.510040 -574.896011
v -57.586198 -952.198029 -1085.589981
v -55.541701 -2320.690002 -664.931030
v -54.916301 -933.777008 -1840.679932
v -53.015399 -1048.479996 -1077.969971
v -50.838599 -1138.229980 -1026.729965
v -50.163398 -1064.229965 -1789.989929
v -46.266999 -1205.650024 -1719.909973
v -44.216399 -1359.329987 -1607.760010
v -42.838898 -700.830002 -955.044022
v -41.781802 -2833.460083 490.150986
v -41.774602 -2745.140076 485.341988
v -41.645002 -2622.579956 459.504013
v -41.216798 -2515.249939 424.129982
v -40.189199 -2403.269958 368.308983
v -38.646200 -2285.229950 289.524002
v -36.838300 -812.977982 -1023.619995
v -36.671200 -2159.730072 185.258007
v -34.164500 -1992.760010 11.902100
v -33.869700 -700.830002 -1958.659973
v -33.779800 -875.197983 -1057.539978
v -33.033299 -2833.460083 -498.078003
v -33.027699 -2745.069885 -493.101006
v -32.925200 -2670.830078 -491.025009
v -32.586501 -2614.840088 -494.645004
v -31.773801 -2560.249939 -508.232002
v -30.806201 -951.456985 -1080.940018
v -30.553401 -2500.930023 -535.079002
v -29.123800 -827.692032 -1885.639954
v -28.991399 -2430.789948 -578.478012
v -28.358200 -1047.440033 -1073.740005
v -27.193699 -1136.760025 -1022.890015
v -27.008801 -2322.239990 -668.119965
v -26.704700 -934.052963 -1844.369965
v -24.391000 -1064.759979 -1793.339996
v -22.494199 -1206.389999 -1722.960052
v -21.495600 -1360.379944 -1610.509949
v -18.236400 -700.830002 -952.193985
v -17.784600 -2833.460083 492.957001
v -17.781600 -2745.140076 488.120003
v -17.726500 -2622.449951 462.204018
v -17.544000 -2514.960022 426.739006
v -17.105800 -2402.819977 370.798988
v -16.447800 -2284.620056 291.865997
v -15.677299 -812.937012 -1021.169968
v -15.605600 -2158.959961 187.427998
v -14.536600 -1991.829987 13.833600
v -14.372900 -875.030975 -1055.309982
v -13.104600 -951.135025 -1078.919983
v -12.060400 -1046.989975 -1071.900024
v -11.563900 -1136.129990 -1021.220016
v 0.057907 -700.830002 -951.696014
v 0.057976 -812.929001 -1020.739975
v 0.058010 -875.000992 -1054.919968
v 0.058071 -951.079025 -1078.570023
v 0.058177 -1046.910019 -1071.579971
v 0.058263 -1136.019974 -1020.930023
v 0.058326 -700.830002 -1960.079956
v 0.058331 -934.134979 -1845.480042
v 0.058332 -827.713013 -1886.849976
v 0.058365 -1064.919968 -1794.340057
v 0.058471 -1206.620026 -1723.869934
v 0.058576 -1360.700073 -1611.340027
v 0.058592 -1991.660004 14.170600
v 0.058668 -2158.829956 187.805996
v 0.058753 -2284.510040 292.275009
v 0.058851 -2402.740021 371.232986
v 0.058974 -2322.700043 -669.078979
v 0.058988 -2514.909973 427.195015
v 0.059079 -2431.170044 -579.555016
v 0.059173 -2501.239929 -536.240997
v 0.059189 -2622.420044 462.675018
v 0.059271 -2560.469971 -509.468002
v 0.059396 -2614.979858 -495.940018
v 0.059438 -2745.140076 488.605003
v 0.059472 -2833.460083 493.446999
v 0.059570 -2670.899963 -492.365990
v 0.059786 -2745.069885 -494.481010
v 0.059832 -2833.460083 -499.472008
v 11.680501 -1136.129990 -1021.220016
v 12.176800 -1046.989975 -1071.900024
v 13.220700 -951.135025 -1078.919983
v 14.488900 -875.030975 -1055.309982
v 14.653800 -1991.829987 13.833600
v 15.722899 -2158.959961 187.427998
v 15.793200 -812.937012 -1021.169968
v 16.565300 -2284.620056 291.865997
v 17.223500 -2402.819977 370.798988
v 17.661901 -2514.960022 426.739006
v 17.844900 -2622.449951 462.204018
v 17.900500 -2745.140076 488.120003
v 17.903600 -2833.460083 492.957001
v 18.352200 -700.830002 -952.193985
v 21.612699 -1360.379944 -1610.509949
v 22.611101 -1206.389999 -1722.960052
v 24.507699 -1064.759979 -1793.339996
v 26.821401 -934.051971 -1844.369965
v 27.126801 -2322.239990 -668.119965
v 27.310200 -1136.760025 -1022.890015
v 28.474600 -1047.440033 -1073.740005
v 29.109499 -2430.789948 -578.478012
v 29.240401 -827.692032 -1885.639954
v 30.671799 -2500.930023 -535.079002
v 30.922401 -951.456985 -1080.940018
v 31.892400 -2560.239868 -508.232002
v 32.705300 -2614.840088 -494.645004
v 33.044400 -2670.830078 -491.025009
v 33.147299 -2745.069885 -493.101006
v 33.153000 -2833.460083 -498.078003
v 33.895800 -875.197983 -1057.539978
v 33.986299 -700.830002 -1958.659973
v 34.281700 -1992.760010 11.902200
v 36.788499 -2159.730072 185.258007
v 36.954300 -812.977982 -1023.619995
v 38.763599 -2285.229950 289.524994
v 40.306902 -2403.269958 368.308983
v 41.334701 -2515.249939 424.129982
v 41.763301 -2622.579956 459.504013
v 41.893501 -2745.140076 485.341988
v 41.900702 -2833.460083 490.150986
v 42.954702 -700.830002 -955.044022
v 44.333501 -1359.329987 -1607.760010
v 46.384001 -1205.650024 -1719.900055
v 50.280099 -1064.229965 -1789.989929
v 50.955100 -1138.229980 -1026.729965
v 53.131700 -1048.479996 -1077.969971
v 55.033002 -933.776016 -1840.679932
v 55.659699 -2320.690002 -664.931030
v 57.702398 -952.198029 -1085.589981
v 59.732299 -2429.510040 -574.896011
v 60.001998 -827.622986 -1881.600037
v 62.941198 -2499.920044 -531.211014
v 63.254800 -875.582962 -1062.689972
v 63.975000 -1994.920044 7.456280
v 65.448499 -2559.510040 -504.121017
v 67.118101 -2614.370117 -490.335999
v 67.814398 -2670.610046 -486.567001
v 68.025599 -2745.069885 -488.512001
v 68.037300 -2833.460083 -493.443985
v 68.656702 -2161.499939 180.265007
v 68.966999 -813.074036 -1029.250031
v 69.387498 -1357.449951 -1602.799988
v 69.750700 -700.830002 -1953.959961
v 72.345600 -2286.640015 284.132996
v 72.596998 -1204.309998 -1714.420013
v 75.227699 -2404.290009 362.578011
v 77.147102 -2515.899963 418.123016
v 77.947502 -2622.900085 453.288994
v 78.190398 -2745.130005 478.945007
v 78.203802 -2833.460083 483.689995
v 78.276601 -1140.479965 -1032.659988
v 78.698502 -1063.280029 -1783.979950
v 80.173597 -700.830002 -961.605988
v 81.626101 -1050.090027 -1084.509964
v 86.141701 -933.280029 -1834.049988
v 87.122602 -2317.920074 -659.198990
v 88.648005 -953.341980 -1092.770004
v 93.499804 -2427.230072 -568.459015
v 93.922501 -827.498016 -1874.329987
v 95.491400 -1354.750061 -1595.720062
v 97.179003 -876.176987 -1070.630035
v 98.285503 -1998.240051 0.590286
v 98.524504 -2498.099976 -524.261017
v 99.906702 -1202.389984 -1706.589966
v 102.449999 -2558.190002 -496.733017
v 104.935999 -1143.509979 -1040.609970
v 105.065002 -2613.529968 -482.592010
v 105.480003 -2164.239960 172.553997
v 105.957003 -813.223038 -1037.959976
v 106.155005 -2670.199890 -478.555984
v 106.485996 -2745.069885 -480.265999
v 106.504002 -2833.460083 -485.115013
v 108.306999 -1061.910019 -1775.390015
v 109.188004 -700.830002 -1945.500031
v 109.434996 -1052.229996 -1093.259964
v 111.148996 -2288.820038 275.806999
v 115.579004 -2405.879974 353.727989
v 118.528004 -2516.900024 408.846016
v 118.554001 -932.571030 -1824.570007
v 118.845997 -954.872971 -1102.379990
v 119.757996 -2623.389893 443.692017
v 119.904003 -2313.950043 -651.005020
v 120.130997 -2745.130005 469.066010
v 120.151997 -2833.460083 473.712006
v 121.362000 -1351.269989 -1586.580048
v 123.179998 -700.830002 -971.737976
v 126.969995 -1199.919968 -1696.470032
v 128.682003 -2423.959961 -559.255981
v 129.264002 -827.321014 -1863.939972
v 130.281000 -876.971970 -1081.259995
v 130.747995 -1147.269974 -1050.490036
v 131.765003 -2002.700043 -8.600770
v 135.599003 -2495.500031 -514.324989
v 136.366997 -1054.909973 -1104.150009
v 137.649002 -1060.149994 -1764.299927
v 141.002998 -2556.289978 -486.170998
v 141.412001 -2167.899933 162.231007
v 142.052002 -813.422012 -1049.609985
v 144.602003 -2612.330017 -471.520996
v 146.101999 -2669.620056 -467.103004
v 146.542997 -1347.059937 -1575.500031
v 146.556997 -2745.079956 -468.475990
v 146.582003 -2833.460083 -473.207016
v 148.087997 -956.780014 -1114.359970
v 149.013004 -2291.739960 264.661999
v 150.277004 -700.830002 -1933.410034
v 150.676003 -931.656036 -1812.330017
v 152.391996 -2308.820038 -640.428009
v 153.309002 -1196.920013 -1684.199982
v 154.952002 -2408.000031 341.880989
v 155.528002 -1151.750031 -1062.269974
v 158.907003 -2518.249969 396.427994
v 160.555992 -2624.039917 430.844994
v 161.056004 -2745.130005 455.842018
v 161.084003 -2833.460083 460.354996
v 162.227993 -1058.089981 -1117.129974
v 162.332001 -877.963028 -1094.499969
v 163.549995 -2419.750061 -547.377014
v 164.179993 -2008.240051 -20.044200
v 164.290009 -827.092972 -1850.540009
v 165.144005 -700.830002 -985.302963
v 166.208000 -1058.010025 -1750.839996
v 170.580006 -1342.140045 -1562.579956
v 172.341995 -2492.149963 -501.498985
v 176.163006 -959.048996 -1128.610001
v 176.201000 -2172.460022 149.378996
v 176.998997 -813.668976 -1064.110031
v 178.446007 -1193.430023 -1669.909973
v 179.102993 -1156.910019 -1075.830002
v 179.211006 -2553.849945 -472.537003
v 181.942997 -930.544968 -1797.489929
v 183.785000 -2610.780029 -457.230988
v 184.015007 -2302.610016 -627.599983
v 185.673008 -2295.370026 250.785999
v 185.692005 -2668.869934 -452.318001
v 186.271000 -2745.079956 -453.256989
v 186.303005 -2833.460083 -457.835999
v 186.840992 -1061.760025 -1132.080002
v 190.998993 -700.830002 -1917.799988
v 193.073997 -2410.639954 327.131004
v 193.099003 -879.141998 -1110.270004
v 193.306007 -1336.560059 -1547.929993
v 193.467007 -1055.520020 -1735.169983
v 195.298004 -2014.839935 -33.666601
v 197.488995 -2414.629974 -532.969017
v 198.001995 -2519.929962 380.968018
v 198.383007 -826.816025 -1834.270020
v 200.056992 -2624.849854 414.850006
v 200.680008 -2745.130005 439.376984
v 200.713997 -2833.460083 443.726006
v 201.303005 -1162.720032 -1091.100006
v 202.208996 -1189.459991 -1653.690033
v 202.877007 -961.664963 -1145.029984
v 205.774994 -700.830002 -1002.190018
v 208.106003 -2488.079987 -485.942993
v 209.598007 -2177.890015 134.080000
v 210.027008 -1065.889969 -1148.909988
v 210.547009 -813.964996 -1081.380005
v 211.788006 -929.251022 -1780.189972
v 214.200001 -2295.359955 -612.650986
v 214.556007 -1330.370026 -1531.640015
v 216.401005 -2550.890045 -456.001015
v 219.237995 -1052.689972 -1717.389984
v 220.865993 -2299.689941 234.267006
v 221.924992 -2608.900146 -439.897995
v 221.975002 -1169.140015 -1107.959976
v 222.371006 -880.500031 -1128.430023
v 224.228001 -2667.959900 -434.385986
v 224.424000 -1185.059967 -1635.670013
v 224.902992 -2022.449951 -49.364700
v 224.925995 -2745.079956 -434.798012
v 224.965000 -2833.460083 -439.193001
v 228.036995 -964.608994 -1163.519974
v 229.669991 -2413.789978 309.570999
v 229.885006 -2408.679962 -516.180000
v 230.636997 -700.830002 -1898.860016
v 230.925999 -826.491013 -1815.319977
v 231.627007 -1070.449982 -1167.500000
v 234.186001 -1323.589935 -1513.829956
v 235.531998 -2521.920013 362.561989
v 237.977009 -2625.820007 395.808983
v 238.717995 -2745.130005 419.776001
v 238.759003 -2833.460083 423.930016
v 240.007000 -927.783966 -1760.570068
v 240.970001 -1176.110001 -1126.289978
v 241.371994 -2184.149933 116.449003
v 242.243996 -2483.339996 -467.816010
v 242.465992 -814.303970 -1101.279984
v 242.740002 -2287.149963 -595.694008
v 243.332005 -1049.550018 -1697.619934
v 244.778996 -700.830002 -1022.300034
v 244.939003 -1180.240021 -1615.959930
v 249.936008 -882.030029 -1148.880005
v 251.471004 -967.860031 -1183.939972
v 251.483002 -1075.410004 -1187.730026
v 251.900005 -2547.440033 -436.731987
v 252.050991 -1316.280060 -1494.629974
v 252.782001 -2031.009979 -67.034302
v 254.349003 -2304.669952 215.230999
v 258.157005 -1183.600006 -1145.970001
v 258.330002 -2606.709900 -419.700012
v 260.515003 -2401.920013 -497.136002
v 261.011009 -2666.900024 -413.489990
v 261.695004 -826.125031 -1793.829956
v 261.823997 -2745.079956 -413.288002
v 261.868992 -2833.460083 -417.467995
v 263.603001 -1175.049973 -1594.720001
v 264.487000 -2417.409973 289.337006
v 265.585995 -1046.119995 -1676.020050
v 266.392002 -926.153030 -1738.760071
v 268.031006 -1308.500061 -1474.179993
v 268.472004 -700.830002 -1876.799927
v 269.426003 -2278.009949 -576.843987
v 269.459991 -1080.739975 -1209.440002
v 271.238995 -2524.219971 341.352005
v 271.292992 -2191.190033 96.604404
v 272.521992 -814.685974 -1123.679962
v 273.006992 -971.395035 -1206.149979
v 273.409996 -1191.549988 -1166.859970
v 274.053993 -2626.929932 373.866005
v 274.521008 -2477.960052 -447.253990
v 274.908009 -2745.130005 397.190018
v 274.955006 -2833.460083 401.116982
v 275.604992 -883.718033 -1171.449966
v 278.743000 -2040.460052 -86.544399
v 280.289993 -1169.509964 -1572.089996
v 281.888008 -700.830002 -1045.469971
v 282.005997 -1300.290070 -1452.599945
v 285.424004 -1086.380005 -1232.490005
v 285.464001 -2543.529968 -414.875984
v 285.835991 -1042.419968 -1652.720032
v 285.877991 -2310.269928 193.805008
v 286.627007 -1199.899979 -1188.799973
v 289.155998 -2394.400024 -475.965004
v 290.466003 -825.717010 -1769.929962
v 290.765991 -924.368973 -1714.920044
v 292.499008 -975.188980 -1229.980011
v 292.751007 -2604.230042 -396.790009
v 293.885002 -1291.719971 -1430.070038
v 294.076996 -2268.029938 -556.239014
v 294.876995 -1163.679962 -1548.229980
v 295.788994 -2665.690002 -389.789009
v 296.711006 -2745.079956 -388.890991
v 296.760998 -2833.460083 -392.826004
v 297.273998 -2421.490021 266.560993
v 297.707996 -1208.590012 -1211.640015
v 299.155998 -2198.970032 74.692702
v 299.188995 -885.553970 -1195.999985
v 299.267998 -1092.320023 -1256.699982
v 300.510998 -815.108032 -1148.410034
v 302.595997 -2050.740051 -107.763004
v 303.577003 -1282.839966 -1406.739960
v 303.945999 -1038.470001 -1627.899933
v 304.244995 -700.830002 -1851.770020
v 304.701996 -2471.979980 -424.396019
v 304.862995 -2526.809998 317.479000
v 306.581993 -1217.570038 -1235.230026
v 307.266006 -1157.580032 -1523.309937
v 308.027000 -2628.190002 349.168015
v 308.985996 -2745.130005 371.766014
v 309.039001 -2833.460083 375.438995
v 309.801998 -979.216995 -1255.279999
v 310.886002 -1098.499985 -1281.929932
v 311.021004 -1273.720016 -1382.769928
v 312.947998 -922.445984 -1689.210052
v 313.178997 -1226.760025 -1259.390030
v 315.238991 -2316.459961 170.146999
v 315.613003 -2386.190033 -452.822990
v 316.156006 -1264.420013 -1358.339996
v 316.511993 -2257.270050 -534.017982
v 316.833000 -700.830002 -1071.539993
v 316.847992 -2539.170074 -390.577011
v 317.042999 -825.270996 -1743.809967
v 317.364006 -1151.269989 -1497.510071
v 317.460003 -1236.110001 -1283.959961
v 318.952999 -1255.000000 -1333.600006
v 319.386005 -1245.550003 -1308.750000
v 319.780006 -1034.309998 -1601.730042
v 320.200996 -1104.879990 -1307.969971
v 320.530014 -887.525024 -1222.350006
v 324.179993 -2061.779938 -130.535002
v 324.756012 -2207.429962 50.861902
v 324.800987 -983.448029 -1281.869965
v 324.936981 -2601.470032 -371.320992
v 325.107994 -1144.789963 -1471.009979
v 326.226997 -815.567017 -1175.309982
v 327.140007 -1111.419983 -1334.660034
v 327.804985 -2425.989990 241.411991
v 328.308983 -2664.360046 -363.440018
v 329.332008 -2745.079956 -361.767998
v 329.388008 -2833.460083 -365.432014
v 330.433998 -1138.180008 -1443.990021
v 331.660995 -1118.059998 -1361.790009
v 332.580986 -2465.449982 -399.408989
v 332.789993 -920.397034 -1661.820068
v 333.233986 -1029.970016 -1574.400024
v 333.315010 -1131.490021 -1416.660004
v 333.721008 -1124.769974 -1389.190063
v 336.174011 -2529.660034 291.119003
v 336.580009 -2245.800018 -510.345993
v 337.380981 -987.852020 -1309.550018
v 337.695007 -700.830002 -1823.950043
v 339.468994 -889.617004 -1250.309982
v 339.663010 -2629.570007 321.897011
v 339.691010 -2377.330017 -427.867012
v 340.721016 -2745.130005 343.694992
v 340.778999 -2833.460083 347.086983
v 341.230011 -824.789963 -1715.650024
v 342.215996 -2323.190002 144.417000
v 343.334007 -2073.480072 -154.703999
v 344.206009 -1025.469971 -1546.100006
v 345.839005 -2534.420013 -364.017982
v 347.462006 -992.400970 -1338.139954
v 347.920990 -2216.499939 25.286601
v 349.373016 -700.830002 -1100.339966
v 349.496994 -816.060028 -1204.179993
v 350.143013 -918.237000 -1632.929993
v 352.626991 -1020.849991 -1517.030029
v 354.129982 -2233.699951 -485.382996
v 354.668007 -2598.450012 -343.482018
v 354.962997 -997.060013 -1367.429962
v 355.858002 -2430.890045 214.062004
v 355.880013 -891.815033 -1279.690018
v 357.953987 -2458.399963 -372.466011
v 358.348999 -2662.900085 -334.637985
v 358.428001 -1016.139984 -1487.389984
v 359.464989 -2745.079956 -332.121010
v 359.527016 -2833.460083 -335.489006
v 359.838982 -1001.800003 -1397.200012
v 359.933014 -2085.789948 -180.095997
v 361.228981 -2367.899933 -401.281013
v 361.579018 -1011.370010 -1457.400055
v 362.047005 -1006.579971 -1427.270050
v 362.864990 -824.278030 -1685.639954
v 364.892998 -915.980988 -1602.760010
v 364.942017 -2532.769928 262.451000
v 366.626015 -2330.410004 116.803999
v 368.478012 -2226.139984 -1.858140
v 368.594017 -700.830002 -1793.540039
v 368.730011 -2631.069946 292.236996
v 369.048004 -2221.069946 -459.309006
v 369.639015 -894.103012 -1310.279999
v 369.878006 -2745.119934 313.164005
v 369.942017 -2833.460083 316.250992
v 370.147018 -816.583023 -1234.810028
v 372.224007 -2529.290009 -335.377007
v 373.848000 -2098.600006 -206.534004
v 376.926994 -913.643036 -1571.519928
v 379.272003 -700.830002 -1131.650009
v 380.064011 -2357.949982 -373.244019
v 380.649986 -2450.890045 -343.759003
v 380.657997 -896.464996 -1341.869965
v 381.218987 -2207.989960 -432.307014
v 381.240997 -2436.150055 184.708996
v 381.725998 -2595.199890 -313.460999
v 381.786003 -823.738022 -1653.990021
v 384.992981 -2111.820068 -233.827991
v 385.688019 -2661.319885 -303.579006
v 386.169014 -911.241989 -1539.429932
v 386.292000 -2236.260071 -30.375299
v 386.889000 -2745.079956 -300.149994
v 386.954994 -2833.460083 -303.197994
v 388.041992 -817.132034 -1266.999969
v 388.288994 -2338.079987 87.495403
v 388.848991 -898.884964 -1374.219971
v 390.567017 -2194.550018 -404.570007
v 390.974007 -2536.109924 231.683998
v 392.545013 -908.795013 -1506.699982
v 393.277016 -2125.370026 -261.788998
v 394.164009 -901.344986 -1407.109985
v 395.032005 -2632.690125 260.407009
v 395.824013 -2523.820038 -304.862995
v 396.018982 -906.317978 -1473.589935
v 396.074982 -2347.550049 -343.960991
v 396.262016 -2745.119934 280.398998
v 396.329994 -2833.460083 283.157997
v 396.557007 -903.828964 -1440.310059
v 396.713982 -700.830002 -1760.749969
v 397.014999 -2180.850067 -376.290016
v 397.868996 -823.173981 -1620.939941
v 398.652992 -2139.140015 -290.216999
v 400.498009 -2442.969971 -313.488998
v 400.528984 -2166.979980 -347.669983
v 401.072006 -2153.040009 -318.910999
v 401.226997 -2246.799927 -60.067601
v 403.044014 -817.705002 -1300.509949
v 403.768005 -2441.730042 153.555002
v 405.928993 -2591.730042 -281.476994
v 406.325989 -700.830002 -1165.260010
v 407.061005 -2346.130066 56.705699
v 409.137001 -2336.790009 -313.635006
v 410.141983 -2659.639893 -270.489998
v 410.990982 -822.589035 -1586.710052
v 411.419983 -2745.090027 -266.089001
v 411.489983 -2833.460083 -268.794994
v 413.188019 -2257.680054 -90.721998
v 414.076004 -2539.649963 199.029007
v 415.059013 -818.294983 -1335.110016
v 416.464005 -2518.059998 -272.684994
v 417.369995 -2434.700012 -281.872005
v 418.373985 -2634.400024 226.623001
v 419.169998 -2325.729980 -282.481995
v 419.677010 -2745.119934 245.622005
v 419.748993 -2833.460083 248.034992
v 421.068993 -821.988983 -1551.549988
v 421.867981 -700.830002 -1725.809937
v 422.079010 -2268.820038 -122.124996
v 422.798996 -2354.519958 24.646800
v 423.288994 -2447.590027 120.825996
v 423.991013 -818.899994 -1370.559998
v 426.091003 -2314.459991 -250.722008
v 427.095985 -2588.080139 -247.749004
v 427.849007 -2280.149994 -154.052000
v 428.021011 -821.377029 -1515.700073
v 429.786987 -819.514999 -1406.589966
v 429.861984 -2303.049927 -218.579006
v 430.335007 -700.830002 -1200.930023
v 430.444984 -2291.589966 -186.278992
v 431.134987 -2426.139984 -249.127998
v 431.529007 -2657.869873 -235.596008
v 431.809006 -820.757980 -1479.420013
v 432.394981 -820.136032 -1442.969971
v 432.873001 -2745.090027 -230.170002
v 432.947006 -2833.460083 -232.518005
v 434.007988 -2512.039948 -239.076996
v 434.095001 -2543.359985 164.722996
v 435.402985 -2363.179932 -8.450700
v 438.600998 -2636.210022 191.131001
v 439.654007 -2453.690033 86.748104
v 439.967003 -2745.119934 209.088001
v 440.042000 -2833.460083 211.135006
v 441.707001 -2417.339935 -215.494003
v 443.866005 -700.830002 -1688.970032
v 444.771996 -2372.050018 -42.355900
v 445.088005 -2584.259949 -212.521000
v 448.321991 -2505.809937 -204.270992
v 449.000015 -2408.370056 -181.201000
v 449.707985 -2656.019897 -199.151001
v 450.852013 -2381.060028 -76.827598
v 450.877991 -2547.239990 129.003000
v 451.108017 -2745.090027 -192.654991
v 451.139984 -700.830002 -1238.410034
v 451.185989 -2833.460083 -194.626999
v 452.760010 -2459.989929 51.566300
v 452.972984 -2399.290009 -146.497002
v 453.588982 -2390.169983 -111.623001
v 455.558014 -2638.080139 154.176998
v 456.977005 -2745.109863 171.047993
v 457.055016 -2833.460083 172.714005
v 459.314995 -2499.409943 -168.516998
v 459.766998 -2580.299988 -176.037998
v 462.503014 -2466.450043 15.525200
v 462.565002 -700.830002 -1650.489960
v 464.319000 -2551.230011 92.125397
v 464.538994 -2654.100037 -161.406994
v 465.985985 -2745.090027 -153.802996
v 466.066017 -2833.460083 -155.387001
v 466.898994 -2492.879944 -132.066002
v 468.582001 -700.830002 -1277.419968
v 468.825989 -2473.009949 -21.117699
v 469.138985 -2640.020142 116.025000
v 470.600014 -2745.109863 131.775999
v 470.680008 -2833.460083 133.049002
v 471.030998 -2486.269989 -95.174904
v 471.041985 -2576.239929 -138.562002
v 471.670990 -2479.629974 -58.105102
v 474.310989 -2555.330048 54.347901
v 475.931015 -2652.130127 -122.636003
v 477.412987 -2745.100098 -113.893003
v 477.495003 -2833.460083 -115.077000
v 477.821007 -700.830002 -1610.639954
v 478.819008 -2572.099915 -100.354004
v 479.234009 -2642.000122 76.941800
v 480.727005 -2745.109863 91.545200
v 480.794983 -2559.490051 15.939800
v 480.808983 -2833.460083 92.415800
v 482.551003 -700.830002 -1317.709961
v 483.056984 -2567.909851 -61.685700
v 483.712997 -2563.699951 -22.829800
v 483.788986 -2650.130005 -83.106899
v 485.294991 -2745.100098 -73.203502
v 485.377998 -2833.460083 -73.981099
v 485.784988 -2644.020081 37.205999
v 487.298012 -2745.109863 50.642500
v 487.382011 -2833.460083 51.104002
v 488.069992 -2648.099976 -43.102298
v 488.732986 -2646.059875 -2.903290
v 489.538002 -700.830002 -1569.700012
v 489.590988 -2745.100098 -32.024300
v 489.673996 -2833.460083 -32.389901
v 490.256004 -2745.100098 9.355320
v 490.340004 -2833.460083 9.403690
v 492.934990 -700.830002 -1358.970032
v 497.621002 -700.830002 -1527.960052
v 499.673996 -700.830002 -1400.930023
v 502.024994 -700.830002 -1485.720062
v 502.705994 -700.830002 -1443.280029
usemtl Steel_-_Satin
f 21 5 88
f 88 100 21
f 5 3 83
f 83 88 5
f 10 27 105
f 105 93 10
f 27 45 118
f 118 105 27
f 45 65 142
f 142 118 45
f 65 92 164
f 164 142 65
f 477 445 457
f 457 484 477
f 445 412 429
f 429 457 445
f 519 505 512
f 512 520 519
f 505 477 484
f 484 512 505
f 271 227 281
f 281 310 271
f 227 183 248
f 248 281 227
f 344 307 340
f 340 371 344
f 307 271 310
f 310 340 307
f 412 377 400
f 400 429 412
f 377 344 371
f 371 400 377
f 183 149 212
f 212 248 183
f 149 109 182
f 182 212 149
f 109 81 153
f 153 182 109
f 81 56 135
f 135 153 81
f 56 39 112
f 112 135 56
f 39 21 100
f 100 112 39
f 92 120 190
f 190 164 92
f 120 159 225
f 225 190 120
f 159 196 263
f 263 225 159
f 196 244 294
f 294 263 196
f 2 4 84
f 84 77 2
f 4 10 93
f 93 84 4
f 3 1 76
f 76 83 3
f 1 2 77
f 77 76 1
f 244 286 321
f 321 294 244
f 286 322 351
f 351 321 286
f 322 359 378
f 378 351 322
f 359 392 409
f 409 378 359
f 392 424 439
f 439 409 392
f 424 455 467
f 467 439 424
f 455 487 496
f 496 467 455
f 487 525 527
f 527 496 487
f 1063 1064 989
f 989 988 1063
f 1064 1062 982
f 982 989 1064
f 1020 1038 960
f 960 947 1020
f 1038 1055 972
f 972 960 1038
f 973 1000 923
f 923 901 973
f 1000 1020 947
f 947 923 1000
f 653 620 608
f 608 636 653
f 620 588 581
f 581 608 620
f 588 560 553
f 553 581 588
f 560 519 520
f 520 553 560
f 882 838 784
f 784 817 882
f 838 794 755
f 755 784 838
f 794 758 725
f 725 755 794
f 758 721 694
f 694 725 758
f 721 688 665
f 665 694 721
f 688 653 636
f 636 665 688
f 1044 1026 953
f 953 965 1044
f 1026 1009 930
f 930 953 1026
f 821 869 802
f 802 771 821
f 869 906 840
f 840 802 869
f 1055 1061 981
f 981 972 1055
f 1061 1063 988
f 988 981 1061
f 743 779 744
f 744 714 743
f 779 821 771
f 771 744 779
f 673 706 687
f 687 656 673
f 706 743 714
f 714 687 706
f 610 641 626
f 626 598 610
f 641 673 656
f 656 626 641
f 956 916 853
f 853 883 956
f 916 882 817
f 817 853 916
f 1009 984 912
f 912 930 1009
f 984 956 883
f 883 912 984
f 906 945 875
f 875 840 906
f 945 973 901
f 901 875 945
f 1062 1060 977
f 977 982 1062
f 1060 1044 965
f 965 977 1060
f 525 578 569
f 569 527 525
f 578 610 598
f 598 569 578
f 133 146 100
f 100 88 133
f 128 133 88
f 88 83 128
f 133 128 169
f 169 177 133
f 146 133 177
f 177 185 146
f 150 139 93
f 93 105 150
f 163 150 105
f 105 118 163
f 150 163 202
f 202 187 150
f 139 150 187
f 187 180 139
f 181 163 118
f 118 142 181
f 203 181 142
f 142 164 203
f 181 203 245
f 245 220 181
f 163 181 220
f 220 202 163
f 465 488 484
f 484 457 465
f 437 465 457
f 457 429 437
f 465 437 441
f 441 469 465
f 488 465 469
f 469 494 488
f 515 521 520
f 520 512 515
f 488 515 512
f 512 484 488
f 515 488 494
f 494 516 515
f 521 515 516
f 516 522 521
f 305 331 310
f 310 281 305
f 274 305 281
f 281 248 274
f 305 274 304
f 304 325 305
f 331 305 325
f 325 345 331
f 357 381 371
f 371 340 357
f 331 357 340
f 340 310 331
f 357 331 345
f 345 373 357
f 381 357 373
f 373 394 381
f 408 437 429
f 429 400 408
f 381 408 400
f 400 371 381
f 408 381 394
f 394 418 408
f 437 408 418
f 418 441 437
f 250 274 248
f 248 212 250
f 218 250 212
f 212 182 218
f 250 218 261
f 261 280 250
f 274 250 280
f 280 304 274
f 195 218 182
f 182 153 195
f 175 195 153
f 153 135 175
f 195 175 215
f 215 236 195
f 218 195 236
f 236 261 218
f 156 175 135
f 135 112 156
f 146 156 112
f 112 100 146
f 156 146 185
f 185 197 156
f 175 156 197
f 197 215 175
f 233 203 164
f 164 190 233
f 262 233 190
f 190 225 262
f 233 262 289
f 289 267 233
f 203 233 267
f 267 245 203
f 288 262 225
f 225 263 288
f 314 288 263
f 263 294 314
f 288 314 335
f 335 308 288
f 262 288 308
f 308 289 262
f 130 125 77
f 77 84 130
f 139 130 84
f 84 93 139
f 130 139 180
f 180 172 130
f 125 130 172
f 172 166 125
f 121 128 83
f 83 76 121
f 125 121 76
f 76 77 125
f 121 125 166
f 166 165 121
f 128 121 165
f 165 169 128
f 339 314 294
f 294 321 339
f 367 339 321
f 321 351 367
f 339 367 376
f 376 355 339
f 314 339 355
f 355 335 314
f 391 367 351
f 351 378 391
f 419 391 378
f 378 409 419
f 391 419 425
f 425 403 391
f 367 391 403
f 403 376 367
f 443 419 409
f 409 439 443
f 471 443 439
f 439 467 471
f 443 471 474
f 474 446 443
f 419 443 446
f 446 425 419
f 501 471 467
f 467 496 501
f 526 501 496
f 496 527 526
f 501 526 528
f 528 502 501
f 471 501 502
f 502 474 471
f 944 940 988
f 988 989 944
f 937 944 989
f 989 982 937
f 944 937 896
f 896 900 944
f 940 944 900
f 900 899 940
f 915 902 947
f 947 960 915
f 926 915 960
f 960 972 926
f 915 926 885
f 885 878 915
f 902 915 878
f 878 863 902
f 884 862 901
f 901 923 884
f 902 884 923
f 923 947 902
f 884 902 863
f 863 845 884
f 862 884 845
f 845 820 862
f 600 628 636
f 636 608 600
f 577 600 608
f 608 581 577
f 600 577 571
f 571 596 600
f 628 600 596
f 596 624 628
f 550 577 581
f 581 553 550
f 521 550 553
f 553 520 521
f 550 521 522
f 522 549 550
f 577 550 549
f 549 571 577
f 760 791 817
f 817 784 760
f 734 760 784
f 784 755 734
f 760 734 720
f 720 740 760
f 791 760 740
f 740 761 791
f 708 734 755
f 755 725 708
f 684 708 725
f 725 694 684
f 708 684 671
f 671 692 708
f 734 708 692
f 692 720 734
f 657 684 694
f 694 665 657
f 628 657 665
f 665 636 628
f 657 628 624
f 624 647 657
f 684 657 647
f 647 671 684
f 909 919 965
f 965 953 909
f 890 909 953
f 953 930 890
f 909 890 850
f 850 868 909
f 919 909 868
f 868 880 919
f 777 751 771
f 771 802 777
f 803 777 802
f 802 840 803
f 777 803 776
f 776 757 777
f 751 777 757
f 757 730 751
f 935 926 972
f 972 981 935
f 940 935 981
f 981 988 940
f 935 940 899
f 899 893 935
f 926 935 893
f 893 885 926
f 726 698 714
f 714 744 726
f 751 726 744
f 744 771 751
f 726 751 730
f 730 710 726
f 698 726 710
f 710 689 698
f 674 646 656
f 656 687 674
f 698 674 687
f 687 714 698
f 674 698 689
f 689 662 674
f 646 674 662
f 662 640 646
f 622 594 598
f 598 626 622
f 646 622 626
f 626 656 646
f 622 646 640
f 640 619 622
f 594 622 619
f 619 591 594
f 815 847 883
f 883 853 815
f 791 815 853
f 853 817 791
f 815 791 761
f 761 785 815
f 847 815 785
f 785 804 847
f 870 890 930
f 930 912 870
f 847 870 912
f 912 883 847
f 870 847 804
f 804 829 870
f 890 870 829
f 829 850 890
f 832 803 840
f 840 875 832
f 862 832 875
f 875 901 862
f 832 862 820
f 820 798 832
f 803 832 798
f 798 776 803
f 932 937 982
f 982 977 932
f 919 932 977
f 977 965 919
f 932 919 880
f 880 888 932
f 937 932 888
f 888 896 937
f 564 526 527
f 527 569 564
f 594 564 569
f 569 598 594
f 564 594 591
f 591 563 564
f 526 564 563
f 563 528 526
f 211 219 185
f 185 177 211
f 205 211 177
f 177 169 205
f 211 205 223
f 223 232 211
f 219 211 232
f 232 241 219
f 224 213 180
f 180 187 224
f 240 224 187
f 187 202 240
f 224 240 259
f 259 246 224
f 213 224 246
f 246 234 213
f 257 240 202
f 202 220 257
f 272 257 220
f 220 245 272
f 257 272 287
f 287 270 257
f 240 257 270
f 270 259 240
f 472 498 494
f 494 469 472
f 444 472 469
f 469 441 444
f 472 444 447
f 447 473 472
f 498 472 473
f 473 499 498
f 517 523 522
f 522 516 517
f 498 517 516
f 516 494 498
f 517 498 499
f 499 518 517
f 523 517 518
f 518 524 523
f 341 360 345
f 345 325 341
f 320 341 325
f 325 304 320
f 341 320 332
f 332 347 341
f 360 341 347
f 347 369 360
f 382 404 394
f 394 373 382
f 360 382 373
f 373 345 360
f 382 360 369
f 369 387 382
f 404 382 387
f 387 407 404
f 423 444 441
f 441 418 423
f 404 423 418
f 418 394 404
f 423 404 407
f 407 432 423
f 444 423 432
f 432 447 444
f 303 320 304
f 304 280 303
f 284 303 280
f 280 261 284
f 303 284 298
f 298 313 303
f 320 303 313
f 313 332 320
f 269 284 261
f 261 236 269
f 249 269 236
f 236 215 249
f 269 249 265
f 265 279 269
f 284 269 279
f 279 298 284
f 235 249 215
f 215 197 235
f 219 235 197
f 197 185 219
f 235 219 241
f 241 252 235
f 249 235 252
f 252 265 249
f 291 272 245
f 245 267 291
f 306 291 267
f 267 289 306
f 291 306 319
f 319 301 291
f 272 291 301
f 301 287 272
f 329 306 289
f 289 308 329
f 346 329 308
f 308 335 346
f 329 346 356
f 356 337 329
f 306 329 337
f 337 319 306
f 206 201 166
f 166 172 206
f 213 206 172
f 172 180 213
f 206 213 234
f 234 229 206
f 201 206 229
f 229 222 201
f 200 205 169
f 169 165 200
f 201 200 165
f 165 166 201
f 200 201 222
f 222 221 200
f 205 200 221
f 221 223 205
f 370 346 335
f 335 355 370
f 389 370 355
f 355 376 389
f 370 389 397
f 397 375 370
f 346 370 375
f 375 356 346
f 411 389 376
f 376 403 411
f 434 411 403
f 403 425 434
f 411 434 438
f 438 413 411
f 389 411 413
f 413 397 389
f 453 434 425
f 425 446 453
f 475 453 446
f 446 474 475
f 453 475 476
f 476 456 453
f 434 453 456
f 456 438 434
f 503 475 474
f 474 502 503
f 529 503 502
f 502 528 529
f 503 529 530
f 530 504 503
f 475 503 504
f 504 476 475
f 865 864 899
f 899 900 865
f 860 865 900
f 900 896 860
f 865 860 842
f 842 844 865
f 864 865 844
f 844 843 864
f 841 825 863
f 863 878 841
f 852 841 878
f 878 885 852
f 841 852 831
f 831 819 841
f 825 841 819
f 819 806 825
f 808 793 820
f 820 845 808
f 825 808 845
f 845 863 825
f 808 825 806
f 806 795 808
f 793 808 795
f 795 778 793
f 593 621 624
f 624 596 593
f 567 593 596
f 596 571 567
f 593 567 566
f 566 592 593
f 621 593 592
f 592 618 621
f 548 567 571
f 571 549 548
f 523 548 549
f 549 522 523
f 548 523 524
f 524 547 548
f 567 548 547
f 547 566 567
f 724 745 761
f 761 740 724
f 705 724 740
f 740 720 705
f 724 705 696
f 696 718 724
f 745 724 718
f 718 733 745
f 683 705 720
f 720 692 683
f 661 683 692
f 692 671 661
f 683 661 658
f 658 678 683
f 705 683 678
f 678 696 705
f 642 661 671
f 671 647 642
f 621 642 647
f 647 624 621
f 642 621 618
f 618 633 642
f 661 642 633
f 633 658 661
f 830 846 880
f 880 868 830
f 816 830 868
f 868 850 816
f 830 816 800
f 800 813 830
f 846 830 813
f 813 824 846
f 736 719 730
f 730 757 736
f 759 736 757
f 757 776 759
f 736 759 746
f 746 728 736
f 719 736 728
f 728 709 719
f 859 852 885
f 885 893 859
f 864 859 893
f 893 899 864
f 859 864 843
f 843 836 859
f 852 859 836
f 836 831 852
f 695 676 689
f 689 710 695
f 719 695 710
f 710 730 719
f 695 719 709
f 709 690 695
f 676 695 690
f 690 668 676
f 654 631 640
f 640 662 654
f 676 654 662
f 662 689 676
f 654 676 668
f 668 652 654
f 631 654 652
f 652 627 631
f 612 590 591
f 591 619 612
f 631 612 619
f 619 640 631
f 612 631 627
f 627 609 612
f 590 612 609
f 609 589 590
f 762 781 804
f 804 785 762
f 745 762 785
f 785 761 745
f 762 745 733
f 733 752 762
f 781 762 752
f 752 767 781
f 796 816 850
f 850 829 796
f 781 796 829
f 829 804 781
f 796 781 767
f 767 786 796
f 816 796 786
f 786 800 816
f 774 759 776
f 776 798 774
f 793 774 798
f 798 820 793
f 774 793 778
f 778 764 774
f 759 774 764
f 764 746 759
f 854 860 896
f 896 888 854
f 846 854 888
f 888 880 846
f 854 846 824
f 824 833 854
f 860 854 833
f 833 842 860
f 562 529 528
f 528 563 562
f 590 562 563
f 563 591 590
f 562 590 589
f 589 561 562
f 529 562 561
f 561 530 529
f 232 223 117
f 117 129 232
f 246 259 157
f 157 145 246
f 270 287 198
f 198 179 270
f 473 447 436
f 436 464 473
f 499 486 514
f 514 518 499
f 347 332 273
f 273 300 347
f 369 328 354
f 354 387 369
f 407 379 406
f 406 432 407
f 313 298 217
f 217 247 313
f 279 265 168
f 168 188 279
f 241 141 151
f 151 252 241
f 301 319 258
f 258 228 301
f 337 356 309
f 309 285 337
f 234 132 119
f 119 229 234
f 222 115 114
f 114 221 222
f 375 397 365
f 365 338 375
f 413 438 416
f 416 390 413
f 456 476 470
f 470 442 456
f 504 530 535
f 535 500 504
f 844 842 948
f 948 951 844
f 819 831 933
f 933 920 819
f 806 908 886
f 886 795 806
f 592 566 579
f 579 601 592
f 524 531 551
f 551 547 524
f 718 696 737
f 737 765 718
f 678 658 686
f 686 711 678
f 618 629 659
f 659 633 618
f 813 800 897
f 897 914 813
f 728 746 807
f 807 780 728
f 843 950 946
f 946 836 843
f 709 756 727
f 727 690 709
f 668 700 675
f 675 652 668
f 627 649 623
f 623 609 627
f 733 792 818
f 818 752 733
f 767 848 877
f 877 786 767
f 778 867 837
f 837 764 778
f 824 924 936
f 936 833 824
f 589 595 565
f 565 561 589
f 91 102 141
f 141 129 91
f 85 91 129
f 129 117 85
f 91 85 59
f 59 64 91
f 102 91 64
f 64 71 102
f 107 96 132
f 132 145 107
f 124 107 145
f 145 157 124
f 107 124 98
f 98 79 107
f 96 107 79
f 79 66 96
f 148 124 157
f 157 179 148
f 167 148 179
f 179 198 167
f 148 167 147
f 147 116 148
f 124 148 116
f 116 98 124
f 458 485 486
f 486 464 458
f 430 458 464
f 464 436 430
f 458 430 422
f 422 454 458
f 485 458 454
f 454 483 485
f 513 532 531
f 531 514 513
f 485 513 514
f 514 486 485
f 513 485 483
f 483 511 513
f 532 513 511
f 511 533 532
f 282 312 328
f 328 300 282
f 251 282 300
f 300 273 251
f 282 251 231
f 231 266 282
f 312 282 266
f 266 299 312
f 342 372 379
f 379 354 342
f 312 342 354
f 354 328 312
f 342 312 299
f 299 334 342
f 372 342 334
f 334 364 372
f 401 430 436
f 436 406 401
f 372 401 406
f 406 379 372
f 401 372 364
f 364 393 401
f 430 401 393
f 393 422 430
f 216 251 273
f 273 247 216
f 184 216 247
f 247 217 184
f 216 184 161
f 161 189 216
f 251 216 189
f 189 231 251
f 160 184 217
f 217 188 160
f 138 160 188
f 188 168 138
f 160 138 108
f 108 134 160
f 184 160 134
f 134 161 184
f 113 138 168
f 168 151 113
f 102 113 151
f 151 141 102
f 113 102 71
f 71 90 113
f 138 113 90
f 90 108 138
f 193 167 198
f 198 228 193
f 230 193 228
f 228 258 230
f 193 230 204
f 204 174 193
f 167 193 174
f 174 147 167
f 264 230 258
f 258 285 264
f 296 264 285
f 285 309 296
f 264 296 277
f 277 243 264
f 230 264 243
f 243 204 230
f 87 82 115
f 115 119 87
f 96 87 119
f 119 132 96
f 87 96 66
f 66 61 87
f 82 87 61
f 61 53 82
f 80 85 117
f 117 114 80
f 82 80 114
f 114 115 82
f 80 82 53
f 53 52 80
f 85 80 52
f 52 59 85
f 323 296 309
f 309 338 323
f 353 323 338
f 338 365 353
f 323 353 343
f 343 311 323
f 296 323 311
f 311 277 296
f 380 353 365
f 365 390 380
f 410 380 390
f 390 416 410
f 380 410 405
f 405 374 380
f 353 380 374
f 374 343 353
f 440 410 416
f 416 442 440
f 468 440 442
f 442 470 468
f 440 468 466
f 466 435 440
f 410 440 435
f 435 405 410
f 497 468 470
f 470 500 497
f 537 497 500
f 500 535 537
f 497 537 538
f 538 495 497
f 468 497 495
f 495 466 468
f 985 983 950
f 950 951 985
f 980 985 951
f 951 948 980
f 985 980 1006
f 1006 1013 985
f 983 985 1013
f 1013 1012 983
f 958 941 908
f 908 920 958
f 969 958 920
f 920 933 969
f 958 969 999
f 999 986 958
f 941 958 986
f 986 967 941
f 917 898 867
f 867 886 917
f 941 917 886
f 886 908 941
f 917 941 967
f 967 949 917
f 898 917 949
f 949 918 898
f 607 635 629
f 629 601 607
f 580 607 601
f 601 579 580
f 607 580 582
f 582 611 607
f 635 607 611
f 611 643 635
f 552 580 579
f 579 551 552
f 532 552 551
f 551 531 532
f 552 532 533
f 533 554 552
f 580 552 554
f 554 582 580
f 783 814 792
f 792 765 783
f 753 783 765
f 765 737 753
f 783 753 766
f 766 799 783
f 814 783 799
f 799 834 814
f 723 753 737
f 737 711 723
f 693 723 711
f 711 686 693
f 723 693 701
f 701 731 723
f 753 723 731
f 731 766 753
f 664 693 686
f 686 659 664
f 635 664 659
f 659 629 635
f 664 635 643
f 643 672 664
f 693 664 672
f 672 701 693
f 952 963 924
f 924 914 952
f 927 952 914
f 914 897 927
f 952 927 957
f 957 975 952
f 963 952 975
f 975 994 963
f 801 769 756
f 756 780 801
f 835 801 780
f 780 807 835
f 801 835 861
f 861 822 801
f 769 801 822
f 822 788 769
f 978 969 933
f 933 946 978
f 983 978 946
f 946 950 983
f 978 983 1012
f 1012 1004 978
f 969 978 1004
f 1004 999 969
f 742 712 700
f 700 727 742
f 769 742 727
f 727 756 769
f 742 769 788
f 788 754 742
f 712 742 754
f 754 722 712
f 685 655 649
f 649 675 685
f 712 685 675
f 675 700 712
f 685 712 722
f 722 691 685
f 655 685 691
f 691 660 655
f 625 597 595
f 595 623 625
f 655 625 623
f 623 649 655
f 625 655 660
f 660 630 625
f 597 625 630
f 630 599 597
f 849 881 848
f 848 818 849
f 814 849 818
f 818 792 814
f 849 814 834
f 834 876 849
f 881 849 876
f 876 904 881
f 905 927 897
f 897 877 905
f 881 905 877
f 877 848 881
f 905 881 904
f 904 931 905
f 927 905 931
f 931 957 927
f 872 835 807
f 807 837 872
f 898 872 837
f 837 867 898
f 872 898 918
f 918 891 872
f 835 872 891
f 891 861 835
f 974 980 948
f 948 936 974
f 963 974 936
f 936 924 963
f 974 963 994
f 994 1001 974
f 980 974 1001
f 1001 1006 980
f 568 537 535
f 535 565 568
f 597 568 565
f 565 595 597
f 568 597 599
f 599 570 568
f 537 568 570
f 570 538 537
f 37 25 24
f 24 36 37
f 25 15 14
f 14 24 25
f 30 43 42
f 42 29 30
f 43 60 57
f 57 42 43
f 60 78 75
f 75 57 60
f 78 106 104
f 104 75 78
f 480 450 449
f 449 479 480
f 450 417 415
f 415 449 450
f 539 508 507
f 507 542 539
f 508 480 479
f 479 507 508
f 278 239 238
f 238 276 278
f 239 194 192
f 192 238 239
f 350 317 316
f 316 349 350
f 317 278 276
f 276 316 317
f 417 385 384
f 384 415 417
f 385 350 349
f 349 384 385
f 194 158 155
f 155 192 194
f 158 127 123
f 123 155 158
f 127 97 95
f 95 123 127
f 97 70 68
f 68 95 97
f 70 51 50
f 50 68 70
f 51 37 36
f 36 50 51
f 106 140 137
f 137 104 106
f 140 173 171
f 171 137 140
f 173 209 208
f 208 171 173
f 209 256 255
f 255 208 209
f 12 18 17
f 17 9 12
f 18 30 29
f 29 17 18
f 15 11 7
f 7 14 15
f 11 12 9
f 9 7 11
f 256 295 293
f 293 255 256
f 295 330 327
f 327 293 295
f 330 363 362
f 362 327 330
f 363 398 396
f 396 362 363
f 398 428 427
f 427 396 398
f 428 461 460
f 460 427 428
f 461 491 490
f 490 460 461
f 491 544 545
f 545 490 491
f 1053 1054 1058
f 1058 1056 1053
f 1054 1050 1051
f 1051 1058 1054
f 1005 1022 1023
f 1023 1008 1005
f 1022 1035 1036
f 1036 1023 1022
f 959 987 990
f 990 961 959
f 987 1005 1008
f 1008 990 987
f 648 615 616
f 616 650 648
f 615 585 586
f 586 616 615
f 585 557 558
f 558 586 585
f 557 539 542
f 542 558 557
f 871 826 827
f 827 873 871
f 826 787 789
f 789 827 826
f 787 748 749
f 749 789 787
f 748 715 716
f 716 749 748
f 715 680 681
f 681 716 715
f 680 648 650
f 650 681 680
f 1028 1014 1015
f 1015 1029 1028
f 1014 995 997
f 997 1015 1014
f 809 856 857
f 857 810 809
f 856 892 894
f 894 857 856
f 1035 1047 1048
f 1048 1036 1035
f 1047 1053 1056
f 1056 1048 1047
f 735 770 772
f 772 738 735
f 770 809 810
f 810 772 770
f 667 702 703
f 703 669 667
f 702 735 738
f 738 703 702
f 604 637 638
f 638 605 604
f 637 667 669
f 669 638 637
f 938 907 910
f 910 942 938
f 907 871 873
f 873 910 907
f 995 968 970
f 970 997 995
f 968 938 942
f 942 970 968
f 892 925 928
f 928 894 892
f 925 959 961
f 961 928 925
f 1050 1040 1041
f 1041 1051 1050
f 1040 1028 1029
f 1029 1041 1040
f 544 574 575
f 575 545 544
f 574 604 605
f 605 575 574
f 14 13 22
f 22 24 14
f 36 24 22
f 22 35 36
f 57 55 41
f 41 42 57
f 29 42 41
f 41 28 29
f 104 103 74
f 74 75 104
f 55 57 75
f 75 74 55
f 415 414 448
f 448 449 415
f 479 449 448
f 448 478 479
f 479 478 506
f 506 507 479
f 542 507 506
f 506 543 542
f 192 191 237
f 237 238 192
f 276 238 237
f 237 275 276
f 276 275 315
f 315 316 276
f 349 316 315
f 315 348 349
f 349 348 383
f 383 384 349
f 414 415 384
f 384 383 414
f 123 122 154
f 154 155 123
f 191 192 155
f 155 154 191
f 68 67 94
f 94 95 68
f 122 123 95
f 95 94 122
f 36 35 49
f 49 50 36
f 67 68 50
f 50 49 67
f 171 170 136
f 136 137 171
f 103 104 137
f 137 136 103
f 255 254 207
f 207 208 255
f 170 171 208
f 208 207 170
f 29 28 16
f 16 17 29
f 9 17 16
f 16 8 9
f 9 8 6
f 6 7 9
f 13 14 7
f 7 6 13
f 327 326 292
f 292 293 327
f 254 255 293
f 293 292 254
f 396 395 361
f 361 362 396
f 326 327 362
f 362 361 326
f 460 459 426
f 426 427 460
f 395 396 427
f 427 426 395
f 545 546 489
f 489 490 545
f 459 460 490
f 490 489 459
f 1051 1052 1059
f 1059 1058 1051
f 1056 1058 1059
f 1059 1057 1056
f 1036 1037 1024
f 1024 1023 1036
f 1008 1023 1024
f 1024 1010 1008
f 1008 1010 991
f 991 990 1008
f 961 990 991
f 991 962 961
f 586 587 617
f 617 616 586
f 650 616 617
f 617 651 650
f 542 543 559
f 559 558 542
f 587 586 558
f 558 559 587
f 789 790 828
f 828 827 789
f 873 827 828
f 828 874 873
f 716 717 750
f 750 749 716
f 790 789 749
f 749 750 790
f 650 651 682
f 682 681 650
f 717 716 681
f 681 682 717
f 997 998 1016
f 1016 1015 997
f 1029 1015 1016
f 1016 1030 1029
f 894 895 858
f 858 857 894
f 810 857 858
f 858 811 810
f 1056 1057 1049
f 1049 1048 1056
f 1037 1036 1048
f 1048 1049 1037
f 810 811 773
f 773 772 810
f 738 772 773
f 773 739 738
f 738 739 704
f 704 703 738
f 669 703 704
f 704 670 669
f 669 670 639
f 639 638 669
f 605 638 639
f 639 606 605
f 873 874 911
f 911 910 873
f 942 910 911
f 911 943 942
f 942 943 971
f 971 970 942
f 998 997 970
f 970 971 998
f 961 962 929
f 929 928 961
f 895 894 928
f 928 929 895
f 1029 1030 1043
f 1043 1041 1029
f 1052 1051 1041
f 1041 1043 1052
f 605 606 576
f 576 575 605
f 546 545 575
f 575 576 546
f 25 31 23
f 23 15 25
f 31 25 37
f 37 44 31
f 43 47 63
f 63 60 43
f 47 43 30
f 30 33 47
f 78 86 110
f 110 106 78
f 86 78 60
f 60 63 86
f 450 451 420
f 420 417 450
f 451 450 480
f 480 481 451
f 508 509 481
f 481 480 508
f 509 508 539
f 539 536 509
f 239 242 199
f 199 194 239
f 242 239 278
f 278 283 242
f 317 318 283
f 283 278 317
f 318 317 350
f 350 352 318
f 385 386 352
f 352 350 385
f 386 385 417
f 417 420 386
f 158 162 131
f 131 127 158
f 162 158 194
f 194 199 162
f 97 101 72
f 72 70 97
f 101 97 127
f 127 131 101
f 51 58 44
f 44 37 51
f 58 51 70
f 70 72 58
f 140 143 178
f 178 173 140
f 143 140 106
f 106 110 143
f 209 214 260
f 260 256 209
f 214 209 173
f 173 178 214
f 18 26 33
f 33 30 18
f 26 18 12
f 12 20 26
f 11 19 20
f 20 12 11
f 19 11 15
f 15 23 19
f 295 297 333
f 333 330 295
f 297 295 256
f 256 260 297
f 363 366 399
f 399 398 363
f 366 363 330
f 330 333 366
f 428 431 462
f 462 461 428
f 431 428 398
f 398 399 431
f 491 492 541
f 541 544 491
f 492 491 461
f 461 462 492
f 1054 1046 1042
f 1042 1050 1054
f 1046 1054 1053
f 1053 1045 1046
f 1022 1018 1032
f 1032 1035 1022
f 1018 1022 1005
f 1005 1002 1018
f 987 979 1002
f 1002 1005 987
f 979 987 959
f 959 955 979
f 615 614 584
f 584 585 615
f 614 615 648
f 648 645 614
f 557 556 536
f 536 539 557
f 556 557 585
f 585 584 556
f 826 823 782
f 782 787 826
f 823 826 871
f 871 866 823
f 748 747 713
f 713 715 748
f 747 748 787
f 787 782 747
f 680 679 645
f 645 648 680
f 679 680 715
f 715 713 679
f 1014 1007 993
f 993 995 1014
f 1007 1014 1028
f 1028 1021 1007
f 856 851 887
f 887 892 856
f 851 856 809
f 809 805 851
f 1047 1039 1045
f 1045 1053 1047
f 1039 1047 1035
f 1035 1032 1039
f 770 768 805
f 805 809 770
f 768 770 735
f 735 732 768
f 702 699 732
f 732 735 702
f 699 702 667
f 667 666 699
f 637 634 666
f 666 667 637
f 634 637 604
f 604 603 634
f 907 903 866
f 866 871 907
f 903 907 938
f 938 934 903
f 968 964 934
f 934 938 968
f 964 968 995
f 995 993 964
f 925 922 955
f 955 959 925
f 922 925 892
f 892 887 922
f 1040 1034 1021
f 1021 1028 1040
f 1034 1040 1050
f 1050 1042 1034
f 574 573 603
f 603 604 574
f 573 574 544
f 544 541 573
f 46 64 59
f 59 38 46
f 31 46 38
f 38 23 31
f 46 31 44
f 44 54 46
f 64 46 54
f 54 71 64
f 62 79 98
f 98 73 62
f 47 62 73
f 73 63 47
f 62 47 33
f 33 48 62
f 79 62 48
f 48 66 79
f 99 116 147
f 147 126 99
f 86 99 126
f 126 110 86
f 99 86 63
f 63 73 99
f 116 99 73
f 73 98 116
f 452 454 422
f 422 421 452
f 451 452 421
f 421 420 451
f 452 451 481
f 481 482 452
f 454 452 482
f 482 483 454
f 510 511 483
f 483 482 510
f 509 510 482
f 482 481 509
f 510 509 536
f 536 534 510
f 511 510 534
f 534 533 511
f 253 266 231
f 231 210 253
f 242 253 210
f 210 199 242
f 253 242 283
f 283 290 253
f 266 253 290
f 290 299 266
f 324 334 299
f 299 290 324
f 318 324 290
f 290 283 318
f 324 318 352
f 352 358 324
f 334 324 358
f 358 364 334
f 388 393 364
f 364 358 388
f 386 388 358
f 358 352 386
f 388 386 420
f 420 421 388
f 393 388 421
f 421 422 393
f 176 189 161
f 161 144 176
f 162 176 144
f 144 131 162
f 176 162 199
f 199 210 176
f 189 176 210
f 210 231 189
f 111 134 108
f 108 89 111
f 101 111 89
f 89 72 101
f 111 101 131
f 131 144 111
f 134 111 144
f 144 161 134
f 69 90 71
f 71 54 69
f 58 69 54
f 54 44 58
f 69 58 72
f 72 89 69
f 90 69 89
f 89 108 90
f 152 174 204
f 204 186 152
f 143 152 186
f 186 178 143
f 152 143 110
f 110 126 152
f 174 152 126
f 126 147 174
f 226 243 277
f 277 268 226
f 214 226 268
f 268 260 214
f 226 214 178
f 178 186 226
f 243 226 186
f 186 204 243
f 40 61 66
f 66 48 40
f 26 40 48
f 48 33 26
f 40 26 20
f 20 34 40
f 61 40 34
f 34 53 61
f 32 52 53
f 53 34 32
f 19 32 34
f 34 20 19
f 32 19 23
f 23 38 32
f 52 32 38
f 38 59 52
f 302 311 343
f 343 336 302
f 297 302 336
f 336 333 297
f 302 297 260
f 260 268 302
f 311 302 268
f 268 277 311
f 368 374 405
f 405 402 368
f 366 368 402
f 402 399 366
f 368 366 333
f 333 336 368
f 374 368 336
f 336 343 374
f 433 435 466
f 466 463 433
f 431 433 463
f 463 462 431
f 433 431 399
f 399 402 433
f 435 433 402
f 402 405 435
f 493 495 538
f 538 540 493
f 492 493 540
f 540 541 492
f 493 492 462
f 462 463 493
f 495 493 463
f 463 466 495
f 1033 1013 1006
f 1006 1027 1033
f 1046 1033 1027
f 1027 1042 1046
f 1033 1046 1045
f 1045 1031 1033
f 1013 1033 1031
f 1031 1012 1013
f 1003 986 999
f 999 1017 1003
f 1018 1003 1017
f 1017 1032 1018
f 1003 1018 1002
f 1002 992 1003
f 986 1003 992
f 992 967 986
f 966 949 967
f 967 992 966
f 979 966 992
f 992 1002 979
f 966 979 955
f 955 939 966
f 949 966 939
f 939 918 949
f 613 611 582
f 582 583 613
f 614 613 583
f 583 584 614
f 613 614 645
f 645 644 613
f 611 613 644
f 644 643 611
f 555 554 533
f 533 534 555
f 556 555 534
f 534 536 556
f 555 556 584
f 584 583 555
f 554 555 583
f 583 582 554
f 812 799 766
f 766 775 812
f 823 812 775
f 775 782 823
f 812 823 866
f 866 855 812
f 799 812 855
f 855 834 799
f 741 731 701
f 701 707 741
f 747 741 707
f 707 713 747
f 741 747 782
f 782 775 741
f 731 741 775
f 775 766 731
f 677 672 643
f 643 644 677
f 679 677 644
f 644 645 679
f 677 679 713
f 713 707 677
f 672 677 707
f 707 701 672
f 996 975 957
f 957 976 996
f 1007 996 976
f 976 993 1007
f 996 1007 1021
f 1021 1011 996
f 975 996 1011
f 1011 994 975
f 839 822 861
f 861 879 839
f 851 839 879
f 879 887 851
f 839 851 805
f 805 797 839
f 822 839 797
f 797 788 822
f 1025 1004 1012
f 1012 1031 1025
f 1039 1025 1031
f 1031 1045 1039
f 1025 1039 1032
f 1032 1017 1025
f 1004 1025 1017
f 1017 999 1004
f 763 754 788
f 788 797 763
f 768 763 797
f 797 805 768
f 763 768 732
f 732 729 763
f 754 763 729
f 729 722 754
f 697 691 722
f 722 729 697
f 699 697 729
f 729 732 699
f 697 699 666
f 666 663 697
f 691 697 663
f 663 660 691
f 632 630 660
f 660 663 632
f 634 632 663
f 663 666 634
f 632 634 603
f 603 602 632
f 630 632 602
f 602 599 630
f 889 876 834
f 834 855 889
f 903 889 855
f 855 866 903
f 889 903 934
f 934 921 889
f 876 889 921
f 921 904 876
f 954 931 904
f 904 921 954
f 964 954 921
f 921 934 964
f 954 964 993
f 993 976 954
f 931 954 976
f 976 957 931
f 913 891 918
f 918 939 913
f 922 913 939
f 939 955 922
f 913 922 887
f 887 879 913
f 891 913 879
f 879 861 891
f 1019 1001 994
f 994 1011 1019
f 1034 1019 1011
f 1011 1021 1034
f 1019 1034 1042
f 1042 1027 1019
f 1001 1019 1027
f 1027 1006 1001
f 572 570 599
f 599 602 572
f 573 572 602
f 602 603 573
f 572 573 541
f 541 540 572
f 570 572 540
f 540 538 570
f 241 232 129
f 129 141 241
f 234 246 145
f 145 132 234
f 259 270 179
f 179 157 259
f 499 473 464
f 464 486 499
f 524 518 514
f 514 531 524
f 369 347 300
f 300 328 369
f 407 387 354
f 354 379 407
f 447 432 406
f 406 436 447
f 332 313 247
f 247 273 332
f 298 279 188
f 188 217 298
f 265 252 151
f 151 168 265
f 287 301 228
f 228 198 287
f 319 337 285
f 285 258 319
f 222 229 119
f 119 115 222
f 223 221 114
f 114 117 223
f 356 375 338
f 338 309 356
f 397 413 390
f 390 365 397
f 438 456 442
f 442 416 438
f 476 504 500
f 500 470 476
f 843 844 951
f 951 950 843
f 806 819 920
f 920 908 806
f 778 795 886
f 886 867 778
f 618 592 601
f 601 629 618
f 566 547 551
f 551 579 566
f 733 718 765
f 765 792 733
f 696 678 711
f 711 737 696
f 658 633 659
f 659 686 658
f 824 813 914
f 914 924 824
f 709 728 780
f 780 756 709
f 831 836 946
f 946 933 831
f 668 690 727
f 727 700 668
f 627 652 675
f 675 649 627
f 589 609 623
f 623 595 589
f 767 752 818
f 818 848 767
f 800 786 877
f 877 897 800
f 746 764 837
f 837 807 746
f 842 833 936
f 936 948 842
f 530 561 565
f 565 535 530
f 6 8 16
f 16 28 41
f 41 55 74
f 16 41 74
f 74 103 136
f 136 170 207
f 74 136 207
f 207 254 292
f 292 326 361
f 207 292 361
f 74 207 361
f 361 395 426
f 426 459 489
f 361 426 489
f 489 546 576
f 576 606 639
f 489 576 639
f 361 489 639
f 74 361 639
f 639 670 704
f 704 739 773
f 639 704 773
f 773 811 858
f 858 895 929
f 773 858 929
f 639 773 929
f 929 962 991
f 991 1010 1024
f 929 991 1024
f 1024 1037 1049
f 1049 1057 1059
f 1024 1049 1059
f 929 1024 1059
f 639 929 1059
f 1059 1052 1043
f 1043 1030 1016
f 1059 1043 1016
f 1016 998 971
f 971 943 911
f 1016 971 911
f 1059 1016 911
f 911 874 828
f 828 790 750
f 911 828 750
f 750 717 682
f 682 651 617
f 750 682 617
f 911 750 617
f 1059 911 617
f 617 559 506
f 448 414 383
f 506 448 383
f 617 506 383
f 383 348 315
f 315 275 237
f 383 315 237
f 237 191 154
f 154 122 94
f 237 154 94
f 383 237 94
f 617 383 94
f 1059 617 94
f 639 1059 94
f 74 639 94
f 94 67 49
f 49 35 22
f 94 49 22
f 74 94 22
f 16 74 22
f 6 16 22
f 13 6 22
f 21 39 56
f 56 81 109
f 109 149 183
f 56 109 183
f 183 227 271
f 271 307 344
f 183 271 344
f 344 377 412
f 412 445 477
f 344 412 477
f 183 344 477
f 477 519 588
f 588 620 653
f 653 688 721
f 588 653 721
f 477 588 721
f 183 477 721
f 721 758 794
f 794 838 882
f 721 794 882
f 882 916 956
f 956 984 1009
f 882 956 1009
f 721 882 1009
f 1009 1026 1044
f 1044 1060 1062
f 1009 1044 1062
f 1062 1064 1063
f 1063 1061 1055
f 1062 1063 1055
f 1009 1062 1055
f 721 1009 1055
f 1055 1038 1020
f 1020 1000 973
f 1055 1020 973
f 973 945 906
f 906 869 821
f 973 906 821
f 1055 973 821
f 821 779 743
f 743 706 673
f 821 743 673
f 673 641 610
f 610 578 525
f 673 610 525
f 821 673 525
f 1055 821 525
f 525 487 455
f 455 424 392
f 525 455 392
f 392 359 322
f 322 286 244
f 392 322 244
f 525 392 244
f 244 196 159
f 159 120 92
f 244 159 92
f 92 65 45
f 45 27 10
f 92 45 10
f 244 92 10
f 525 244 10
f 1055 525 10
f 721 1055 10
f 183 721 10
f 10 4 2
f 2 1 3
f 10 2 3
f 183 10 3
f 56 183 3
f 21 56 3
f 5 21 3

# 1064 vertices
# 0 texture params
# 0 normals
# 2119 facets

# 1 groups
