# WaveFront *.obj file (generated by Autodesk ATF)

mtllib third_joint.mtl

g MeshBody1

v -653.005981 809.177017 16.747400
v -652.120972 809.177017 -38.362999
v -649.067993 809.177017 71.735201
v -646.402969 809.177017 -93.206797
v -640.318985 809.177017 126.209002
v -635.908012 809.177017 -147.397003
v -626.836014 809.177017 179.789009
v -620.695000 809.177017 -200.550003
v -609.900017 504.244995 47.357202
v -609.796982 503.367996 -31.566200
v -608.698997 809.177017 232.091999
v -605.702019 508.101997 124.596004
v -605.382004 505.354996 -108.910999
v -600.886993 809.177017 -252.292995
v -597.215004 515.055008 196.886997
v -596.950989 509.837990 -181.536999
v -586.052017 809.177017 282.752991
v -585.283012 523.973999 261.429005
v -584.802017 516.450996 -246.299992
v -576.608009 809.177017 -302.255993
v -570.744019 533.726006 315.421009
v -570.024986 524.911995 -303.260002
v -559.039001 809.177017 331.408997
v -553.858986 543.916016 360.848007
v -553.707008 534.938011 -352.475014
v -551.594009 -14.316700 18.107300
v -551.437988 32.564499 6.828610
v -550.304985 -15.238100 116.985998
v -549.950981 30.777600 108.529997
v -549.541016 71.777201 -1.742550
v -549.165993 -11.865799 -84.418898
v -548.940010 36.452401 -98.450899
v -548.586998 -62.763000 30.538900
v -548.045998 809.177017 -350.091019
v -547.877998 69.755902 101.644001
v -547.591019 -62.701001 126.056995
v -547.407990 100.277996 -7.697140
v -547.374992 -15.155400 209.671993
v -547.058983 76.855001 -107.631998
v -546.626015 30.434899 203.707008
v -546.538010 115.023003 -11.125500
v -546.292000 122.799997 -12.988300
v -546.232986 -61.592302 -68.041401
v -546.027985 130.394001 -14.243200
v -545.751991 98.466501 96.852999
v -545.410004 121.857996 93.655996
v -545.359001 129.466000 92.300396
v -545.234985 113.678999 94.681997
v -545.164986 -61.912398 216.068001
v -545.126991 -9.578960 -177.266006
v -544.989014 106.126003 -113.473997
v -544.879990 -14.594600 293.621006
v -544.743996 40.107598 -194.183006
v -544.280014 69.725699 198.778992
v -544.193993 121.048002 -117.488003
v -543.995018 128.730001 -119.989996
v -543.712997 136.279001 -121.295004
v -543.609009 30.879700 289.417000
v -543.233986 -60.903401 298.127995
v -542.879982 -13.804500 361.469002
v -542.705994 82.336397 -204.246998
v -542.364006 -60.268302 -157.061005
v -542.046013 99.430599 195.599003
v -541.997986 133.859997 193.341999
v -541.969986 125.860996 194.747009
v -541.766014 -59.842801 364.478989
v -541.631012 116.262999 194.876995
v -541.580009 -9.149430 -247.105999
v -541.431999 -13.033900 405.853004
v -541.136017 41.196499 -267.238998
v -541.078987 31.715801 358.662987
v -540.993004 -106.669998 42.569599
v -540.956993 70.620298 285.916004
v -540.728989 -58.898702 407.358017
v -540.530014 113.423996 -210.223007
v -540.457001 -106.021004 134.787998
v -540.042000 -12.378800 434.542007
v -539.733009 129.686003 -214.869003
v -539.558983 138.171997 -217.994003
v -539.547997 -58.161802 434.919014
v -539.253006 145.932999 -219.398994
v -539.212990 32.547600 404.448013
v -538.820992 -59.869800 -223.897991
v -538.757019 85.568104 -279.811001
v -538.634987 -104.701996 222.290993
v -538.633003 -106.219997 -51.821299
v -538.390007 -9.588790 -303.061008
v -538.315010 101.907997 283.962002
v -538.214989 -11.935400 455.304985
v -538.134003 71.920800 356.324005
v -537.981987 40.974598 -325.313988
v -537.645988 -57.722201 455.304985
v -537.603989 33.267100 434.189987
v -537.135010 -103.148003 302.539997
v -537.070999 122.024002 284.400997
v -536.590996 134.768000 285.088997
v -536.239014 143.940001 283.885994
v -536.067009 119.586000 -287.688999
v -536.035004 73.108501 403.278008
v -535.966988 -101.602001 367.422981
v -535.840988 33.766000 455.304985
v -535.513000 -59.838400 -278.171005
v -535.418015 -9.907990 -354.248009
v -535.222015 87.474899 -340.121994
v -535.153999 40.697098 -376.102982
v -535.143013 -100.310001 408.832016
v -534.967995 -105.506001 -137.129002
v -534.883003 554.147987 399.695015
v -534.875984 105.038996 355.443993
v -534.688988 138.868999 -293.738003
v -534.632988 546.707993 -395.769005
v -534.476013 -10.979199 487.811012
v -534.322014 74.073000 433.897018
v -534.033012 -99.378595 435.285988
v -534.026985 149.652004 -297.644997
v -533.757019 -56.652999 487.811012
v -533.488998 158.168001 -299.102001
v -532.714005 -10.099601 -400.304985
v -532.655983 74.703898 455.303993
v -532.484016 40.552802 -421.799011
v -532.350998 -59.615598 -329.497986
v -532.257004 34.610600 487.809982
v -532.132988 129.300003 357.008018
v -532.109985 88.981800 -390.974998
v -532.044983 107.964001 403.545990
v -532.004013 -98.916302 455.304985
v -531.697006 125.122004 -349.914017
v -531.585999 -105.365000 -202.094002
v -530.329018 -10.155801 -440.866013
v -530.103989 146.346998 358.646011
v -529.810982 40.730400 -464.594002
v -529.649010 110.511999 435.029984
v -529.463997 -59.260402 -376.040001
v -529.222984 75.469699 487.809982
v -528.998985 149.125004 -357.123985
v -528.989983 157.826996 357.985992
v -528.861008 90.632896 -437.745018
v -528.420982 -105.397997 -255.452003
v -528.296013 -149.955997 54.862700
v -528.230019 -149.139996 143.811998
v -527.976990 -97.763901 487.811012
v -527.865982 809.177017 377.723007
v -527.515984 112.510004 456.660995
v -527.515984 130.543003 -400.937996
v -527.389984 136.429996 406.455994
v -527.365990 -10.485300 -472.948990
v -527.125015 163.871994 -361.493988
v -527.000008 -147.595997 228.778000
v -526.977997 -58.831100 -415.961990
v -526.604004 40.617299 -499.393005
v -526.074982 173.752003 -362.767982
v -525.929985 -149.696999 -35.466900
v -525.877991 -145.671997 307.157993
v -525.402985 -105.207996 -305.935993
v -524.940987 -143.736000 370.504990
v -524.916000 92.972803 -485.801010
v -524.272003 -142.156000 410.373993
v -523.834991 -58.800702 -447.102013
v -523.643990 114.575996 488.936005
v -523.338013 158.368998 409.382019
v -523.185997 -141.056004 435.671005
v -523.039017 143.056002 438.958015
v -522.910004 136.226997 -447.910004
v -522.645988 -104.864998 -351.783981
v -522.602997 160.977993 -408.064003
v -522.450981 -149.187002 -117.306995
v -521.161003 173.638992 409.696999
v -520.998001 -140.559998 455.304985
v -520.475006 94.566298 -526.184998
v -520.265999 -104.441004 -391.230011
v -519.277000 148.815002 460.730019
v -519.178009 -149.252005 -180.788002
v -518.582001 181.532001 -412.094002
v -517.263985 142.552996 -497.979012
v -517.084007 -104.387999 -422.097015
v -516.842995 -1.369050 637.737999
v -516.837006 -139.306002 487.811012
v -516.749992 169.964008 442.975998
v -516.669006 193.448009 -412.770004
v -516.407013 -46.024899 637.737999
v -516.101990 -149.490004 -233.353004
v -515.696983 173.423004 -452.061005
v -515.386009 809.177017 -395.455017
v -514.403000 43.113799 637.737999
v -513.787003 154.909000 492.310982
v -513.212013 -149.500999 -282.448997
v -513.041000 189.493008 444.380989
v -511.757011 566.999016 435.381012
v -511.586990 560.401001 -434.967003
v -511.180000 82.906904 637.737999
v -511.002007 -86.337404 637.737999
v -510.793991 180.263996 465.110016
v -510.572014 -149.344997 -327.042999
v -510.231018 -196.000004 153.760996
v -509.984016 -196.534996 68.078599
v -509.538994 200.114994 -452.472992
v -509.473991 -194.661999 235.963993
v -508.758011 -192.819004 312.287998
v -508.478012 185.450993 -494.620018
v -508.246994 -149.078999 -366.105995
v -508.149986 -190.897999 373.928986
v -507.714005 -189.326992 412.085991
v -507.686996 -195.970993 -18.680400
v -506.754990 214.199009 -451.417999
v -506.696014 -188.222008 436.099014
v -505.992012 159.438000 -554.421005
v -505.106010 -149.081001 -397.111015
v -504.920006 203.502998 467.397003
v -504.338989 -187.698002 455.303993
v -504.328003 -195.209007 -97.426796
v -504.226990 124.076004 637.893982
v -501.138000 217.103004 -485.657997
v -500.898018 -195.149994 -159.068003
v -500.354996 -127.194996 637.737999
v -500.037003 -186.275005 487.809982
v -498.135986 200.811996 497.514992
v -497.821999 232.945004 -481.027985
v -497.543983 -195.337009 -210.324993
v -495.001984 208.227997 -534.131012
v -494.417992 -195.312996 -257.915993
v -492.738991 809.177017 421.358986
v -491.552010 -195.128994 -301.322002
v -490.984001 225.676003 490.228996
v -490.592995 172.684994 638.366013
v -488.978996 -194.839001 -340.023994
v -488.819008 -7.027710 841.724014
v -487.680016 240.435009 -515.489998
v -487.388000 36.489899 841.724014
v -487.234001 -243.848000 164.069996
v -486.985016 -242.765999 243.383999
v -486.769981 -241.098995 317.572994
v -486.614990 -244.094009 81.705303
v -486.595001 -239.300995 377.456017
v -486.467018 -237.826004 413.851013
v -485.895996 -194.713001 -371.320992
v -485.561981 -236.746998 436.538010
v -485.135994 -46.992798 841.724014
v -484.329987 256.385002 -507.214012
v -484.226990 -243.251991 -1.640630
v -484.194984 -173.486996 637.737999
v -483.056984 -236.133995 455.303001
v -483.045006 79.272900 841.724014
v -482.919006 577.635994 -471.502991
v -482.419014 585.042000 471.324997
v -480.793991 -242.248001 -77.388902
v -478.874016 809.177017 -438.033981
v -478.639984 -234.465008 487.809982
v -477.991982 117.033997 841.724014
v -477.042007 -242.003002 -136.962004
v -476.208000 -88.225403 841.724014
v -473.974991 229.144001 -595.190010
v -473.264008 -242.045002 -186.616001
v -470.623016 222.497005 643.351974
v -469.753990 -241.898003 -232.609997
v -469.323006 252.921009 -568.987999
v -468.981018 155.819998 841.724014
v -466.517982 -241.611004 -274.836006
v -465.415993 266.018009 524.361000
v -465.345993 257.579994 541.143990
v -463.562012 -241.229000 -313.181000
v -463.543015 -221.054993 637.737999
v -463.470001 278.050995 -545.807991
v -461.907005 -135.544996 841.724014
v -461.525993 -283.656006 415.546989
v -461.278000 -285.156994 380.848007
v -460.903015 -287.021008 322.655983
v -460.783005 -282.500992 436.960983
v -460.741997 291.215992 -535.592003
v -460.479012 -240.930004 -344.748001
v -460.461006 -288.771000 250.566006
v -460.010986 -289.930000 174.174995
v -458.750000 -290.317001 95.230103
v -458.184013 -281.672993 455.303001
v -458.119011 27.158999 -686.138992
v -457.831001 -21.503899 -667.596970
v -455.873985 -289.750004 15.476100
v -453.919983 809.177017 462.019997
v -453.707008 -279.669991 487.809982
v -452.767982 201.678009 841.724014
v -452.761993 77.689400 -705.208969
v -452.578011 -67.889400 -649.728012
v -452.039986 -288.978996 -57.095900
v -448.270988 604.902992 505.429993
v -447.907982 -288.754997 -114.493999
v -446.980019 600.033989 -506.814003
v -444.663010 267.269993 657.050018
v -443.778000 -288.719997 -162.476997
v -443.105011 -184.631004 841.724014
v -443.042984 -111.588001 -632.678986
v -439.953003 -288.514996 -206.807003
v -439.566002 131.438999 -725.352020
v -439.421005 -265.743999 637.737999
v -438.754997 809.176025 -477.518997
v -437.389984 292.376995 -627.458000
v -436.403008 -288.181000 -247.800007
v -434.522018 306.984997 -599.282990
v -433.454018 -326.036987 417.140999
v -433.098984 -287.758999 -285.769005
v -432.864990 -324.793015 437.360001
v -432.803001 -327.616997 384.037018
v -432.102013 313.113003 560.153999
v -431.823006 -329.626999 327.434006
v -430.885010 322.691002 -574.001999
v -430.825996 247.556000 841.725006
v -430.677986 307.940998 576.535988
v -430.651016 -331.568985 257.339993
v -430.130005 -323.786011 455.302010
v -429.883995 -287.376995 -317.413006
v -429.426994 -332.942009 183.761005
v -429.151001 331.996994 -562.705002
v -429.049988 -153.738003 -615.971985
v -427.384987 -333.629990 108.123999
v -425.559998 -321.510010 487.809982
v -423.759995 -333.512993 31.855500
v -420.672989 -231.163998 841.724014
v -419.296989 -333.120003 -37.661700
v -416.334000 189.759007 -747.117004
v -414.738007 -332.977982 -93.043804
v -413.525009 308.731003 673.525009
v -412.121010 -307.194996 637.737999
v -411.669006 809.177017 499.407005
v -410.714989 623.204002 535.597000
v -410.423012 -195.477009 -599.128990
v -410.299988 -332.885017 -139.533997
v -406.543007 622.352982 -538.690987
v -406.202011 -332.638016 -182.374992
v -404.632988 286.401997 841.726990
v -402.808990 -364.189987 418.599014
v -402.374992 -332.271004 -222.264004
v -402.318001 -362.932014 437.723007
v -401.769981 -365.826988 386.953011
v -400.191994 -367.957001 331.803017
v -399.306984 -361.943016 455.301018
v -398.750992 -331.817017 -259.899006
v -398.306999 -370.050011 263.530006
v -396.346016 -371.577988 192.509003
v -395.327988 -331.385994 -291.508999
v -395.323982 809.176025 -513.639984
v -394.956017 -274.596004 841.724014
v -394.926987 355.544014 587.969017
v -394.645004 349.351997 -655.538025
v -394.519997 -359.602013 487.809982
v -393.681984 357.874985 -625.113983
v -393.513985 -372.453995 119.856997
v -393.218994 351.685982 603.258018
v -392.302017 367.095985 -597.463989
v -391.655006 373.288002 -585.098000
v -389.016991 -372.591019 46.685200
v -386.306000 246.530991 -768.037033
v -386.128006 -236.781998 -581.678009
v -383.791008 -372.388992 -20.199599
v -381.936989 -345.049019 637.737999
v -378.773994 -372.246017 -73.988600
v -378.022995 348.606987 686.838989
v -374.313011 321.371994 841.731033
v -374.047012 -372.062988 -119.408998
v -373.004990 62.292500 -840.425034
v -372.366982 16.301600 -833.368988
v -369.766998 640.040970 562.266006
v -369.691010 -371.741982 -161.182995
v -366.753006 109.682999 -847.647018
v -366.333008 -27.200799 -826.735992
v -366.296997 809.177017 533.266983
v -366.295013 -314.379997 841.724014
v -365.602989 -371.310005 -200.282993
v -365.257988 -400.270004 419.967995
v -364.822998 -399.122009 438.064003
v -364.384003 639.348984 -564.931984
v -364.020996 -401.827011 389.687996
v -362.128983 -403.862991 335.903015
v -361.699982 -398.312988 455.299988
v -361.683006 -370.793991 -237.681007
v -359.872017 -405.853004 269.333992
v -358.032990 -370.293007 -269.227009
v -357.537994 -407.270012 200.702991
v -356.917992 -396.054993 487.809982
v -356.143990 392.420998 609.375992
v -355.671005 -69.005499 -820.225983
v -355.130005 -277.630005 -563.144989
v -354.682999 388.862000 623.325005
v -354.285011 -408.023987 130.766001
v -352.720985 295.632992 -785.647964
v -352.118988 157.384005 -854.776993
v -349.345016 407.359009 -616.694984
v -349.266014 -408.022995 60.279598
v -349.212990 402.304001 -646.378021
v -349.118004 411.883011 -603.751984
v -348.876991 809.176025 -546.133003
v -348.736000 397.718010 -678.818970
v -345.423012 -381.366005 637.737999
v -343.572006 -407.644997 -4.449460
v -341.150017 -109.903002 -813.535995
v -340.693016 384.532013 697.345963
v -339.990005 355.624008 841.733017
v -338.292999 -407.271004 -57.111802
v -333.418007 -406.845016 -101.878996
v -331.433983 -352.569008 841.724014
v -330.689011 203.117008 -861.745987
v -328.940010 -406.310005 -142.919998
v -326.622009 52.346201 -871.852036
v -326.539993 12.029700 -865.735016
v -325.444984 655.509033 585.875015
v -324.724007 -405.680008 -181.490002
v -323.549004 -149.122000 -806.793976
v -320.736008 -26.458399 -859.794006
v -320.695000 93.468599 -878.010025
v -320.632019 -404.967995 -218.843002
v -320.259018 -317.108994 -543.121986
v -318.813000 653.809967 -587.359009
v -318.115005 809.177017 563.348999
v -318.010998 422.853012 625.946999
v -316.800003 -404.281998 -250.464993
v -316.784000 419.514008 638.748016
v -316.464996 -436.435013 421.292992
v -316.060009 -435.564003 438.395004
v -315.396996 -437.653999 392.336006
v -314.894009 337.355003 -800.357971
v -313.750992 -439.198990 339.872017
v -313.290997 -435.063019 455.301018
v -311.788006 -440.615997 274.948997
v -310.032005 -64.355402 -853.697968
v -309.771996 -441.451988 208.621998
v -309.088993 -432.975998 487.809982
v -308.476009 134.373999 -884.072037
v -306.840992 -441.572990 141.190996
v -304.340000 386.735001 841.735001
v -304.074001 414.142990 705.401001
v -304.046993 244.605007 -868.485031
v -303.645992 -185.888996 -800.121994
v -303.638992 439.567986 -632.197990
v -303.526001 436.987000 -662.975006
v -302.660999 435.124016 -696.687012
v -302.406006 444.575996 -619.648018
v -302.131004 -440.844002 72.955298
v -299.752007 809.176025 -574.779015
v -299.136009 -418.204994 637.737999
v -296.690998 -439.748993 9.848630
v -295.249996 -102.896996 -847.110977
v -291.569996 -438.769989 -42.195401
v -290.354996 174.060001 -889.914017
v -287.115993 -391.213989 841.724014
v -286.814003 -437.823982 -86.723003
v -284.344997 -354.310989 -521.197014
v -282.472992 -436.827011 -127.280998
v -278.372993 -435.763016 -165.524998
v -278.152008 -221.781998 -790.500031
v -277.705002 669.545975 606.425018
v -277.619991 -139.898005 -840.436020
v -277.401009 449.105988 639.122009
v -276.403008 445.582008 650.991974
v -274.339008 -434.617996 -203.113003
v -272.138004 371.986008 -812.577972
v -271.362991 281.357994 -875.024033
v -270.431995 -433.540001 -235.116997
v -270.035992 412.284012 841.736984
v -268.141994 668.525009 -607.798996
v -267.472000 809.177017 589.453011
v -266.723003 211.520996 -895.410995
v -265.160007 439.207001 711.792984
v -258.379993 -469.844017 422.612000
v -258.372002 -173.171997 -834.073029
v -258.122005 -469.213982 438.726006
v -257.369995 -470.723000 394.972992
v -255.909004 -468.908997 455.301018
v -255.776005 -471.772995 343.821983
v -253.882008 -472.616997 280.536995
v -252.504997 -466.892014 487.809982
v -252.255993 465.970001 -676.809998
v -251.966991 -472.873993 216.497993
v -251.732998 467.825012 -645.842972
v -251.679001 465.129013 -710.904007
v -249.461002 473.813019 -633.932991
v -249.363995 -472.299004 151.422005
v -248.497009 -2.156660 -921.707993
v -248.348999 -388.378983 -491.203995
v -248.285999 809.177017 -599.362984
v -246.935997 29.786201 -927.061005
v -245.485001 -33.892400 -916.355972
v -245.403004 -470.644989 85.026197
v -244.396992 -452.032013 637.737999
v -243.780994 -258.379993 -774.903030
v -240.828991 -468.611984 23.016400
v -240.809994 61.389298 -932.325974
v -238.003006 -64.895401 -911.095963
v -237.296009 245.678997 -900.580978
v -236.385002 -466.906013 -28.903799
v -234.626999 -426.571007 841.724014
v -234.298992 433.838005 841.737976
v -233.796005 -205.487995 -824.375000
v -232.203999 -465.378990 -73.505902
v -231.809006 312.887993 -881.392975
v -231.184998 473.445015 650.341034
v -230.424995 469.010010 661.521988
v -230.128002 92.105198 -937.412033
v -228.421993 -463.880005 -113.562002
v -226.504002 682.087021 623.921013
v -226.151009 -94.641104 -906.019974
v -224.838009 -462.271996 -151.506996
v -223.360004 401.617012 -822.563019
v -221.254005 -460.414009 -189.773998
v -220.942001 461.492004 717.307968
v -218.248005 -458.526001 -222.779999
v -215.023003 121.400995 -942.238998
v -214.717007 809.177017 611.380997
v -213.903008 681.732025 -625.185013
v -213.234997 -418.455009 -446.980019
v -210.151005 -122.660999 -901.216965
v -207.910995 -293.220005 -751.412964
v -201.788006 275.454998 -905.437012
v -200.181999 -239.617004 -807.696991
v -195.629005 148.743000 -946.725998
v -195.412998 809.177017 -619.630013
v -194.351006 452.965012 841.740036
v -193.099995 -497.024994 439.065018
v -192.954006 -497.653999 423.964005
v -191.408997 -498.446007 397.672005
v -191.382999 -496.566010 455.302010
v -191.047001 491.292992 -723.231964
v -191.037998 493.302002 -689.789963
v -190.223999 -148.487997 -896.773987
v -190.174007 496.227989 -659.504013
v -188.925991 -499.393997 347.863998
v -188.642998 -494.332008 487.809982
v -188.227005 502.038002 -647.752991
v -186.917000 340.280991 -887.391968
v -185.979004 -500.130997 286.254997
v -183.041992 -500.289001 224.557991
v -182.528992 -479.309006 637.737999
v -182.432995 494.430008 659.732971
v -181.783009 488.880005 670.248032
v -181.194000 -444.185982 -391.589012
v -180.034008 -499.404984 161.749001
v -177.924995 -323.842010 -718.114014
v -176.875000 -497.014999 96.806602
v -175.256004 -454.897995 841.724014
v -174.193001 480.283012 721.860962
v -173.668003 -494.151001 35.375400
v -172.842999 692.705994 638.151016
v -172.292995 173.603001 -950.792999
v -170.517006 -491.847000 -16.903100
v -167.556000 -489.888000 -61.792598
v -167.465992 428.335991 -830.565033
v -166.716003 -171.735992 -892.762985
v -164.916992 -488.058014 -101.063004
v -162.404995 -485.915985 -138.554001
v -161.658993 300.813007 -910.198975
v -160.853996 -277.661991 -780.804977
v -160.230999 809.177017 628.993988
v -159.826002 -483.025017 -178.110008
v -159.566002 -479.701004 -213.048992
v -157.625999 691.667023 -638.447990
v -154.417000 -465.215988 -328.101006
v -153.814001 -354.370003 -663.973999
v -152.615995 469.073982 841.741028
v -145.358000 195.450993 -954.357986
v -142.061996 809.177017 -635.331993
v -139.975996 -192.019005 -889.257965
v -138.217001 364.623985 -892.823029
v -137.954998 -311.054993 -740.383987
v -135.572996 -388.927002 -577.961998
v -134.216995 510.620003 667.425995
v -133.409004 504.275017 677.080994
v -127.681999 494.866982 725.367966
v -126.302004 512.106018 -732.995987
v -126.155996 -517.495995 439.356995
v -125.833998 515.731010 -700.400009
v -125.696001 -518.213005 425.129013
v -124.955997 519.939003 -670.891037
v -124.945002 -516.750984 455.303001
v -124.258003 -307.873993 -751.476974
v -123.882999 524.992981 -659.067001
v -123.823996 -519.005013 399.999008
v -122.921000 -514.198990 487.811012
v -121.624002 -287.154007 -783.933029
v -120.801001 -519.980011 351.348991
v -120.733995 -423.306999 -477.402992
v -118.863001 -499.005013 637.737999
v -118.366003 321.716995 -915.082016
v -117.721004 700.973969 648.904037
v -117.214003 -520.761986 291.180000
v -115.258999 213.941994 -957.368011
v -114.137001 -475.237007 841.724014
v -113.655005 -520.979004 231.494007
v -111.522999 481.572990 841.741028
v -110.541000 -519.954987 170.536995
v -110.516996 -209.041004 -886.309967
v -109.420996 448.872986 -836.278992
v -108.294001 -517.016983 106.555004
v -106.831999 -453.306999 -379.626999
v -106.499004 -513.466988 45.417500
v -105.959997 -340.278015 -695.102005
v -104.743996 -510.610008 -7.009890
v -104.392004 809.177017 642.149963
v -103.115997 -508.208008 -51.907301
v -102.159996 698.575974 -647.683029
v -101.703997 -506.025009 -90.453501
v -100.348997 -503.429985 -127.201996
v -98.893995 -499.790001 -166.697006
v -96.195498 -496.465988 -206.819992
v -94.989595 -318.225002 -744.100037
v -90.857401 809.177017 -646.315002
v -89.358997 383.907013 -896.520996
v -87.518396 522.249985 673.262024
v -86.629601 515.611000 682.158966
v -86.400204 -381.375999 -594.300003
v -85.135002 -295.578995 -783.874969
v -82.773199 505.699005 727.950974
v -82.426796 228.728008 -959.772034
v -78.853502 -222.507000 -883.974991
v -75.569000 337.042007 -918.830032
v -72.332101 -417.687988 -491.338997
v -72.145200 490.853996 841.741028
v -68.144498 706.700974 656.029968
v -62.980199 526.057014 -739.516983
v -62.607498 530.004005 -707.121964
v -62.452898 -529.123001 439.550018
v -62.113900 -529.863014 425.894012
v -62.078099 534.119987 -677.717972
v -61.827798 -528.177986 455.303001
v -61.609001 538.420982 -665.838013
v -60.925798 -530.578995 401.524010
v -60.756102 -525.395012 487.811012
v -59.508801 -446.874008 -396.403008
v -59.003401 -531.445999 353.627014
v -58.733101 -510.085983 637.737999
v -56.723700 -532.112999 294.389992
v -56.406298 -486.632996 841.724014
v -56.066699 809.177017 650.669022
v -55.410500 -494.483986 -233.546009
v -54.463501 -532.224998 235.998993
v -54.191499 459.954987 -839.401016
v -53.813100 -349.644012 -687.927017
v -52.574301 -531.015015 176.149006
v -51.408100 -527.713013 112.530003
v -51.287999 -324.883003 -744.381027
v -50.795498 239.146996 -961.462021
v -50.613499 -523.664017 51.634498
v -50.350099 702.703018 -652.978973
v -49.839501 -520.210991 -0.045168
v -49.129601 -517.192993 -44.172401
v -49.070001 -384.150009 -597.029991
v -48.564501 -231.924000 -882.340012
v -48.527799 -514.449005 -82.409096
v -47.946401 -511.545982 -117.981997
v -47.298102 -508.045998 -154.117002
v -44.809399 -504.664001 -184.545994
v -44.421101 809.177017 -652.425995
v -43.991499 396.125984 -897.319031
v -43.931098 -301.441994 -786.039963
v -43.319201 529.553986 677.082977
v -42.769799 523.302002 685.615005
v -41.022501 -419.754982 -493.709984
v -40.830102 513.237000 729.736023
v -36.929801 345.662994 -920.182037
v -35.559599 497.310982 841.741028
v -33.634400 -447.817993 -399.991989
v -31.119299 709.698029 659.380035
v -29.311199 -498.858986 -218.250008
v -26.165600 -482.420006 -264.780998
v -24.298799 244.536991 -962.333984
v -24.122901 809.177017 654.369965
v -23.228800 -236.798000 -881.492004
v -14.797800 -483.930016 -258.985004
v -0.370413 -513.473015 637.737999
v -0.370403 -528.825989 487.809982
v -0.370402 -531.702003 455.303993
v -0.370393 -532.723999 439.620018
v -0.370352 -533.461990 426.175995
v -0.370315 -534.118996 402.085991
v -0.370309 -535.467987 295.564995
v -0.370307 -534.900017 354.463997
v -0.370281 -535.488014 237.644005
v -0.370264 -490.093994 841.724014
v -0.370250 -534.171982 178.160992
v -0.370249 -530.736008 114.575005
v -0.370233 -526.483002 53.787198
v -0.370164 -522.722015 2.705080
v -0.370106 -519.351997 -40.843501
v -0.370103 -516.274986 -79.027100
v -0.370100 -513.254013 -113.906002
v -0.370037 -510.047989 -147.533998
v -0.370005 -500.584984 -212.511997
v -0.369971 -506.949005 -175.911999
v -0.369971 -484.422989 -257.549000
v -0.369943 -448.558998 -402.126007
v -0.369883 -421.226997 -495.096016
v -0.369871 526.236000 686.938019
v -0.369854 516.181984 730.429001
v -0.369851 499.832993 841.741028
v -0.369835 -386.127014 -598.618011
v -0.369835 532.125015 678.490982
v -0.369793 -351.925011 -689.970016
v -0.369748 -327.290001 -746.435013
v -0.369717 710.513992 660.112000
v -0.369704 -303.731995 -787.676010
v -0.369687 809.177017 655.016022
v -0.369645 -238.099003 -881.264038
v -0.369361 245.974007 -962.565994
v -0.369282 348.297005 -920.259018
v -0.369267 535.102005 -709.511032
v -0.369263 400.469017 -896.992035
v -0.369263 538.827019 -679.990997
v -0.369245 531.316986 -741.967010
v -0.369222 463.130989 -840.313034
v -0.369221 542.752991 -668.087997
v -0.369152 704.072037 -654.642029
v -0.369095 809.177017 -654.263992
v 14.057900 -483.930016 -258.985004
v 22.489500 -236.798000 -881.492004
v 23.383501 809.177017 654.369965
v 23.560100 244.536991 -962.333984
v 25.425601 -482.420006 -264.780998
v 28.571200 -498.858986 -218.250008
v 30.379901 709.698029 659.380035
v 32.894499 -447.818985 -399.991989
v 34.819901 497.310982 841.741028
v 36.191199 345.662994 -920.182037
v 40.090399 513.237000 729.736023
v 40.282798 -419.754982 -493.709984
v 42.030101 523.302002 685.615005
v 42.579598 529.553986 677.082977
v 43.191700 -301.441994 -786.039963
v 43.253002 396.125984 -897.317963
v 43.682899 809.177017 -652.425995
v 44.069500 -504.664001 -184.545994
v 46.557999 -508.045998 -154.117002
v 47.206202 -511.545982 -117.981997
v 47.787600 -514.449997 -82.409096
v 47.825298 -231.924000 -882.340012
v 48.330302 -384.150009 -597.029991
v 48.389401 -517.192993 -44.172401
v 49.099202 -520.210991 -0.045168
v 49.611802 702.704010 -652.978973
v 49.873099 -523.664017 51.634498
v 50.056801 239.146996 -961.462021
v 50.548501 -324.883003 -744.381027
v 50.667601 -527.713013 112.530003
v 51.833801 -531.015015 176.149006
v 53.073502 -349.645004 -687.927017
v 53.453002 459.954987 -839.401016
v 53.722901 -532.224998 235.998993
v 54.670501 -494.483986 -233.546009
v 55.327301 809.177017 650.669022
v 55.665798 -486.632996 841.724014
v 55.983200 -532.112999 294.389992
v 57.992401 -510.085983 637.737999
v 58.262901 -531.445999 353.627014
v 58.768902 -446.874008 -396.403999
v 60.015302 -525.395012 487.811012
v 60.185199 -530.578995 401.524010
v 60.870600 538.420982 -665.838013
v 61.086998 -528.177986 455.303993
v 61.339598 534.118996 -677.717972
v 61.373200 -529.864006 425.894012
v 61.712098 -529.123001 439.550018
v 61.868901 530.004005 -707.121964
v 62.241702 526.057014 -739.516983
v 67.405100 706.700974 656.029968
v 71.405501 490.853996 841.741028
v 71.592302 -417.687988 -491.338997
v 74.830499 337.042007 -918.828964
v 78.114300 -222.507000 -883.974991
v 81.688204 228.726997 -959.772034
v 82.033501 505.699005 727.950974
v 84.395599 -295.578995 -783.876038
v 85.660601 -381.375999 -594.300003
v 85.889902 515.611000 682.157974
v 86.778803 522.248993 673.262024
v 88.620501 383.907013 -896.520004
v 90.119200 809.177017 -646.315994
v 94.250097 -318.225002 -744.100037
v 95.455599 -496.465988 -206.819992
v 98.154001 -499.790001 -166.699009
v 99.609003 -503.429985 -127.201996
v 100.964003 -506.026001 -90.453501
v 101.421003 698.575974 -647.683029
v 102.376003 -508.208008 -51.907301
v 103.652000 809.177017 642.149963
v 104.003000 -510.610008 -7.009890
v 105.220003 -340.278015 -695.102005
v 105.757999 -513.466988 45.416899
v 106.092997 -453.306999 -379.626999
v 107.552996 -517.016983 106.555004
v 108.683004 448.872986 -836.278992
v 109.778004 -209.041004 -886.309967
v 109.800997 -519.954987 170.536995
v 110.783005 481.572990 841.741028
v 112.914000 -520.979004 231.494007
v 113.395996 -475.237007 841.724014
v 114.519997 213.941002 -957.369003
v 116.473999 -520.761986 291.180000
v 116.981001 700.973969 648.904037
v 117.627001 321.716995 -915.082016
v 118.122997 -499.005013 637.737999
v 119.994001 -423.306999 -477.402992
v 120.059996 -519.980011 351.348991
v 120.885000 -287.154007 -783.934021
v 122.180004 -514.198990 487.811012
v 123.084002 -519.005013 399.999008
v 123.144999 524.992981 -659.067001
v 123.519001 -307.875004 -751.476974
v 124.204998 -516.750984 455.303001
v 124.217997 519.939003 -670.892029
v 124.954996 -518.213005 425.129013
v 125.095997 515.731010 -700.400009
v 125.415001 -517.495995 439.356995
v 125.564003 512.106018 -732.995987
v 126.941996 494.866982 725.367966
v 132.670002 504.275017 677.080994
v 133.478003 510.620003 667.425995
v 134.833002 -388.927002 -577.961006
v 137.215996 -311.054993 -740.383987
v 137.479000 364.622993 -892.823029
v 139.237003 -192.019005 -889.256973
v 141.323996 809.177017 -635.332985
v 144.619999 195.450993 -954.356995
v 151.877003 469.072990 841.740036
v 153.074999 -354.370003 -663.973007
v 153.677998 -465.215988 -328.101006
v 156.887999 691.667023 -638.447990
v 158.825998 -479.701004 -213.048992
v 159.085999 -483.025017 -178.110008
v 159.490995 809.177017 628.993988
v 160.114994 -277.661991 -780.804977
v 160.919991 300.813007 -910.198975
v 161.665001 -485.915985 -138.554001
v 164.176998 -488.058014 -101.063004
v 165.977001 -171.735992 -892.762985
v 166.728001 428.335991 -830.565033
v 166.816006 -489.888000 -61.792598
v 169.776993 -491.847000 -16.902500
v 171.553993 173.603001 -950.792007
v 172.103004 692.705994 638.151016
v 172.926998 -494.151001 35.375400
v 173.453007 480.283012 721.860962
v 174.514999 -454.897003 841.724014
v 176.135006 -497.014999 96.806602
v 177.185001 -323.843002 -718.113022
v 179.293995 -499.404984 161.749001
v 180.454006 -444.185982 -391.590004
v 181.042995 488.880005 670.248032
v 181.693993 494.430008 659.732971
v 181.788006 -479.309006 637.738991
v 182.301998 -500.289001 224.557991
v 185.237999 -500.130997 286.254997
v 186.177998 340.280991 -887.391968
v 187.488995 502.038002 -647.752991
v 187.903004 -494.332008 487.811012
v 188.185005 -499.393997 347.863998
v 189.435005 496.226997 -659.504013
v 189.484997 -148.487997 -896.773987
v 190.298996 493.302002 -689.789963
v 190.308990 491.292992 -723.231964
v 190.641994 -496.566010 455.303001
v 190.667992 -498.446007 397.672005
v 192.213993 -497.653999 423.964005
v 192.359009 -497.025986 439.066010
v 193.610992 452.963982 841.740036
v 194.675007 809.177017 -619.631004
v 194.890003 148.743000 -946.725998
v 199.442997 -239.617004 -807.696991
v 201.049995 275.454998 -905.437012
v 207.171993 -293.220005 -751.412964
v 209.412003 -122.660999 -901.216965
v 212.495003 -418.456001 -446.978989
v 213.164997 681.732025 -625.185013
v 213.978004 809.177017 611.380997
v 214.284000 121.400995 -942.238998
v 217.507992 -458.526001 -222.779999
v 220.202007 461.492004 717.307968
v 220.513992 -460.414009 -189.773998
v 222.621994 401.615982 -822.563019
v 224.097996 -462.271996 -151.506004
v 225.412006 -94.641304 -906.019974
v 225.764999 682.087021 623.922005
v 227.681999 -463.880005 -113.562002
v 229.389000 92.105103 -937.410965
v 229.685001 469.010010 661.521988
v 230.445004 473.445015 650.342026
v 231.070995 312.887993 -881.391983
v 231.464005 -465.377998 -73.505201
v 233.057003 -205.487995 -824.375000
v 233.560009 433.837013 841.738968
v 233.887005 -426.570015 841.724014
v 235.645008 -466.907005 -28.903799
v 236.557007 245.678997 -900.580978
v 237.264004 -64.895601 -911.094971
v 240.070992 61.389098 -932.324982
v 240.088997 -468.613014 23.017001
v 243.041000 -258.379993 -774.903030
v 243.656006 -452.032013 637.737999
v 244.662991 -470.644989 85.026197
v 244.747009 -33.892500 -916.354980
v 246.196995 29.786000 -927.061005
v 247.548008 809.177017 -599.361992
v 247.609997 -388.378983 -491.203995
v 247.758007 -2.156700 -921.707993
v 248.624001 -472.299004 151.422997
v 248.722992 473.813019 -633.932991
v 250.941010 465.129013 -710.904007
v 250.995007 467.823982 -645.842972
v 251.226997 -472.873993 216.497993
v 251.516991 465.970001 -676.809998
v 251.765003 -466.892014 487.809982
v 253.141003 -472.616997 280.536995
v 255.035992 -471.772995 343.821983
v 255.167999 -468.908997 455.302010
v 256.629009 -470.723000 394.972992
v 257.381992 -469.213982 438.726006
v 257.632999 -173.171997 -834.073029
v 257.639999 -469.844017 422.612991
v 264.419994 439.207001 711.792984
v 265.984001 211.520996 -895.410995
v 266.732998 809.177017 589.453011
v 267.404003 668.525009 -607.798996
v 269.297009 412.282982 841.737976
v 269.692001 -433.539009 -235.116997
v 270.624008 281.357994 -875.024033
v 271.399994 371.985016 -812.577972
v 273.598995 -434.618988 -203.113003
v 275.662994 445.582008 650.992966
v 276.660995 449.105988 639.122009
v 276.881008 -139.898996 -840.436020
v 276.966000 669.545975 606.426010
v 277.413006 -221.781998 -790.500031
v 277.632999 -435.764008 -165.524998
v 281.732998 -436.827011 -127.280998
v 283.605003 -354.310989 -521.194992
v 286.074009 -437.823982 -86.723003
v 286.375999 -391.212997 841.725006
v 289.615993 174.060001 -889.913025
v 290.830002 -438.769989 -42.194800
v 294.510994 -102.896996 -847.110977
v 295.951004 -439.748993 9.849240
v 298.395004 -418.205986 637.738991
v 299.013004 809.177017 -574.777985
v 301.390991 -440.844002 72.955298
v 301.667004 444.575996 -619.648018
v 301.923008 435.122986 -696.686020
v 302.787991 436.986008 -662.975006
v 302.901001 439.567986 -632.197990
v 302.907009 -185.888996 -800.121994
v 303.307991 244.605007 -868.485031
v 303.334999 414.142990 705.401993
v 303.600998 386.734009 841.735992
v 306.100998 -441.572990 141.190996
v 307.737007 134.373999 -884.070969
v 308.348007 -432.975998 487.811012
v 309.032001 -441.451988 208.624001
v 309.293003 -64.355502 -853.696976
v 311.047993 -440.615997 274.950008
v 312.549992 -435.063019 455.301018
v 313.010006 -439.199982 339.872017
v 314.155006 337.354012 -800.356979
v 314.657001 -437.654991 392.337990
v 315.319996 -435.564003 438.395996
v 315.725002 -436.435013 421.292992
v 316.044006 419.513016 638.748016
v 316.060009 -404.281998 -250.464993
v 317.271996 422.853012 625.946999
v 317.376003 809.177017 563.348999
v 318.073997 653.811035 -587.358017
v 319.519005 -317.108994 -543.121986
v 319.892006 -404.967995 -218.843002
v 319.955997 93.468399 -878.009033
v 319.997005 -26.458600 -859.793015
v 322.809982 -149.123001 -806.792984
v 323.983994 -405.680008 -181.490002
v 324.706001 655.510025 585.875015
v 325.801010 12.029700 -865.735016
v 325.882988 52.346001 -871.850967
v 328.199997 -406.310005 -142.919998
v 329.949989 203.117008 -861.744995
v 330.694008 -352.568016 841.725006
v 332.677994 -406.845016 -101.878996
v 337.552986 -407.271996 -57.111802
v 339.250984 355.623016 841.734009
v 339.953003 384.530983 697.347031
v 340.410995 -109.904003 -813.535995
v 342.831993 -407.644997 -4.448850
v 344.682999 -381.366005 637.737999
v 347.998009 397.718010 -678.818970
v 348.139000 809.177017 -546.132011
v 348.378983 411.883011 -603.750992
v 348.474998 402.304001 -646.378021
v 348.526001 -408.022995 60.280199
v 348.605995 407.359009 -616.694984
v 351.380005 157.384005 -854.776993
v 351.982002 295.632000 -785.647964
v 353.544006 -408.023987 130.767002
v 353.944016 388.861008 623.325005
v 354.390984 -277.630005 -563.144989
v 354.931984 -69.005699 -820.225983
v 355.405006 392.420998 609.375992
v 356.178017 -396.054993 487.809982
v 356.797981 -407.270012 200.702991
v 357.293015 -370.293007 -269.227009
v 359.131012 -405.853004 269.333992
v 360.942993 -370.793991 -237.681007
v 360.959015 -398.312988 455.301018
v 361.389008 -403.863983 335.903015
v 363.280983 -401.827011 389.688988
v 363.644981 639.348984 -564.930992
v 364.082985 -399.122009 438.064995
v 364.518013 -400.270004 419.967995
v 364.863014 -371.310005 -200.282993
v 365.555000 -314.379005 841.724014
v 365.558014 809.177017 533.266983
v 365.593987 -27.201099 -826.735992
v 366.013985 109.682999 -847.647018
v 368.950996 -371.741982 -161.182995
v 369.028015 640.040970 562.266998
v 371.627998 16.301200 -833.367996
v 372.266006 62.292299 -840.425034
v 373.306999 -372.062988 -119.408998
v 373.572998 321.371002 841.732025
v 377.282982 348.605995 686.839981
v 378.033981 -372.246017 -73.987999
v 381.197014 -345.049019 637.737999
v 383.050995 -372.388992 -20.199001
v 385.388985 -236.781998 -581.678009
v 385.567017 246.530991 -768.037033
v 388.277016 -372.592010 46.685200
v 390.915985 373.288002 -585.098000
v 391.562996 367.095985 -597.463989
v 392.478981 351.685982 603.259010
v 392.774010 -372.453995 119.856997
v 392.943001 357.874985 -625.113983
v 393.778992 -359.602013 487.809982
v 393.905983 349.351997 -655.538025
v 394.187012 355.544014 587.969017
v 394.216003 -274.594994 841.724014
v 394.585991 809.177017 -513.638992
v 394.589005 -331.386986 -291.508007
v 395.606003 -371.577988 192.509995
v 397.566986 -370.050011 263.530006
v 398.012009 -331.817017 -259.897995
v 398.567009 -361.944008 455.302010
v 399.452019 -367.957001 331.804008
v 401.030006 -365.828018 386.953011
v 401.577988 -362.933006 437.723007
v 401.636009 -332.271996 -222.264004
v 402.069016 -364.189987 418.600006
v 403.893013 286.401005 841.728973
v 405.462990 -332.638016 -182.374001
v 405.805016 622.352982 -538.690987
v 409.561005 -332.885017 -139.533005
v 409.683990 -195.477009 -599.128990
v 409.975014 623.204002 535.597992
v 410.929985 809.177017 499.407005
v 411.380997 -307.194004 637.737999
v 412.784996 308.731003 673.526001
v 413.997993 -332.977982 -93.043203
v 415.595016 189.759007 -747.117004
v 418.557014 -333.120003 -37.661099
v 419.933014 -231.163006 841.724014
v 423.019981 -333.512993 31.856101
v 424.818993 -321.510010 487.809982
v 426.643982 -333.629990 108.125000
v 428.311005 -153.738003 -615.971985
v 428.413010 331.996994 -562.705002
v 428.685989 -332.943001 183.761997
v 429.143982 -287.376995 -317.413006
v 429.389000 -323.787003 455.302010
v 429.911003 -331.568985 257.339993
v 429.938011 307.940006 576.535988
v 430.085983 247.555008 841.725006
v 430.145988 322.690010 -574.001999
v 431.082001 -329.626999 327.434006
v 431.362991 313.113003 560.153999
v 432.062988 -327.616997 384.038010
v 432.125015 -324.793015 437.360001
v 432.359009 -287.758999 -285.767994
v 432.713013 -326.038017 417.141991
v 433.782997 306.984997 -599.282990
v 435.662994 -288.181992 -247.800007
v 436.651001 292.376995 -627.458000
v 438.017006 809.177017 -477.517014
v 438.680000 -265.743999 637.737999
v 438.827019 131.438999 -725.351028
v 439.212990 -288.514996 -206.807003
v 442.304001 -111.588001 -632.678986
v 442.364006 -184.631004 841.724014
v 443.037987 -288.719997 -162.476997
v 443.922997 267.269993 657.050018
v 446.240997 600.033989 -506.813011
v 447.168007 -288.754997 -114.492998
v 447.532005 604.902992 505.430984
v 451.300011 -288.978996 -57.095900
v 451.838989 -67.889700 -649.728012
v 452.023010 77.689400 -705.208969
v 452.027016 201.676998 841.724014
v 452.966995 -279.669991 487.811012
v 453.180008 809.177017 462.020988
v 455.134010 -289.750004 15.476700
v 457.090988 -21.504099 -667.596970
v 457.379990 27.158799 -686.138992
v 457.443008 -281.674004 455.303001
v 458.009987 -290.317993 95.231304
v 459.271011 -289.930992 174.176998
v 459.720001 -288.771000 250.566998
v 459.739990 -240.930004 -344.748001
v 460.003014 291.215992 -535.592003
v 460.042000 -282.500992 436.962013
v 460.163002 -287.021008 322.657013
v 460.537987 -285.158005 380.849991
v 460.786018 -283.656998 415.546989
v 461.166992 -135.544996 841.724014
v 462.732010 278.050995 -545.807991
v 462.802010 -221.056004 637.737999
v 462.822990 -241.229992 -313.181000
v 464.606018 257.579994 541.143990
v 464.677010 266.018009 524.361992
v 465.778008 -241.611004 -274.834995
v 468.241005 155.819998 841.724014
v 468.583984 252.921009 -568.987007
v 469.014015 -241.898003 -232.609997
v 469.883003 222.495995 643.351974
v 472.524986 -242.045002 -186.616001
v 473.236008 229.144001 -595.189018
v 475.467987 -88.225403 841.724014
v 476.301994 -242.003002 -136.962004
v 477.251015 117.033997 841.724014
v 477.900009 -234.465008 487.809982
v 478.135986 809.176025 -438.032990
v 480.054016 -242.248001 -77.388902
v 481.679993 585.042000 471.325989
v 482.179985 577.635994 -471.501999
v 482.304993 79.272699 841.724014
v 482.317009 -236.133995 455.303001
v 483.454018 -173.486996 637.737999
v 483.487015 -243.253002 -1.640020
v 483.591003 256.385002 -507.212982
v 484.394989 -46.992998 841.724014
v 484.822006 -236.746998 436.539001
v 485.155983 -194.713993 -371.320992
v 485.727005 -237.826004 413.851013
v 485.854988 -239.300995 377.457008
v 485.875015 -244.094009 81.706495
v 486.029015 -241.098995 317.574005
v 486.245003 -242.765999 243.383999
v 486.493988 -243.848000 164.071007
v 486.647987 36.489699 841.724014
v 486.940994 240.435009 -515.489998
v 488.078995 -7.027900 841.724014
v 488.238983 -194.839993 -340.023994
v 489.852982 172.684994 638.366013
v 490.243988 225.676003 490.228996
v 490.811996 -195.130005 -301.322002
v 492.000008 809.176025 421.360016
v 493.678017 -195.312996 -257.915993
v 494.263000 208.227997 -534.131012
v 496.805000 -195.337009 -210.324993
v 497.083015 232.945004 -481.026993
v 497.396011 200.811996 497.514992
v 499.296989 -186.275005 487.809982
v 499.614983 -127.194996 637.737999
v 500.158005 -195.149994 -159.068003
v 500.399017 217.103004 -485.657997
v 503.487015 124.075003 637.893982
v 503.588982 -195.209999 -97.426100
v 503.599014 -187.698002 455.303993
v 504.179993 203.502998 467.397003
v 504.366989 -149.081001 -397.111015
v 505.252991 159.436998 -554.420013
v 505.956001 -188.222008 436.099014
v 506.016006 214.199009 -451.417999
v 506.946983 -195.970993 -18.680400
v 506.973991 -189.326992 412.085991
v 507.410011 -190.897999 373.930016
v 507.508011 -149.080000 -366.105003
v 507.738991 185.450001 -494.618988
v 508.017998 -192.819004 312.287998
v 508.734016 -194.661999 235.965004
v 508.801003 200.114002 -452.472000
v 509.244003 -196.534996 68.079200
v 509.491005 -196.000004 153.761997
v 509.832001 -149.345999 -327.042007
v 510.054016 180.263996 465.110016
v 510.261993 -86.337605 637.737999
v 510.439987 82.906599 637.737999
v 510.848007 560.400009 -434.966011
v 511.017990 566.997986 435.381012
v 512.300987 189.493008 444.380989
v 512.472000 -149.502001 -282.448997
v 513.046989 154.909000 492.310982
v 513.661995 43.113699 637.737999
v 514.648018 809.176025 -395.453987
v 514.958000 173.421993 -452.060013
v 515.362015 -149.490004 -233.353004
v 515.667000 -46.024899 637.737999
v 515.929985 193.448009 -412.769012
v 516.010017 169.964008 442.975998
v 516.096001 -139.306002 487.809982
v 516.102982 -1.369000 637.737999
v 516.344986 -104.389000 -422.095985
v 516.525002 142.552004 -497.977982
v 517.843018 181.530991 -412.093010
v 518.438988 -149.252005 -180.788002
v 518.536987 148.815002 460.730019
v 519.525986 -104.441004 -391.230011
v 519.734993 94.566097 -526.184006
v 520.257988 -140.560999 455.304985
v 520.420990 173.638992 409.697990
v 521.711006 -149.188004 -117.306995
v 521.864014 160.977993 -408.063011
v 521.907005 -104.865999 -351.783981
v 522.170982 136.226997 -447.909012
v 522.299004 143.056002 438.958015
v 522.444992 -141.056995 435.671005
v 522.598991 158.367996 409.382019
v 522.904015 114.575996 488.936005
v 523.096008 -58.800902 -447.102013
v 523.531990 -142.156000 410.373993
v 524.175987 92.972603 -485.801010
v 524.201012 -143.736000 370.504990
v 524.663010 -105.207996 -305.935993
v 525.136986 -145.671997 307.157993
v 525.190010 -149.696999 -35.466299
v 525.335999 173.750992 -362.767982
v 525.863991 40.617199 -499.393005
v 526.239014 -58.831501 -415.961990
v 526.259995 -147.595997 228.778000
v 526.385994 163.871002 -361.493988
v 526.627007 -10.485500 -472.948990
v 526.650009 136.429996 406.455994
v 526.776009 112.510004 456.660995
v 526.777000 130.543003 -400.937004
v 527.126999 809.176025 377.723999
v 527.237015 -97.764101 487.811012
v 527.490005 -149.139996 143.811998
v 527.556000 -149.955997 54.863300
v 527.681007 -105.397997 -255.452003
v 528.121986 90.632801 -437.743988
v 528.250008 157.826004 357.985992
v 528.260002 149.124002 -357.123985
v 528.483009 75.469499 487.811012
v 528.723984 -59.260602 -376.040001
v 528.908997 110.511999 435.029984
v 529.071007 40.730200 -464.594002
v 529.364014 146.346998 358.646011
v 529.589005 -10.155900 -440.866013
v 530.847015 -105.365000 -202.094002
v 530.957985 125.121002 -349.914017
v 531.264000 -98.916502 455.304985
v 531.305008 107.964001 403.545990
v 531.370010 88.981504 -390.974998
v 531.393013 129.299002 357.008018
v 531.515999 34.610500 487.811012
v 531.612015 -59.615998 -329.497986
v 531.744995 40.552702 -421.799011
v 531.916008 74.703999 455.304985
v 531.974983 -10.099900 -400.303993
v 532.748985 158.168001 -299.099998
v 533.017006 -56.653099 487.811012
v 533.288002 149.652004 -297.644997
v 533.292999 -99.378996 435.285988
v 533.582001 74.073000 433.897018
v 533.736000 -10.979400 487.811012
v 533.894005 546.707001 -395.769005
v 533.949013 138.868999 -293.736992
v 534.136009 105.038996 355.443993
v 534.143982 554.147987 399.695015
v 534.227982 -105.506001 -137.129002
v 534.403000 -100.310001 408.832016
v 534.413986 40.696802 -376.102982
v 534.482002 87.474604 -340.121002
v 534.678001 -9.908340 -354.248009
v 534.772987 -59.838901 -278.171005
v 535.101013 33.766000 455.304985
v 535.227013 -101.602001 367.422981
v 535.294991 73.108301 403.278008
v 535.327988 119.584999 -287.688999
v 535.499001 143.940001 283.885994
v 535.850983 134.766998 285.090008
v 536.332016 122.024002 284.400997
v 536.394997 -103.148003 302.539997
v 536.864014 33.267000 434.189987
v 536.906013 -57.722402 455.304985
v 537.243004 40.974302 -325.313988
v 537.393990 71.920500 356.324997
v 537.475014 -11.935600 455.304985
v 537.574997 101.907997 283.962002
v 537.649994 -9.589270 -303.061008
v 537.892990 -106.219997 -51.821299
v 537.895012 -104.702997 222.290993
v 538.017998 85.567703 -279.811001
v 538.081017 -59.870200 -223.897991
v 538.473015 32.547500 404.448013
v 538.513985 145.931997 -219.398994
v 538.807983 -58.162098 434.919014
v 538.820000 138.171997 -217.992992
v 538.993988 129.685001 -214.869003
v 539.301987 -12.379000 434.542007
v 539.718018 -106.021004 134.787998
v 539.790001 113.423004 -210.223007
v 539.989014 -58.899102 407.360001
v 540.217018 70.619998 285.916004
v 540.252991 -106.671000 42.570801
v 540.339012 31.715600 358.662987
v 540.396004 41.196098 -267.238007
v 540.691986 -13.034101 405.853004
v 540.840988 -9.149910 -247.105999
v 540.890999 116.262999 194.878006
v 541.026001 -59.843102 364.478989
v 541.230011 125.860996 194.747009
v 541.259003 133.858995 193.341999
v 541.306000 99.430304 195.599003
v 541.623993 -60.268698 -157.061005
v 541.967010 82.336102 -204.246998
v 542.140007 -13.804801 361.469994
v 542.494011 -60.903802 298.129005
v 542.868996 30.879400 289.417000
v 542.972984 136.278000 -121.295004
v 543.255997 128.729000 -119.989004
v 543.454018 121.048002 -117.487001
v 543.540001 69.725499 198.778992
v 544.005013 40.107098 -194.181995
v 544.140015 -14.595000 293.621006
v 544.249001 106.126003 -113.472996
v 544.387016 -9.579320 -177.266006
v 544.425011 -61.912799 216.068001
v 544.495010 113.678999 94.683199
v 544.618988 129.466000 92.300997
v 544.670982 121.857004 93.656597
v 545.012016 98.466396 96.854200
v 545.288010 130.394001 -14.242500
v 545.493011 -61.592698 -68.040199
v 545.553017 122.798996 -12.987700
v 545.798988 115.023003 -11.124901
v 545.886002 30.434699 203.707008
v 546.320000 76.854801 -107.631998
v 546.635017 -15.155801 209.671993
v 546.668015 100.277996 -7.696530
v 546.851006 -62.701201 126.056995
v 547.137985 69.755802 101.644001
v 547.307014 809.176025 -350.091019
v 547.848015 -62.763300 30.539601
v 548.200989 36.452000 -98.450298
v 548.427010 -11.866300 -84.418898
v 548.801994 71.777000 -1.742550
v 549.211006 30.777299 108.529997
v 549.565010 -15.238500 116.985998
v 550.698013 32.564099 6.828610
v 550.854988 -14.317000 18.107899
v 552.967987 534.936981 -352.473984
v 553.119011 543.914986 360.848007
v 558.300018 809.176025 331.411018
v 569.286003 524.911003 -303.258991
v 570.004997 533.725014 315.422001
v 575.870018 809.176025 -302.255001
v 584.063988 516.450005 -246.299992
v 584.543991 523.973007 261.429996
v 585.312996 809.176025 282.754993
v 596.212006 509.837990 -181.536999
v 596.477013 515.055008 196.888008
v 600.149002 809.176025 -252.292004
v 604.642982 505.354004 -108.912001
v 604.962997 508.101006 124.596004
v 607.961006 809.176025 232.092991
v 609.057999 503.367004 -31.566200
v 609.160995 504.244003 47.357798
v 619.957008 809.177017 -200.548992
v 626.097984 809.176025 179.789009
v 635.169983 809.177017 -147.397003
v 639.580994 809.176025 126.210003
v 645.663986 809.177017 -93.206196
v 648.330002 809.176025 71.735201
v 651.381989 809.177017 -38.362401
v 652.267990 809.176025 16.747400
usemtl Steel_-_Satin
f 785 814 861
f 861 824 785
f 814 828 882
f 882 861 814
f 828 851 910
f 910 882 828
f 851 864 923
f 923 910 851
f 897 894 971
f 971 970 897
f 894 888 965
f 965 971 894
f 888 877 947
f 947 965 888
f 877 868 931
f 931 947 877
f 790 763 793
f 793 825 790
f 763 735 761
f 761 793 763
f 735 711 717
f 717 761 735
f 711 698 699
f 699 717 711
f 973 931 913
f 913 943 973
f 918 954 989
f 989 943 918
f 880 919 954
f 954 918 880
f 918 886 862
f 862 880 918
f 846 872 919
f 919 880 846
f 846 825 793
f 793 813 846
f 769 784 829
f 829 813 769
f 769 761 717
f 717 723 769
f 708 715 748
f 748 712 708
f 685 715 708
f 708 684 685
f 715 685 686
f 686 719 715
f 748 715 719
f 719 760 748
f 730 766 760
f 760 719 730
f 690 730 719
f 719 686 690
f 730 690 692
f 692 739 730
f 766 730 739
f 739 780 766
f 970 971 1014
f 1014 1013 970
f 1010 1080 1091
f 1091 1014 1010
f 1009 1096 1090
f 1090 993 1009
f 950 966 1009
f 1009 993 950
f 1013 1097 1096
f 1096 1009 1013
f 872 846 813
f 813 829 872
f 795 760 766
f 766 811 795
f 818 896 865
f 865 811 818
f 818 780 812
f 812 838 818
f 863 963 928
f 928 838 863
f 863 824 861
f 861 890 863
f 882 910 942
f 942 925 882
f 910 923 967
f 967 942 910
f 760 795 782
f 782 748 760
f 973 943 989
f 989 1022 973
f 1021 992 890
f 890 925 1021
f 992 963 863
f 863 890 992
f 1054 1022 1077
f 1077 1120 1054
f 1165 1202 1091
f 1091 1080 1165
f 1225 1096 1097
f 1097 1221 1225
f 1225 1213 1090
f 1090 1096 1225
f 1060 1164 1136
f 1136 1048 1060
f 1021 1048 1136
f 1136 1102 1021
f 1102 1063 992
f 992 1021 1102
f 917 865 896
f 896 959 917
f 917 869 840
f 840 865 917
f 1048 942 967
f 967 1060 1048
f 925 942 1048
f 1048 1021 925
f 772 742 782
f 782 819 772
f 819 821 772
f 840 869 821
f 821 819 840
f 896 818 838
f 838 928 896
f 1054 988 973
f 973 1022 1054
f 1010 988 1054
f 1054 1080 1010
f 1097 1013 1014
f 1014 1091 1097
f 872 900 939
f 939 919 872
f 1034 997 928
f 928 963 1034
f 712 748 782
f 782 742 712
f 712 742 713
f 713 708 712
f 1221 1097 1091
f 1091 1202 1221
f 989 1030 1077
f 1077 1022 989
f 989 954 982
f 982 1030 989
f 772 725 713
f 713 742 772
f 725 683 682
f 682 713 725
f 959 896 928
f 928 997 959
f 1034 963 992
f 992 1063 1034
f 1080 1054 1120
f 1120 1165 1080
f 900 872 829
f 829 853 900
f 807 853 829
f 829 784 807
f 807 784 740
f 740 757 807
f 703 757 740
f 740 704 703
f 1362 1370 1368
f 1368 1359 1362
f 1359 1307 1324
f 1324 1362 1359
f 1362 1324 1327
f 1327 1361 1362
f 1370 1362 1361
f 1361 1369 1370
f 1352 1349 1357
f 1357 1363 1352
f 1355 1352 1363
f 1363 1365 1355
f 1290 1254 1352
f 1352 1355 1290
f 1254 1220 1349
f 1349 1352 1254
f 1346 1351 1357
f 1357 1349 1346
f 1349 1220 1192
f 1192 1346 1349
f 1346 1192 1167
f 1167 1260 1346
f 1351 1346 1260
f 1260 1337 1351
f 768 810 792
f 792 758 768
f 810 842 833
f 833 792 810
f 792 833 823
f 823 778 792
f 758 792 778
f 778 743 758
f 714 721 768
f 768 758 714
f 710 714 758
f 758 743 710
f 714 710 696
f 696 694 714
f 694 691 721
f 721 714 694
f 1049 1031 1070
f 1070 1088 1049
f 1050 1049 1088
f 1088 1094 1050
f 1049 1050 1008
f 1008 1012 1049
f 1012 994 1031
f 1031 1049 1012
f 969 960 994
f 994 1012 969
f 961 969 1012
f 1012 1008 961
f 969 961 914
f 914 924 969
f 924 922 960
f 960 969 924
f 875 879 922
f 922 924 875
f 867 875 924
f 924 914 867
f 875 867 823
f 823 833 875
f 833 842 879
f 879 875 833
f 1350 1360 1354
f 1354 1347 1350
f 1347 1184 1204
f 1204 1350 1347
f 1350 1204 1235
f 1235 1353 1350
f 1360 1350 1353
f 1353 1364 1360
f 1133 1103 1086
f 1086 1128 1133
f 1103 1061 1046
f 1046 1086 1103
f 1086 1046 1033
f 1033 1078 1086
f 1128 1086 1078
f 1078 1125 1128
f 1358 1314 1290
f 1290 1355 1358
f 1367 1358 1355
f 1355 1365 1367
f 1358 1367 1369
f 1369 1361 1358
f 1361 1327 1314
f 1314 1358 1361
f 1003 983 1033
f 1033 1046 1003
f 1046 1061 1024
f 1024 1003 1046
f 1003 1024 984
f 984 962 1003
f 983 1003 962
f 962 936 983
f 915 895 936
f 936 962 915
f 962 984 938
f 938 915 962
f 915 938 899
f 899 866 915
f 895 915 866
f 866 859 895
f 820 815 859
f 859 866 820
f 866 899 847
f 847 820 866
f 820 847 800
f 800 776 820
f 815 820 776
f 776 770 815
f 1163 1263 1183
f 1183 1148 1163
f 1263 1163 1184
f 1184 1347 1263
f 800 751 733
f 733 776 800
f 706 733 751
f 751 705 706
f 1182 1154 1133
f 1133 1128 1182
f 1182 1260 1167
f 1167 1154 1182
f 1204 1184 1193
f 1193 1211 1204
f 1235 1204 1211
f 1211 1241 1235
f 1254 1256 1224
f 1224 1220 1254
f 1256 1254 1290
f 1290 1292 1256
f 1314 1315 1292
f 1292 1290 1314
f 1315 1314 1327
f 1327 1329 1315
f 1324 1325 1329
f 1329 1327 1324
f 1325 1324 1307
f 1307 1306 1325
f 1274 1275 1306
f 1306 1307 1274
f 1275 1274 1235
f 1235 1241 1275
f 1198 1192 1220
f 1220 1224 1198
f 1192 1198 1175
f 1175 1167 1192
f 1109 1103 1133
f 1133 1144 1109
f 1103 1109 1068
f 1068 1061 1103
f 1127 1113 1148
f 1148 1183 1127
f 1070 1113 1127
f 1127 1088 1070
f 1081 1076 1114
f 1114 1117 1081
f 1084 1081 1117
f 1117 1119 1084
f 1081 1084 1047
f 1047 1045 1081
f 1076 1081 1045
f 1045 1042 1076
f 1011 1006 1042
f 1042 1045 1011
f 1015 1011 1045
f 1045 1047 1015
f 1011 1015 975
f 975 972 1011
f 1006 1011 972
f 972 968 1006
f 927 926 968
f 968 972 927
f 929 927 972
f 972 975 929
f 927 929 881
f 881 876 927
f 926 927 876
f 876 873 926
f 827 826 873
f 873 876 827
f 830 827 876
f 876 881 830
f 827 830 777
f 777 775 827
f 826 827 775
f 775 774 826
f 1272 1246 1239
f 1239 1258 1272
f 1289 1272 1258
f 1258 1278 1289
f 1272 1289 1300
f 1300 1281 1272
f 1246 1272 1281
f 1281 1262 1246
f 1226 1209 1239
f 1239 1246 1226
f 1248 1226 1246
f 1246 1262 1248
f 1226 1248 1241
f 1241 1211 1226
f 1209 1226 1211
f 1211 1193 1209
f 1200 1227 1239
f 1239 1209 1200
f 1179 1200 1209
f 1209 1193 1179
f 1200 1179 1155
f 1155 1186 1200
f 1227 1200 1186
f 1186 1212 1227
f 1247 1234 1208
f 1208 1228 1247
f 1267 1247 1228
f 1228 1244 1267
f 1247 1267 1280
f 1280 1266 1247
f 1234 1247 1266
f 1266 1251 1234
f 1217 1207 1238
f 1238 1250 1217
f 1233 1217 1250
f 1250 1269 1233
f 1217 1233 1190
f 1190 1185 1217
f 1207 1217 1185
f 1185 1178 1207
f 754 804 806
f 806 755 754
f 668 754 755
f 755 667 668
f 754 668 669
f 669 750 754
f 804 754 750
f 750 799 804
f 737 783 786
f 786 738 737
f 675 737 738
f 738 674 675
f 737 675 676
f 676 734 737
f 783 737 734
f 734 781 783
f 1295 1299 1338
f 1338 1335 1295
f 1286 1295 1335
f 1335 1322 1286
f 1295 1286 1223
f 1223 1231 1295
f 1299 1295 1231
f 1231 1232 1299
f 1100 1099 1139
f 1139 1142 1100
f 1101 1100 1142
f 1142 1141 1101
f 1100 1101 1065
f 1065 1062 1100
f 1099 1100 1062
f 1062 1059 1099
f 1035 1027 1059
f 1059 1062 1035
f 1036 1035 1062
f 1062 1065 1036
f 1035 1036 998
f 998 996 1035
f 1027 1035 996
f 996 990 1027
f 949 946 990
f 990 996 949
f 951 949 996
f 996 998 951
f 949 951 905
f 905 902 949
f 946 949 902
f 902 898 946
f 844 839 898
f 898 902 844
f 845 844 902
f 902 905 845
f 844 845 791
f 791 788 844
f 839 844 788
f 788 786 839
f 1179 1163 1148
f 1148 1155 1179
f 1163 1179 1193
f 1193 1184 1163
f 1113 1070 1066
f 1066 1112 1113
f 1148 1113 1112
f 1112 1155 1148
f 879 878 921
f 921 922 879
f 878 879 842
f 842 841 878
f 1031 1026 1066
f 1066 1070 1031
f 1026 1031 994
f 994 991 1026
f 1038 1029 995
f 995 1000 1038
f 1041 1038 1000
f 1000 1004 1041
f 1038 1041 1072
f 1072 1064 1038
f 1029 1038 1064
f 1064 1058 1029
f 1098 1093 1058
f 1058 1064 1098
f 1104 1098 1064
f 1064 1072 1104
f 1098 1104 1135
f 1135 1130 1098
f 1093 1098 1130
f 1130 1124 1093
f 1245 1230 1194
f 1194 1203 1245
f 1257 1245 1203
f 1203 1210 1257
f 1245 1257 1291
f 1291 1279 1245
f 1230 1245 1279
f 1279 1255 1230
f 1282 1259 1255
f 1255 1279 1282
f 1294 1282 1279
f 1279 1291 1294
f 1282 1294 1278
f 1278 1270 1282
f 1259 1282 1270
f 1270 1249 1259
f 952 956 1004
f 1004 1000 952
f 948 952 1000
f 1000 995 948
f 952 948 904
f 904 907 952
f 956 952 907
f 907 909 956
f 854 857 909
f 909 907 854
f 848 854 907
f 907 904 848
f 854 848 798
f 798 802 854
f 857 854 802
f 802 806 857
f 752 755 806
f 806 802 752
f 749 752 802
f 802 798 749
f 752 749 665
f 665 666 752
f 755 752 666
f 666 667 755
f 982 954 919
f 919 939 982
f 965 947 988
f 988 1010 965
f 947 931 973
f 973 988 947
f 736 722 765
f 765 771 736
f 739 736 771
f 771 780 739
f 736 739 692
f 692 693 736
f 722 736 693
f 693 695 722
f 801 797 824
f 824 812 801
f 771 801 812
f 812 780 771
f 801 771 765
f 765 797 801
f 729 762 797
f 797 765 729
f 762 785 824
f 824 797 762
f 832 816 862
f 862 886 832
f 816 790 825
f 825 862 816
f 868 860 913
f 913 931 868
f 860 832 886
f 886 913 860
f 1213 1196 1082
f 1082 1090 1213
f 1164 1060 1082
f 1082 1196 1164
f 933 979 967
f 967 923 933
f 1090 1082 979
f 979 993 1090
f 1060 967 979
f 979 1082 1060
f 887 893 966
f 966 950 887
f 893 897 970
f 970 966 893
f 864 874 933
f 933 923 864
f 874 887 950
f 950 933 874
f 840 795 811
f 811 865 840
f 819 782 795
f 795 840 819
f 938 984 987
f 987 941 938
f 899 938 941
f 941 901 899
f 847 899 901
f 901 850 847
f 800 847 850
f 850 803 800
f 1242 1222 1213
f 1213 1225 1242
f 1240 1242 1225
f 1225 1221 1240
f 1242 1240 1251
f 1251 1253 1242
f 1222 1242 1253
f 1253 1238 1222
f 999 964 959
f 959 997 999
f 1037 999 997
f 997 1034 1037
f 999 1037 1042
f 1042 1006 999
f 964 999 1006
f 1006 968 964
f 1073 1037 1034
f 1034 1063 1073
f 1111 1073 1063
f 1063 1102 1111
f 1073 1111 1114
f 1114 1076 1073
f 1037 1073 1076
f 1076 1042 1037
f 1172 1197 1165
f 1165 1152 1172
f 1159 1172 1152
f 1152 1144 1159
f 1172 1159 1175
f 1175 1189 1172
f 1197 1172 1189
f 1189 1208 1197
f 756 805 807
f 807 757 756
f 700 756 757
f 757 703 700
f 756 700 702
f 702 753 756
f 805 756 753
f 753 803 805
f 1028 1075 1077
f 1077 1030 1028
f 985 1028 1030
f 1030 982 985
f 1028 985 987
f 987 1025 1028
f 1075 1028 1025
f 1025 1068 1075
f 940 985 982
f 982 939 940
f 903 940 939
f 939 900 903
f 940 903 901
f 901 941 940
f 985 940 941
f 941 987 985
f 852 903 900
f 900 853 852
f 805 852 853
f 853 807 805
f 852 805 803
f 803 850 852
f 903 852 850
f 850 901 903
f 920 871 869
f 869 917 920
f 964 920 917
f 917 959 964
f 920 964 968
f 968 926 920
f 871 920 926
f 926 873 871
f 1201 1171 1164
f 1164 1196 1201
f 1222 1201 1196
f 1196 1213 1222
f 1201 1222 1238
f 1238 1207 1201
f 1171 1201 1207
f 1207 1178 1171
f 822 773 772
f 772 821 822
f 871 822 821
f 821 869 871
f 822 871 873
f 873 826 822
f 773 822 826
f 826 774 773
f 726 725 772
f 772 773 726
f 727 726 773
f 773 774 727
f 726 727 680
f 680 681 726
f 725 726 681
f 681 683 725
f 960 922 921
f 921 958 960
f 994 960 958
f 958 991 994
f 810 768 767
f 767 809 810
f 842 810 809
f 809 841 842
f 1127 1183 1229
f 1229 1150 1127
f 1088 1127 1150
f 1150 1094 1088
f 1263 1347 1354
f 1354 1348 1263
f 1183 1263 1348
f 1348 1229 1183
f 1356 1274 1307
f 1307 1359 1356
f 1356 1353 1235
f 1235 1274 1356
f 1343 1333 1322
f 1322 1335 1343
f 1345 1343 1335
f 1335 1338 1345
f 1343 1345 1344
f 1344 1342 1343
f 1333 1343 1342
f 1342 1331 1333
f 1277 1286 1322
f 1322 1312 1277
f 1271 1277 1312
f 1312 1305 1271
f 1277 1271 1216
f 1216 1218 1277
f 1286 1277 1218
f 1218 1223 1286
f 1105 1101 1141
f 1141 1140 1105
f 1106 1105 1140
f 1140 1138 1106
f 1105 1106 1071
f 1071 1069 1105
f 1101 1105 1069
f 1069 1065 1101
f 1039 1036 1065
f 1065 1069 1039
f 1040 1039 1069
f 1069 1071 1040
f 1039 1040 1002
f 1002 1001 1039
f 1036 1039 1001
f 1001 998 1036
f 953 951 998
f 998 1001 953
f 955 953 1001
f 1001 1002 955
f 953 955 908
f 908 906 953
f 951 953 906
f 906 905 951
f 849 845 905
f 905 906 849
f 855 849 906
f 906 908 855
f 849 855 799
f 799 796 849
f 845 849 796
f 796 791 845
f 1323 1326 1334
f 1334 1330 1323
f 1325 1323 1330
f 1330 1329 1325
f 1323 1325 1306
f 1306 1304 1323
f 1326 1323 1304
f 1304 1308 1326
f 1316 1293 1292
f 1292 1315 1316
f 1330 1316 1315
f 1315 1329 1330
f 1316 1330 1334
f 1334 1320 1316
f 1293 1316 1320
f 1320 1296 1293
f 1095 1089 1126
f 1126 1132 1095
f 1099 1095 1132
f 1132 1139 1099
f 1095 1099 1059
f 1059 1057 1095
f 1089 1095 1057
f 1057 1055 1089
f 1023 1020 1055
f 1055 1057 1023
f 1027 1023 1057
f 1057 1059 1027
f 1023 1027 990
f 990 986 1023
f 1020 1023 986
f 986 980 1020
f 937 934 980
f 980 986 937
f 946 937 986
f 986 990 946
f 937 946 898
f 898 892 937
f 934 937 892
f 892 889 934
f 837 834 889
f 889 892 837
f 839 837 892
f 892 898 839
f 837 839 786
f 786 783 837
f 834 837 783
f 783 781 834
f 1285 1264 1309
f 1309 1328 1285
f 1299 1285 1328
f 1328 1338 1299
f 1285 1299 1232
f 1232 1219 1285
f 1264 1285 1219
f 1219 1205 1264
f 1332 1310 1296
f 1296 1320 1332
f 1341 1332 1320
f 1320 1334 1341
f 1332 1341 1344
f 1344 1339 1332
f 1310 1332 1339
f 1339 1318 1310
f 1182 1128 1125
f 1125 1188 1182
f 1260 1182 1188
f 1188 1337 1260
f 1116 1152 1165
f 1165 1120 1116
f 1075 1116 1120
f 1120 1077 1075
f 1116 1075 1068
f 1068 1109 1116
f 1152 1116 1109
f 1109 1144 1152
f 1302 1289 1278
f 1278 1294 1302
f 1297 1302 1294
f 1294 1291 1297
f 1302 1297 1305
f 1305 1311 1302
f 1289 1302 1311
f 1311 1300 1289
f 1303 1301 1318
f 1318 1321 1303
f 1288 1303 1321
f 1321 1309 1288
f 1303 1288 1269
f 1269 1284 1303
f 1301 1303 1284
f 1284 1280 1301
f 1252 1270 1278
f 1278 1258 1252
f 1227 1252 1258
f 1258 1239 1227
f 1252 1227 1212
f 1212 1237 1252
f 1270 1252 1237
f 1237 1249 1270
f 1336 1342 1344
f 1344 1341 1336
f 1326 1336 1341
f 1341 1334 1326
f 1336 1326 1308
f 1308 1317 1336
f 1342 1336 1317
f 1317 1331 1342
f 1340 1339 1344
f 1344 1345 1340
f 1328 1340 1345
f 1345 1338 1328
f 1340 1328 1309
f 1309 1321 1340
f 1339 1340 1321
f 1321 1318 1339
f 1215 1240 1221
f 1221 1202 1215
f 1197 1215 1202
f 1202 1165 1197
f 1215 1197 1208
f 1208 1234 1215
f 1240 1215 1234
f 1234 1251 1240
f 1146 1111 1102
f 1102 1136 1146
f 1171 1146 1136
f 1136 1164 1171
f 1146 1171 1178
f 1178 1149 1146
f 1111 1146 1149
f 1149 1114 1111
f 1168 1219 1232
f 1232 1176 1168
f 1132 1168 1176
f 1176 1139 1132
f 1168 1132 1126
f 1126 1161 1168
f 1219 1168 1161
f 1161 1205 1219
f 1169 1214 1210
f 1210 1166 1169
f 1137 1169 1166
f 1166 1135 1137
f 1169 1137 1138
f 1138 1170 1169
f 1214 1169 1170
f 1170 1216 1214
f 1162 1130 1135
f 1135 1166 1162
f 1203 1162 1166
f 1166 1210 1203
f 1162 1203 1194
f 1194 1156 1162
f 1130 1162 1156
f 1156 1124 1130
f 1177 1231 1223
f 1223 1174 1177
f 1142 1177 1174
f 1174 1141 1142
f 1177 1142 1139
f 1139 1176 1177
f 1231 1177 1176
f 1176 1232 1231
f 1158 1199 1205
f 1205 1161 1158
f 1122 1158 1161
f 1161 1126 1122
f 1158 1122 1119
f 1119 1153 1158
f 1199 1158 1153
f 1153 1190 1199
f 1356 1359 1368
f 1368 1366 1356
f 1353 1356 1366
f 1366 1364 1353
f 1154 1167 1175
f 1175 1159 1154
f 1133 1154 1159
f 1159 1144 1133
f 1206 1189 1175
f 1175 1198 1206
f 1236 1206 1198
f 1198 1224 1236
f 1206 1236 1244
f 1244 1228 1206
f 1189 1206 1228
f 1228 1208 1189
f 1024 1061 1068
f 1068 1025 1024
f 984 1024 1025
f 1025 987 984
f 1298 1281 1300
f 1300 1313 1298
f 1317 1298 1313
f 1313 1331 1317
f 1298 1317 1308
f 1308 1283 1298
f 1281 1298 1283
f 1283 1262 1281
f 1265 1271 1305
f 1305 1297 1265
f 1257 1265 1297
f 1297 1291 1257
f 1265 1257 1210
f 1210 1214 1265
f 1271 1265 1214
f 1214 1216 1271
f 1107 1106 1138
f 1138 1137 1107
f 1104 1107 1137
f 1137 1135 1104
f 1107 1104 1072
f 1072 1074 1107
f 1106 1107 1074
f 1074 1071 1106
f 1043 1040 1071
f 1071 1074 1043
f 1041 1043 1074
f 1074 1072 1041
f 1043 1041 1004
f 1004 1005 1043
f 1040 1043 1005
f 1005 1002 1040
f 957 955 1002
f 1002 1005 957
f 956 957 1005
f 1005 1004 956
f 957 956 909
f 909 911 957
f 955 957 911
f 911 908 955
f 856 855 908
f 908 911 856
f 857 856 911
f 911 909 857
f 856 857 806
f 806 804 856
f 855 856 804
f 804 799 855
f 1319 1311 1305
f 1305 1312 1319
f 1333 1319 1312
f 1312 1322 1333
f 1319 1333 1331
f 1331 1313 1319
f 1311 1319 1313
f 1313 1300 1311
f 1173 1170 1138
f 1138 1140 1173
f 1174 1173 1140
f 1140 1141 1174
f 1173 1174 1223
f 1223 1218 1173
f 1170 1173 1218
f 1218 1216 1170
f 1276 1248 1262
f 1262 1283 1276
f 1304 1276 1283
f 1283 1308 1304
f 1276 1304 1306
f 1306 1275 1276
f 1248 1276 1275
f 1275 1241 1248
f 1155 1112 1085
f 1085 1118 1155
f 1112 1066 1052
f 1052 1085 1112
f 767 720 718
f 718 764 767
f 720 687 688
f 688 718 720
f 921 878 870
f 870 912 921
f 878 841 835
f 835 870 878
f 991 958 944
f 944 978 991
f 958 921 912
f 912 944 958
f 1066 1026 1017
f 1017 1052 1066
f 1026 991 978
f 978 1017 1026
f 995 1029 1019
f 1019 981 995
f 1029 1058 1051
f 1051 1019 1029
f 1058 1093 1079
f 1079 1051 1058
f 1093 1124 1110
f 1110 1079 1093
f 1194 1230 1180
f 1180 1157 1194
f 1230 1255 1191
f 1191 1180 1230
f 1249 1237 1181
f 1181 1187 1249
f 1237 1212 1160
f 1160 1181 1237
f 1212 1186 1147
f 1147 1160 1212
f 1186 1155 1118
f 1118 1147 1186
f 904 948 935
f 935 891 904
f 948 995 981
f 981 935 948
f 798 848 843
f 843 794 798
f 848 904 891
f 891 843 848
f 841 809 808
f 808 835 841
f 809 767 764
f 764 808 809
f 1255 1259 1195
f 1195 1191 1255
f 1259 1249 1187
f 1187 1195 1259
f 1124 1156 1131
f 1131 1110 1124
f 1156 1194 1157
f 1157 1131 1156
f 697 709 722
f 722 695 697
f 709 729 765
f 765 722 709
f 704 740 723
f 723 701 704
f 784 769 723
f 723 740 784
f 733 706 707
f 707 724 733
f 776 733 724
f 724 770 776
f 751 800 803
f 803 753 751
f 705 751 753
f 753 702 705
f 721 691 687
f 687 720 721
f 768 721 720
f 720 767 768
f 741 672 674
f 674 738 741
f 788 741 738
f 738 786 788
f 741 788 791
f 791 745 741
f 672 741 745
f 745 670 672
f 728 679 680
f 680 727 728
f 775 728 727
f 727 774 775
f 728 775 777
f 777 731 728
f 679 728 731
f 731 678 679
f 747 671 670
f 670 745 747
f 796 747 745
f 745 791 796
f 747 796 799
f 799 750 747
f 671 747 750
f 750 669 671
f 665 749 746
f 746 664 665
f 749 798 794
f 794 746 749
f 547 510 557
f 557 586 547
f 510 489 543
f 543 557 510
f 489 461 520
f 520 543 489
f 461 448 507
f 507 520 461
f 401 400 477
f 477 474 401
f 400 406 483
f 483 477 400
f 406 424 494
f 494 483 406
f 424 440 503
f 503 494 424
f 546 578 608
f 608 581 546
f 578 610 636
f 636 608 578
f 610 654 660
f 660 636 610
f 699 698 660
f 660 654 699
f 349 382 428
f 428 398 349
f 382 417 453
f 453 428 382
f 485 458 428
f 428 453 485
f 417 452 491
f 491 453 417
f 546 509 491
f 491 525 546
f 542 558 525
f 525 499 542
f 542 587 602
f 602 558 542
f 610 578 558
f 558 602 610
f 587 631 648
f 648 602 587
f 654 648 701
f 701 699 654
f 623 656 663
f 663 659 623
f 685 684 663
f 663 656 685
f 652 656 623
f 623 611 652
f 656 652 686
f 686 685 656
f 641 652 611
f 611 605 641
f 632 641 605
f 605 591 632
f 641 632 692
f 692 690 641
f 652 641 690
f 690 686 652
f 280 357 358
f 358 274 280
f 280 291 361
f 361 357 280
f 400 357 361
f 361 406 400
f 525 491 452
f 452 499 525
f 281 275 362
f 362 378 281
f 405 362 358
f 358 401 405
f 591 605 560
f 560 553 591
f 547 559 533
f 533 508 547
f 408 379 481
f 481 508 408
f 510 481 446
f 446 489 510
f 489 446 429
f 429 461 489
f 611 623 589
f 589 576 611
f 659 629 589
f 589 623 659
f 350 446 481
f 481 379 350
f 291 206 251
f 251 317 291
f 349 317 251
f 251 294 349
f 158 146 275
f 275 281 158
f 323 350 269
f 269 235 323
f 531 502 454
f 454 506 531
f 358 362 275
f 275 274 358
f 404 429 323
f 323 311 404
f 446 350 323
f 323 429 446
f 589 629 599
f 599 552 589
f 599 550 552
f 475 443 533
f 533 553 475
f 408 508 533
f 533 443 408
f 383 317 349
f 349 398 383
f 383 361 291
f 291 317 383
f 659 663 658
f 658 629 659
f 684 682 658
f 658 663 684
f 311 323 235
f 235 207 311
f 150 169 280
f 280 274 150
f 169 206 291
f 291 280 169
f 294 341 382
f 382 349 294
f 417 382 341
f 341 389 417
f 599 629 658
f 658 646 599
f 646 658 682
f 682 683 646
f 531 552 550
f 550 502 531
f 412 374 443
f 443 475 412
f 374 337 408
f 408 443 374
f 337 308 379
f 379 408 337
f 269 350 379
f 379 308 269
f 471 518 542
f 542 499 471
f 518 564 587
f 587 542 518
f 564 614 631
f 631 587 564
f 703 704 631
f 631 614 703
f 9 12 3
f 3 1 9
f 10 9 1
f 1 2 10
f 44 47 9
f 9 10 44
f 47 64 12
f 12 9 47
f 19 8 14
f 14 22 19
f 22 151 117
f 117 19 22
f 19 117 81
f 81 16 19
f 8 19 16
f 16 6 8
f 25 22 14
f 14 20 25
f 111 25 20
f 20 34 111
f 204 179 25
f 25 111 204
f 179 151 22
f 22 25 179
f 579 561 603
f 603 613 579
f 593 579 613
f 613 628 593
f 579 593 548
f 548 538 579
f 538 529 561
f 561 579 538
f 603 650 657
f 657 613 603
f 650 691 694
f 694 657 650
f 657 694 696
f 696 661 657
f 613 657 661
f 661 628 613
f 301 340 322
f 322 283 301
f 340 377 359
f 359 322 340
f 322 359 363
f 363 321 322
f 283 322 321
f 321 277 283
f 377 411 402
f 402 359 377
f 411 449 447
f 447 402 411
f 402 447 457
f 457 410 402
f 359 402 410
f 410 363 359
f 449 492 496
f 496 447 449
f 492 529 538
f 538 496 492
f 496 538 548
f 548 504 496
f 447 496 504
f 504 457 447
f 21 24 17
f 17 11 21
f 18 21 11
f 11 7 18
f 136 167 21
f 21 18 136
f 167 187 24
f 24 21 167
f 285 268 238
f 238 243 285
f 293 285 243
f 243 246 293
f 285 293 338
f 338 325 285
f 325 310 268
f 268 285 325
f 81 57 13
f 13 16 81
f 57 44 10
f 10 13 57
f 13 10 2
f 2 4 13
f 16 13 4
f 4 6 16
f 368 325 338
f 338 388 368
f 409 368 388
f 388 435 409
f 387 347 368
f 368 409 387
f 347 310 325
f 325 368 347
f 456 409 435
f 435 476 456
f 505 456 476
f 476 512 505
f 472 433 456
f 456 505 472
f 433 387 409
f 409 456 433
f 551 505 512
f 512 556 551
f 595 551 556
f 556 601 595
f 571 524 551
f 551 595 571
f 524 472 505
f 505 551 524
f 188 108 208
f 208 223 188
f 108 24 187
f 187 208 108
f 638 620 571
f 571 595 638
f 706 705 620
f 620 638 706
f 238 217 189
f 189 243 238
f 189 217 204
f 204 111 189
f 167 160 178
f 178 187 167
f 160 167 136
f 136 130 160
f 110 115 147
f 147 135 110
f 98 110 135
f 135 127 98
f 110 98 75
f 75 78 110
f 115 110 78
f 78 79 115
f 117 151 147
f 147 115 117
f 81 117 115
f 115 79 81
f 57 81 79
f 79 56 57
f 44 57 56
f 56 42 44
f 47 44 42
f 42 46 47
f 64 47 46
f 46 65 64
f 97 64 65
f 65 96 97
f 136 97 96
f 96 130 136
f 15 97 136
f 136 18 15
f 179 204 196
f 196 173 179
f 151 179 173
f 173 147 151
f 268 310 303
f 303 262 268
f 238 268 262
f 262 227 238
f 223 258 244
f 244 188 223
f 301 283 244
f 244 258 301
f 290 254 257
f 257 295 290
f 326 290 295
f 295 329 326
f 290 326 324
f 324 287 290
f 254 290 287
f 287 252 254
f 360 326 329
f 329 365 360
f 399 360 365
f 365 403 399
f 360 399 396
f 396 356 360
f 326 360 356
f 356 324 326
f 444 399 403
f 403 445 444
f 495 444 445
f 445 498 495
f 444 495 490
f 490 442 444
f 399 444 442
f 442 396 399
f 544 495 498
f 498 545 544
f 596 544 545
f 545 597 596
f 544 596 594
f 594 541 544
f 495 544 541
f 541 490 495
f 99 113 132
f 132 125 99
f 90 99 125
f 125 109 90
f 99 90 71
f 71 82 99
f 113 99 82
f 82 93 113
f 145 125 132
f 132 162 145
f 160 145 162
f 162 178 160
f 145 160 130
f 130 123 145
f 125 145 123
f 123 109 125
f 171 162 132
f 132 143 171
f 185 171 143
f 143 159 185
f 171 185 216
f 216 192 171
f 162 171 192
f 192 178 162
f 124 144 163
f 163 137 124
f 105 124 137
f 137 120 105
f 124 105 91
f 91 104 124
f 144 124 104
f 104 127 144
f 154 121 133
f 133 164 154
f 186 154 164
f 164 193 186
f 154 186 181
f 181 138 154
f 121 154 138
f 138 102 121
f 617 616 565
f 565 567 617
f 621 617 567
f 567 572 621
f 617 621 669
f 669 668 617
f 616 617 668
f 668 667 616
f 634 633 585
f 585 588 634
f 637 634 588
f 588 590 637
f 634 637 676
f 676 675 634
f 633 634 675
f 675 674 633
f 76 36 33
f 33 72 76
f 140 76 72
f 72 139 140
f 76 140 148
f 148 85 76
f 36 76 85
f 85 49 36
f 271 229 232
f 232 272 271
f 309 271 272
f 272 312 309
f 271 309 306
f 306 270 271
f 229 271 270
f 270 230 229
f 336 309 312
f 312 344 336
f 375 336 344
f 344 381 375
f 336 375 373
f 373 335 336
f 309 336 335
f 335 306 309
f 422 375 381
f 381 425 422
f 469 422 425
f 425 473 469
f 422 469 466
f 466 420 422
f 375 422 420
f 420 373 375
f 527 469 473
f 473 532 527
f 583 527 532
f 532 585 583
f 527 583 580
f 580 526 527
f 469 527 526
f 526 466 469
f 208 187 178
f 178 192 208
f 223 208 192
f 192 216 223
f 259 258 223
f 223 216 259
f 258 259 305
f 305 301 258
f 492 449 450
f 450 493 492
f 529 492 493
f 493 530 529
f 340 301 305
f 305 345 340
f 377 340 345
f 345 380 377
f 333 371 376
f 376 342 333
f 307 333 342
f 342 313 307
f 333 307 299
f 299 330 333
f 371 333 330
f 330 367 371
f 273 307 313
f 313 278 273
f 241 273 278
f 278 247 241
f 273 241 236
f 236 267 273
f 307 273 267
f 267 299 307
f 126 168 177
f 177 141 126
f 92 126 141
f 141 116 92
f 126 92 80
f 80 114 126
f 168 126 114
f 114 161 168
f 89 92 116
f 116 112 89
f 101 89 112
f 112 122 101
f 89 101 93
f 93 77 89
f 92 89 77
f 77 80 92
f 419 371 367
f 367 415 419
f 464 419 415
f 415 462 464
f 419 464 467
f 467 423 419
f 371 419 423
f 423 376 371
f 517 464 462
f 462 514 517
f 569 517 514
f 514 565 569
f 517 569 573
f 573 523 517
f 464 517 523
f 523 467 464
f 619 569 565
f 565 616 619
f 666 619 616
f 616 667 666
f 619 666 665
f 665 622 619
f 569 619 622
f 622 573 569
f 389 432 452
f 452 417 389
f 432 471 499
f 499 452 432
f 406 361 383
f 383 424 406
f 635 600 606
f 606 649 635
f 693 635 649
f 649 695 693
f 635 693 692
f 692 632 635
f 600 635 632
f 632 591 600
f 570 559 547
f 547 574 570
f 600 570 574
f 574 606 600
f 570 600 591
f 591 559 570
f 642 606 574
f 574 609 642
f 586 609 574
f 574 547 586
f 539 485 509
f 509 555 539
f 581 555 509
f 509 546 581
f 503 440 458
f 458 511 503
f 485 539 511
f 511 458 485
f 289 175 158
f 158 281 289
f 311 207 175
f 175 289 311
f 378 421 438
f 438 392 378
f 311 289 392
f 392 404 311
f 281 378 392
f 392 289 281
f 484 421 405
f 405 478 484
f 474 478 405
f 405 401 474
f 507 448 438
f 438 497 507
f 421 484 497
f 497 438 421
f 274 275 146
f 146 150 274
f 475 506 454
f 454 412 475
f 531 506 560
f 560 576 531
f 506 475 553
f 553 560 506
f 552 531 576
f 576 589 552
f 433 430 384
f 384 387 433
f 430 433 472
f 472 470 430
f 524 521 470
f 470 472 524
f 521 524 571
f 571 568 521
f 129 146 158
f 158 149 129
f 118 129 149
f 149 133 118
f 129 118 120
f 120 131 129
f 146 129 131
f 131 150 146
f 372 374 412
f 412 407 372
f 365 372 407
f 407 403 365
f 372 365 329
f 329 334 372
f 374 372 334
f 334 337 374
f 298 308 337
f 337 334 298
f 295 298 334
f 334 329 295
f 298 295 257
f 257 260 298
f 308 298 260
f 260 269 308
f 199 219 206
f 206 174 199
f 182 199 174
f 174 163 182
f 199 182 196
f 196 212 199
f 219 199 212
f 212 227 219
f 615 614 564
f 564 566 615
f 618 615 566
f 566 568 618
f 615 618 702
f 702 700 615
f 614 615 700
f 700 703 614
f 343 341 294
f 294 296 343
f 346 343 296
f 296 303 346
f 343 346 384
f 384 386 343
f 341 343 386
f 386 389 341
f 431 432 389
f 389 386 431
f 430 431 386
f 386 384 430
f 431 430 470
f 470 468 431
f 432 431 468
f 468 471 432
f 519 518 471
f 471 468 519
f 521 519 468
f 468 470 521
f 519 521 568
f 568 566 519
f 518 519 566
f 566 564 518
f 451 454 502
f 502 500 451
f 445 451 500
f 500 498 445
f 451 445 403
f 403 407 451
f 454 451 407
f 407 412 454
f 170 175 207
f 207 200 170
f 164 170 200
f 200 193 164
f 170 164 133
f 133 149 170
f 175 170 149
f 149 158 175
f 549 550 599
f 599 598 549
f 545 549 598
f 598 597 545
f 549 545 498
f 498 500 549
f 550 549 500
f 500 502 550
f 645 598 599
f 599 646 645
f 681 645 646
f 646 683 681
f 645 681 680
f 680 644 645
f 598 645 644
f 644 597 598
f 411 413 450
f 450 449 411
f 413 411 377
f 377 380 413
f 561 562 604
f 604 603 561
f 562 561 529
f 529 530 562
f 221 244 283
f 283 277 221
f 244 221 142
f 142 188 244
f 23 108 188
f 188 142 23
f 108 23 17
f 17 24 108
f 64 97 15
f 15 12 64
f 28 36 49
f 49 38 28
f 29 28 38
f 38 40 29
f 28 29 27
f 27 26 28
f 36 28 26
f 26 33 36
f 94 59 49
f 49 85 94
f 153 94 85
f 85 148 153
f 94 153 155
f 155 100 94
f 59 94 100
f 100 66 59
f 266 231 230
f 230 270 266
f 302 266 270
f 270 306 302
f 266 302 300
f 300 265 266
f 231 266 265
f 265 233 231
f 332 302 306
f 306 335 332
f 370 332 335
f 335 373 370
f 332 370 369
f 369 331 332
f 302 332 331
f 331 300 302
f 418 370 373
f 373 420 418
f 465 418 420
f 420 466 465
f 418 465 463
f 463 416 418
f 370 418 416
f 416 369 370
f 522 465 466
f 466 526 522
f 575 522 526
f 526 580 575
f 522 575 572
f 572 516 522
f 465 522 516
f 516 463 465
f 48 41 37
f 37 45 48
f 67 48 45
f 45 63 67
f 48 67 65
f 65 46 48
f 41 48 46
f 46 42 41
f 55 56 79
f 79 78 55
f 51 55 78
f 78 75 51
f 55 51 37
f 37 41 55
f 56 55 41
f 41 42 56
f 276 239 245
f 245 282 276
f 314 276 282
f 282 316 314
f 276 314 312
f 312 272 276
f 239 276 272
f 272 232 239
f 348 314 316
f 316 351 348
f 385 348 351
f 351 391 385
f 348 385 381
f 381 344 348
f 314 348 344
f 344 312 314
f 434 385 391
f 391 437 434
f 479 434 437
f 437 482 479
f 434 479 473
f 473 425 434
f 385 434 425
f 425 381 385
f 534 479 482
f 482 537 534
f 588 534 537
f 537 590 588
f 534 588 585
f 585 532 534
f 479 534 532
f 532 473 479
f 86 43 62
f 62 107 86
f 152 86 107
f 107 166 152
f 86 152 139
f 139 72 86
f 43 86 72
f 72 33 43
f 39 51 75
f 75 61 39
f 32 39 61
f 61 53 32
f 39 32 27
f 27 30 39
f 51 39 30
f 30 37 51
f 183 189 111
f 111 34 183
f 189 183 246
f 246 243 189
f 255 251 206
f 206 219 255
f 262 255 219
f 219 227 262
f 255 262 303
f 303 296 255
f 251 255 296
f 296 294 251
f 69 77 93
f 93 82 69
f 60 69 82
f 82 71 60
f 69 60 66
f 66 74 69
f 77 69 74
f 74 80 77
f 68 50 53
f 53 70 68
f 87 68 70
f 70 91 87
f 68 87 102
f 102 83 68
f 50 68 83
f 83 62 50
f 119 113 93
f 93 101 119
f 134 119 101
f 101 122 134
f 119 134 159
f 159 143 119
f 113 119 143
f 143 132 113
f 35 30 27
f 27 29 35
f 54 35 29
f 29 40 54
f 35 54 63
f 63 45 35
f 30 35 45
f 45 37 30
f 31 26 27
f 27 32 31
f 50 31 32
f 32 53 50
f 31 50 62
f 62 43 31
f 26 31 43
f 43 33 26
f 156 169 150
f 150 131 156
f 137 156 131
f 131 120 137
f 156 137 163
f 163 174 156
f 169 156 174
f 174 206 169
f 225 235 269
f 269 260 225
f 222 225 260
f 260 257 222
f 225 222 193
f 193 200 225
f 235 225 200
f 200 207 235
f 203 195 139
f 139 152 203
f 210 203 152
f 152 166 210
f 203 210 245
f 245 239 203
f 195 203 239
f 239 232 195
f 202 205 161
f 161 157 202
f 201 202 157
f 157 155 201
f 202 201 233
f 233 234 202
f 205 202 234
f 234 236 205
f 209 205 236
f 236 241 209
f 215 209 241
f 241 247 215
f 209 215 177
f 177 168 209
f 205 209 168
f 168 161 205
f 194 197 148
f 148 140 194
f 195 194 140
f 140 139 195
f 194 195 232
f 232 229 194
f 197 194 229
f 229 230 197
f 213 210 166
f 166 172 213
f 218 213 172
f 172 181 218
f 213 218 252
f 252 249 213
f 210 213 249
f 249 245 210
f 15 5 3
f 3 12 15
f 5 15 18
f 18 7 5
f 217 212 196
f 196 204 217
f 212 217 238
f 238 227 212
f 165 173 196
f 196 182 165
f 144 165 182
f 182 163 144
f 165 144 127
f 127 135 165
f 173 165 135
f 135 147 173
f 347 346 303
f 303 310 347
f 346 347 387
f 387 384 346
f 73 58 71
f 71 90 73
f 88 73 90
f 90 109 88
f 73 88 63
f 63 54 73
f 58 73 54
f 54 40 58
f 106 74 66
f 66 100 106
f 157 106 100
f 100 155 157
f 106 157 161
f 161 114 106
f 74 106 114
f 114 80 74
f 264 234 233
f 233 265 264
f 297 264 265
f 265 300 297
f 264 297 299
f 299 267 264
f 234 264 267
f 267 236 234
f 328 297 300
f 300 331 328
f 366 328 331
f 331 369 366
f 328 366 367
f 367 330 328
f 297 328 330
f 330 299 297
f 414 366 369
f 369 416 414
f 460 414 416
f 416 463 460
f 414 460 462
f 462 415 414
f 366 414 415
f 415 367 366
f 515 460 463
f 463 516 515
f 567 515 516
f 516 572 567
f 515 567 565
f 565 514 515
f 460 515 514
f 514 462 460
f 52 59 66
f 66 60 52
f 58 52 60
f 60 71 58
f 52 58 40
f 40 38 52
f 59 52 38
f 38 49 59
f 198 231 233
f 233 201 198
f 153 198 201
f 201 155 153
f 198 153 148
f 148 197 198
f 231 198 197
f 197 230 231
f 95 88 109
f 109 123 95
f 96 95 123
f 123 130 96
f 95 96 65
f 65 67 95
f 88 95 67
f 67 63 88
f 216 253 286
f 286 259 216
f 305 259 286
f 286 319 305
f 604 607 653
f 653 651 604
f 688 687 651
f 651 653 688
f 450 459 501
f 501 493 450
f 530 493 501
f 501 536 530
f 380 393 427
f 427 413 380
f 459 450 413
f 413 427 459
f 305 319 354
f 354 345 305
f 393 380 345
f 345 354 393
f 376 390 352
f 352 342 376
f 313 342 352
f 352 320 313
f 313 320 292
f 292 278 313
f 247 278 292
f 292 261 247
f 177 214 191
f 191 141 177
f 116 141 191
f 191 180 116
f 122 184 190
f 190 134 122
f 159 134 190
f 190 211 159
f 159 211 224
f 224 185 159
f 253 216 185
f 185 224 253
f 467 480 436
f 436 423 467
f 390 376 423
f 423 436 390
f 573 577 528
f 528 523 573
f 480 467 523
f 523 528 480
f 530 536 563
f 563 562 530
f 607 604 562
f 562 563 607
f 116 180 176
f 176 112 116
f 184 122 112
f 112 176 184
f 247 261 240
f 240 215 247
f 214 177 215
f 215 240 214
f 697 695 649
f 649 662 697
f 606 642 662
f 662 649 606
f 704 701 648
f 648 631 704
f 638 647 707
f 707 706 638
f 647 638 595
f 595 601 647
f 618 620 705
f 705 702 618
f 620 618 568
f 568 571 620
f 650 651 687
f 687 691 650
f 651 650 603
f 603 604 651
f 630 633 674
f 674 672 630
f 626 630 672
f 672 670 626
f 630 626 580
f 580 583 630
f 633 630 583
f 583 585 633
f 643 644 680
f 680 679 643
f 640 643 679
f 679 678 640
f 643 640 594
f 594 596 643
f 644 643 596
f 596 597 644
f 624 626 670
f 670 671 624
f 621 624 671
f 671 669 621
f 624 621 572
f 572 575 624
f 626 624 575
f 575 580 626
f 665 664 625
f 625 622 665
f 577 573 622
f 622 625 577
f 918 943 913
f 913 886 918
f 846 880 862
f 862 825 846
f 769 813 793
f 793 761 769
f 701 723 717
f 717 699 701
f 1010 1014 971
f 971 965 1010
f 970 1013 1009
f 1009 966 970
f 818 811 766
f 766 780 818
f 863 838 812
f 812 824 863
f 925 890 861
f 861 882 925
f 684 708 713
f 713 682 684
f 950 993 979
f 979 933 950
f 440 398 428
f 428 458 440
f 485 453 491
f 491 509 485
f 546 525 558
f 558 578 546
f 610 602 648
f 648 654 610
f 358 357 400
f 400 401 358
f 378 362 405
f 405 421 378
f 576 560 605
f 605 611 576
f 591 553 533
f 533 559 591
f 547 508 481
f 481 510 547
f 448 461 429
f 429 404 448
f 440 424 383
f 383 398 440
f 448 404 392
f 392 438 448
f 1087 1084 1119
f 1119 1122 1087
f 1089 1087 1122
f 1122 1126 1089
f 1087 1089 1055
f 1055 1053 1087
f 1084 1087 1053
f 1053 1047 1084
f 1018 1015 1047
f 1047 1053 1018
f 1020 1018 1053
f 1053 1055 1020
f 1018 1020 980
f 980 976 1018
f 1015 1018 976
f 976 975 1015
f 932 929 975
f 975 976 932
f 934 932 976
f 976 980 934
f 932 934 889
f 889 885 932
f 929 932 885
f 885 881 929
f 831 830 881
f 881 885 831
f 834 831 885
f 885 889 834
f 831 834 781
f 781 779 831
f 830 831 779
f 779 777 830
f 1287 1267 1244
f 1244 1273 1287
f 1310 1287 1273
f 1273 1296 1310
f 1287 1310 1318
f 1318 1301 1287
f 1267 1287 1301
f 1301 1280 1267
f 1243 1233 1269
f 1269 1288 1243
f 1264 1243 1288
f 1288 1309 1264
f 1243 1264 1205
f 1205 1199 1243
f 1233 1243 1199
f 1199 1190 1233
f 1268 1284 1269
f 1269 1250 1268
f 1253 1268 1250
f 1250 1238 1253
f 1268 1253 1251
f 1251 1266 1268
f 1284 1268 1266
f 1266 1280 1284
f 1151 1153 1119
f 1119 1117 1151
f 1149 1151 1117
f 1117 1114 1149
f 1151 1149 1178
f 1178 1185 1151
f 1153 1151 1185
f 1185 1190 1153
f 732 731 777
f 777 779 732
f 734 732 779
f 779 781 734
f 732 734 676
f 676 677 732
f 731 732 677
f 677 678 731
f 284 287 324
f 324 318 284
f 282 284 318
f 318 316 282
f 284 282 245
f 245 249 284
f 287 284 249
f 249 252 287
f 353 356 396
f 396 395 353
f 351 353 395
f 395 391 351
f 353 351 316
f 316 318 353
f 356 353 318
f 318 324 356
f 439 442 490
f 490 486 439
f 437 439 486
f 486 482 437
f 439 437 391
f 391 395 439
f 442 439 395
f 395 396 442
f 540 541 594
f 594 592 540
f 537 540 592
f 592 590 537
f 540 537 482
f 482 486 540
f 541 540 486
f 486 490 541
f 84 104 91
f 91 70 84
f 61 84 70
f 70 53 61
f 84 61 75
f 75 98 84
f 104 84 98
f 98 127 104
f 128 138 181
f 181 172 128
f 107 128 172
f 172 166 107
f 128 107 62
f 62 83 128
f 138 128 83
f 83 102 138
f 103 87 91
f 91 105 103
f 118 103 105
f 105 120 118
f 103 118 133
f 133 121 103
f 87 103 121
f 121 102 87
f 220 218 181
f 181 186 220
f 222 220 186
f 186 193 222
f 220 222 257
f 257 254 220
f 218 220 254
f 254 252 218
f 639 640 678
f 678 677 639
f 637 639 677
f 677 676 637
f 639 637 590
f 590 592 639
f 640 639 592
f 592 594 640
f 1261 1236 1224
f 1224 1256 1261
f 1293 1261 1256
f 1256 1292 1293
f 1261 1293 1296
f 1296 1273 1261
f 1236 1261 1273
f 1273 1244 1236
f 1052 1016 1044
f 1044 1085 1052
f 1118 1085 1044
f 1044 1067 1118
f 688 689 716
f 716 718 688
f 764 718 716
f 716 759 764
f 835 817 858
f 858 870 835
f 912 870 858
f 858 883 912
f 912 883 916
f 916 944 912
f 978 944 916
f 916 945 978
f 978 945 977
f 977 1017 978
f 1016 1052 1017
f 1017 977 1016
f 1051 1032 1007
f 1007 1019 1051
f 981 1019 1007
f 1007 974 981
f 1110 1083 1056
f 1056 1079 1110
f 1032 1051 1079
f 1079 1056 1032
f 1191 1145 1134
f 1134 1180 1191
f 1157 1180 1134
f 1134 1121 1157
f 1160 1115 1123
f 1123 1181 1160
f 1187 1181 1123
f 1123 1129 1187
f 1118 1067 1092
f 1092 1147 1118
f 1115 1160 1147
f 1147 1092 1115
f 981 974 930
f 930 935 981
f 891 935 930
f 930 884 891
f 891 884 836
f 836 843 891
f 794 843 836
f 836 789 794
f 764 759 787
f 787 808 764
f 817 835 808
f 808 787 817
f 1187 1129 1143
f 1143 1195 1187
f 1145 1191 1195
f 1195 1143 1145
f 1157 1121 1108
f 1108 1131 1157
f 1083 1110 1131
f 1131 1108 1083
f 794 789 744
f 744 746 794
f 664 746 744
f 744 673 664
f 253 304 327
f 327 286 253
f 319 286 327
f 327 355 319
f 607 612 655
f 655 653 607
f 689 688 653
f 653 655 689
f 459 488 513
f 513 501 459
f 536 501 513
f 513 554 536
f 393 426 455
f 455 427 393
f 488 459 427
f 427 455 488
f 319 355 394
f 394 354 319
f 426 393 354
f 354 394 426
f 390 397 364
f 364 352 390
f 320 352 364
f 364 339 320
f 320 339 315
f 315 292 320
f 261 292 315
f 315 288 261
f 214 250 237
f 237 191 214
f 180 191 237
f 237 226 180
f 184 242 248
f 248 190 184
f 211 190 248
f 248 256 211
f 211 256 279
f 279 224 211
f 304 253 224
f 224 279 304
f 480 487 441
f 441 436 480
f 397 390 436
f 436 441 397
f 577 582 535
f 535 528 577
f 487 480 528
f 528 535 487
f 536 554 584
f 584 563 536
f 612 607 563
f 563 584 612
f 180 226 228
f 228 176 180
f 242 184 176
f 176 228 242
f 261 288 263
f 263 240 261
f 250 214 240
f 240 263 250
f 664 673 627
f 627 625 664
f 582 577 625
f 625 627 582
f 709 662 609
f 609 586 557
f 557 543 520
f 609 557 520
f 520 507 497
f 497 484 478
f 520 497 478
f 609 520 478
f 478 474 477
f 477 483 494
f 478 477 494
f 494 503 511
f 511 539 555
f 494 511 555
f 478 494 555
f 555 581 608
f 608 636 660
f 555 608 660
f 711 735 763
f 660 711 763
f 555 660 763
f 478 555 763
f 763 790 816
f 816 832 860
f 763 816 860
f 860 868 877
f 877 888 894
f 860 877 894
f 763 860 894
f 894 897 893
f 893 887 874
f 894 893 874
f 874 864 851
f 851 828 814
f 874 851 814
f 894 874 814
f 763 894 814
f 478 763 814
f 609 478 814
f 709 609 814
f 762 709 814
f 785 762 814
f 1369 1367 1365
f 1365 1363 1357
f 1357 1351 1337
f 1365 1357 1337
f 1337 1188 1125
f 1125 1078 1033
f 1337 1125 1033
f 1033 983 936
f 936 895 859
f 1033 936 859
f 1337 1033 859
f 859 815 770
f 770 724 707
f 859 770 707
f 707 647 601
f 601 556 512
f 707 601 512
f 859 707 512
f 1337 859 512
f 512 476 435
f 435 388 338
f 512 435 338
f 338 293 246
f 246 183 34
f 338 246 34
f 512 338 34
f 34 20 14
f 14 8 6
f 34 14 6
f 6 4 2
f 2 1 3
f 6 2 3
f 34 6 3
f 512 34 3
f 3 5 7
f 7 11 17
f 3 7 17
f 17 23 142
f 142 221 277
f 17 142 277
f 3 17 277
f 277 321 363
f 363 410 457
f 277 363 457
f 457 504 548
f 548 593 628
f 457 548 628
f 277 457 628
f 3 277 628
f 628 696 743
f 743 778 823
f 823 867 914
f 743 823 914
f 628 743 914
f 914 961 1008
f 1008 1050 1094
f 914 1008 1094
f 1094 1150 1229
f 1229 1348 1354
f 1094 1229 1354
f 914 1094 1354
f 628 914 1354
f 3 628 1354
f 512 3 1354
f 1337 512 1354
f 1354 1360 1364
f 1364 1366 1368
f 1354 1364 1368
f 1337 1354 1368
f 1365 1337 1368
f 1369 1365 1368
f 1370 1369 1368
f 977 945 916
f 916 883 858
f 858 817 787
f 916 858 787
f 716 689 655
f 787 716 655
f 584 554 513
f 655 584 513
f 787 655 513
f 513 488 455
f 455 426 394
f 513 455 394
f 394 355 327
f 327 304 279
f 394 327 279
f 513 394 279
f 279 256 248
f 279 248 228
f 228 226 237
f 237 250 263
f 228 237 263
f 279 228 263
f 513 279 263
f 263 288 315
f 315 339 364
f 263 315 364
f 364 397 441
f 441 487 535
f 364 441 535
f 263 364 535
f 535 582 627
f 627 673 744
f 535 627 744
f 744 789 836
f 836 884 930
f 744 836 930
f 535 744 930
f 263 535 930
f 930 974 1007
f 1007 1032 1056
f 930 1007 1056
f 1056 1083 1108
f 1108 1121 1134
f 1056 1108 1134
f 930 1056 1134
f 1134 1145 1143
f 1134 1143 1123
f 1123 1115 1092
f 1092 1067 1044
f 1123 1092 1044
f 1134 1123 1044
f 930 1134 1044
f 263 930 1044
f 513 263 1044
f 787 513 1044
f 916 787 1044
f 977 916 1044
f 1016 977 1044

# 1370 vertices
# 0 texture params
# 0 normals
# 2726 facets

# 1 groups
