# WaveFront *.obj file (generated by Autodesk ATF)

mtllib holder_end.mtl

g MeshBody17

v 0.445905 0.363418 0.436189
v 0.446771 0.369992 0.436189
v 0.449308 0.376118 0.436189
v 0.453345 0.381378 0.436189
v 0.458605 0.385415 0.436189
v 0.464731 0.387952 0.436189
v 0.471305 0.388818 0.436189
v 0.477879 0.387952 0.436189
v 0.484005 0.385415 0.436189
v 0.489266 0.381378 0.436189
v 0.493302 0.376118 0.436189
v 0.495840 0.369992 0.436189
v 0.496705 0.363418 0.436189
v 0.495840 0.356844 0.436189
v 0.493302 0.350718 0.436189
v 0.489266 0.345457 0.436189
v 0.484005 0.341421 0.436189
v 0.477879 0.338883 0.436189
v 0.471305 0.338018 0.436189
v 0.464731 0.338883 0.436189
v 0.458605 0.341421 0.436189
v 0.453345 0.345457 0.436189
v 0.449308 0.350718 0.436189
v 0.446771 0.356844 0.436189
v 0.445905 0.363418 0.474289
v 0.446771 0.356844 0.474289
v 0.449308 0.350718 0.474289
v 0.453345 0.345457 0.474289
v 0.458605 0.341421 0.474289
v 0.464731 0.338883 0.474289
v 0.471305 0.338018 0.474289
v 0.477879 0.338883 0.474289
v 0.484005 0.341421 0.474289
v 0.489266 0.345457 0.474289
v 0.493302 0.350718 0.474289
v 0.495840 0.356844 0.474289
v 0.496705 0.363418 0.474289
v 0.495840 0.369992 0.474289
v 0.493302 0.376118 0.474289
v 0.489266 0.381378 0.474289
v 0.484005 0.385415 0.474289
v 0.477879 0.387952 0.474289
v 0.471305 0.388818 0.474289
v 0.464731 0.387952 0.474289
v 0.458605 0.385415 0.474289
v 0.453345 0.381378 0.474289
v 0.449308 0.376118 0.474289
v 0.446771 0.369992 0.474289
v 0.420505 0.395168 0.506039
v 0.420505 0.395168 0.404439
v 0.522105 0.395168 0.404439
v 0.522105 0.395168 0.506039
v 0.515755 0.395168 0.436189
v 0.426855 0.395168 0.436189
v 0.426855 0.395168 0.474289
v 0.515755 0.395168 0.474289
v 0.420505 0.402788 0.506039
v 0.420505 0.402788 0.404439
v 0.522105 0.402788 0.404439
v 0.522105 0.402788 0.506039
v 0.426855 0.331668 0.436189
v 0.426855 0.331668 0.474289
v 0.515755 0.331668 0.436189
v 0.515755 0.331668 0.474289
usemtl Steel_-_Satin
f 2 48 1
f 1 48 25
f 1 25 24
f 24 25 26
f 24 26 23
f 23 26 27
f 23 27 22
f 22 27 28
f 22 28 21
f 21 28 29
f 21 29 20
f 20 29 30
f 20 30 19
f 19 30 31
f 19 31 18
f 18 31 32
f 18 32 17
f 17 32 33
f 17 33 16
f 16 33 34
f 16 34 15
f 15 34 35
f 15 35 14
f 14 35 36
f 14 36 13
f 13 36 37
f 13 37 12
f 12 37 38
f 12 38 11
f 11 38 39
f 11 39 10
f 10 39 40
f 10 40 9
f 9 40 41
f 9 41 8
f 8 41 42
f 8 42 7
f 7 42 43
f 7 43 6
f 6 43 44
f 6 44 5
f 5 44 45
f 5 45 4
f 4 45 46
f 4 46 3
f 3 46 47
f 3 47 2
f 2 47 48
f 50 55 49
f 49 55 56
f 49 56 52
f 52 56 51
f 51 56 53
f 51 53 54
f 55 50 54
f 54 50 51
f 58 50 57
f 57 50 49
f 58 59 50
f 50 59 51
f 60 52 59
f 59 52 51
f 60 57 52
f 52 57 49
f 57 60 58
f 58 60 59
f 54 61 55
f 55 61 62
f 53 7 54
f 54 7 6
f 54 6 5
f 63 13 53
f 53 13 12
f 53 12 11
f 61 19 63
f 63 19 18
f 63 18 17
f 54 1 61
f 61 1 24
f 61 24 23
f 23 22 61
f 61 22 21
f 61 21 20
f 20 19 61
f 17 16 63
f 63 16 15
f 63 15 14
f 14 13 63
f 11 10 53
f 53 10 9
f 53 9 8
f 8 7 53
f 5 4 54
f 54 4 3
f 54 3 2
f 2 1 54
f 53 56 63
f 63 56 64
f 55 43 56
f 56 43 42
f 56 42 41
f 62 25 55
f 55 25 48
f 55 48 47
f 64 31 62
f 62 31 30
f 62 30 29
f 56 37 64
f 64 37 36
f 64 36 35
f 47 46 55
f 55 46 45
f 55 45 44
f 44 43 55
f 41 40 56
f 56 40 39
f 56 39 38
f 38 37 56
f 35 34 64
f 64 34 33
f 64 33 32
f 32 31 64
f 29 28 62
f 62 28 27
f 62 27 26
f 26 25 62
f 61 63 62
f 62 63 64

# 64 vertices
# 0 texture params
# 0 normals
# 128 facets

# 1 groups
