# WaveFront *.obj file (generated by Autodesk ATF)

mtllib side_endholder.mtl

g MeshBody10

v 0.504643 0.510420 0.359613
v 0.504643 0.506528 0.360126
v 0.504643 0.502902 0.361628
v 0.504643 0.499788 0.364017
v 0.504643 0.497398 0.367132
v 0.504643 0.495896 0.370758
v 0.504643 0.495383 0.374650
v 0.504643 0.495896 0.378542
v 0.504643 0.497398 0.382168
v 0.504643 0.499788 0.385283
v 0.504643 0.502902 0.387672
v 0.504643 0.506528 0.389174
v 0.504643 0.510420 0.389687
v 0.504643 0.514312 0.389174
v 0.504643 0.517939 0.387672
v 0.504643 0.521053 0.385283
v 0.504643 0.523442 0.382168
v 0.504643 0.524945 0.378542
v 0.504643 0.525457 0.374650
v 0.504643 0.524945 0.370758
v 0.504643 0.523442 0.367132
v 0.504643 0.521053 0.364017
v 0.504643 0.517939 0.361628
v 0.504643 0.514312 0.360126
v 0.523693 0.510420 0.359613
v 0.523693 0.514312 0.360126
v 0.523693 0.517939 0.361628
v 0.523693 0.521053 0.364017
v 0.523693 0.523442 0.367132
v 0.523693 0.524945 0.370758
v 0.523693 0.525457 0.374650
v 0.523693 0.524945 0.378542
v 0.523693 0.523442 0.382168
v 0.523693 0.521053 0.385283
v 0.523693 0.517939 0.387672
v 0.523693 0.514312 0.389174
v 0.523693 0.510420 0.389687
v 0.523693 0.506528 0.389174
v 0.523693 0.502902 0.387672
v 0.523693 0.499788 0.385283
v 0.523693 0.497398 0.382168
v 0.523693 0.495896 0.378542
v 0.523693 0.495383 0.374650
v 0.523693 0.495896 0.370758
v 0.523693 0.497398 0.367132
v 0.523693 0.499788 0.364017
v 0.523693 0.502902 0.361628
v 0.523693 0.506528 0.360126
v 0.504643 0.510420 0.461213
v 0.504643 0.506528 0.461726
v 0.504643 0.502902 0.463228
v 0.504643 0.499788 0.465617
v 0.504643 0.497398 0.468732
v 0.504643 0.495896 0.472358
v 0.504643 0.495383 0.476250
v 0.504643 0.495896 0.480142
v 0.504643 0.497398 0.483768
v 0.504643 0.499788 0.486883
v 0.504643 0.502902 0.489272
v 0.504643 0.506528 0.490774
v 0.504643 0.510420 0.491287
v 0.504643 0.514312 0.490774
v 0.504643 0.517939 0.489272
v 0.504643 0.521053 0.486883
v 0.504643 0.523442 0.483768
v 0.504643 0.524945 0.480142
v 0.504643 0.525457 0.476250
v 0.504643 0.524945 0.472358
v 0.504643 0.523442 0.468732
v 0.504643 0.521053 0.465617
v 0.504643 0.517939 0.463228
v 0.504643 0.514312 0.461726
v 0.523693 0.510420 0.461213
v 0.523693 0.514312 0.461726
v 0.523693 0.517939 0.463228
v 0.523693 0.521053 0.465617
v 0.523693 0.523442 0.468732
v 0.523693 0.524945 0.472358
v 0.523693 0.525457 0.476250
v 0.523693 0.524945 0.480142
v 0.523693 0.523442 0.483768
v 0.523693 0.521053 0.486883
v 0.523693 0.517939 0.489272
v 0.523693 0.514312 0.490774
v 0.523693 0.510420 0.491287
v 0.523693 0.506528 0.490774
v 0.523693 0.502902 0.489272
v 0.523693 0.499788 0.486883
v 0.523693 0.497398 0.483768
v 0.523693 0.495896 0.480142
v 0.523693 0.495383 0.476250
v 0.523693 0.495896 0.472358
v 0.523693 0.497398 0.468732
v 0.523693 0.499788 0.465617
v 0.523693 0.502902 0.463228
v 0.523693 0.506528 0.461726
v 0.523693 0.472320 0.292100
v 0.523693 0.472320 0.615950
v 0.504643 0.472320 0.615950
v 0.504643 0.472320 0.292100
v 0.523693 0.548520 0.615950
v 0.504643 0.548520 0.615950
v 0.523693 0.548520 0.292100
v 0.504643 0.548520 0.292100
usemtl Steel_-_Satin
f 2 48 1
f 1 48 25
f 1 25 24
f 24 25 26
f 24 26 23
f 23 26 27
f 23 27 22
f 22 27 28
f 22 28 21
f 21 28 29
f 21 29 20
f 20 29 30
f 20 30 19
f 19 30 31
f 19 31 18
f 18 31 32
f 18 32 17
f 17 32 33
f 17 33 16
f 16 33 34
f 16 34 15
f 15 34 35
f 15 35 14
f 14 35 36
f 14 36 13
f 13 36 37
f 13 37 12
f 12 37 38
f 12 38 11
f 11 38 39
f 11 39 10
f 10 39 40
f 10 40 9
f 9 40 41
f 9 41 8
f 8 41 42
f 8 42 7
f 7 42 43
f 7 43 6
f 6 43 44
f 6 44 5
f 5 44 45
f 5 45 4
f 4 45 46
f 4 46 3
f 3 46 47
f 3 47 2
f 2 47 48
f 50 96 49
f 49 96 73
f 49 73 72
f 72 73 74
f 72 74 71
f 71 74 75
f 71 75 70
f 70 75 76
f 70 76 69
f 69 76 77
f 69 77 68
f 68 77 78
f 68 78 67
f 67 78 79
f 67 79 66
f 66 79 80
f 66 80 65
f 65 80 81
f 65 81 64
f 64 81 82
f 64 82 63
f 63 82 83
f 63 83 62
f 62 83 84
f 62 84 61
f 61 84 85
f 61 85 60
f 60 85 86
f 60 86 59
f 59 86 87
f 59 87 58
f 58 87 88
f 58 88 57
f 57 88 89
f 57 89 56
f 56 89 90
f 56 90 55
f 55 90 91
f 55 91 54
f 54 91 92
f 54 92 53
f 53 92 93
f 53 93 52
f 52 93 94
f 52 94 51
f 51 94 95
f 51 95 50
f 50 95 96
f 97 98 100
f 100 98 99
f 98 101 99
f 99 101 102
f 101 103 102
f 102 103 104
f 103 97 104
f 104 97 100
f 99 55 100
f 100 55 7
f 100 7 6
f 102 61 99
f 99 61 60
f 99 60 59
f 104 67 102
f 102 67 66
f 102 66 65
f 100 1 104
f 104 1 24
f 104 24 23
f 23 22 104
f 104 22 21
f 104 21 20
f 20 19 104
f 104 19 67
f 67 19 68
f 68 19 18
f 68 18 69
f 69 18 17
f 69 17 70
f 70 17 16
f 70 16 71
f 71 16 15
f 71 15 72
f 72 15 14
f 72 14 49
f 49 14 13
f 49 13 50
f 50 13 12
f 50 12 51
f 51 12 11
f 51 11 52
f 52 11 10
f 52 10 53
f 53 10 9
f 53 9 54
f 54 9 8
f 54 8 55
f 55 8 7
f 6 5 100
f 100 5 4
f 100 4 3
f 3 2 100
f 100 2 1
f 65 64 102
f 102 64 63
f 102 63 62
f 62 61 102
f 59 58 99
f 99 58 57
f 99 57 56
f 56 55 99
f 97 91 98
f 98 91 90
f 98 90 89
f 103 25 97
f 97 25 48
f 97 48 47
f 101 79 103
f 103 79 31
f 103 31 30
f 98 85 101
f 101 85 84
f 101 84 83
f 47 46 97
f 97 46 45
f 97 45 44
f 44 43 97
f 97 43 91
f 91 43 92
f 92 43 42
f 92 42 93
f 93 42 41
f 93 41 94
f 94 41 40
f 94 40 95
f 95 40 39
f 95 39 96
f 96 39 38
f 96 38 73
f 73 38 37
f 73 37 74
f 74 37 36
f 74 36 75
f 75 36 35
f 75 35 76
f 76 35 34
f 76 34 77
f 77 34 33
f 77 33 78
f 78 33 32
f 78 32 79
f 79 32 31
f 30 29 103
f 103 29 28
f 103 28 27
f 27 26 103
f 103 26 25
f 89 88 98
f 98 88 87
f 98 87 86
f 86 85 98
f 83 82 101
f 101 82 81
f 101 81 80
f 80 79 101

# 104 vertices
# 0 texture params
# 0 normals
# 212 facets

# 1 groups
